0,0.00000000,0.00000000
1574319320167,11.79687500,-0.37500000
1574319320607,13.21875000,-0.37500000
1574319320827,15.54687500,-0.37500000
1574319321047,19.32812500,-0.37500000
1574319321487,24.78125000,-0.42187500
1574319321707,26.73437500,-0.42187500
1574319321927,31.53125000,-0.42187500
1574319322367,40.43750000,-0.37500000
1574319322587,42.53125000,-0.37500000
1574319322807,41.34375000,-0.37500000
1574319323247,45.10937500,-0.40625000
1574319323467,45.67187500,-0.40625000
1574319323688,46.57812500,-0.40625000
1574319324127,53.84375000,-0.42187500
1574319324347,57.79687500,-0.42187500
1574319324567,57.31250000,-0.42187500
1574319325007,58.78125000,-0.45312500
1574319325227,54.23437500,-0.45312500
1574319325447,69.50000000,-0.45312500
1574319325887,70.04687500,-0.46875000
1574319326107,68.18750000,-0.46875000
1574319326767,85.75000000,-0.39062500
1574319326987,85.21875000,-0.39062500
1574319327647,85.14062500,-0.37500000
1574319327867,86.93750000,-0.37500000
1574319328087,87.79687500,-0.37500000
1574319328527,89.79687500,-0.37500000
1574319328747,90.90625000,-0.37500000
1574319328967,90.26562500,-0.37500000
1574319329417,90.68750000,-0.40625000
1574319329627,88.56250000,-0.40625000
1574319330287,80.28125000,-0.37500000
1574319330507,69.20312500,-0.37500000
1574319331167,67.42187500,-0.34375000
1574319331387,66.18750000,-0.34375000
1574319332047,58.70312500,-0.39062500
1574319332267,54.54687500,-0.39062500
1574319332707,41.65625000,-0.28125000
1574319332927,38.79687500,-0.28125000
1574319333147,35.79687500,-0.28125000
1574319333587,25.84375000,-0.29687500
1574319333807,19.87500000,-0.29687500
1574319334027,14.17187500,-0.29687500
1574319334467,8.01562500,-0.34375000
1574319334687,4.32812500,-0.34375000
1574319334908,3.40625000,-0.34375000
1574319335347,2.92187500,-0.37500000
1574319335567,2.54687500,-0.37500000
1574319336227,6.51562500,-0.34375000
1574319336447,6.51562500,-0.34375000
1574319337107,0.34375000,-0.42187500
1574319337327,0.78125000,-0.42187500
1574319337767,12.09375000,-0.43750000
1574319337987,19.78125000,-0.43750000
1574319338207,27.15625000,-0.43750000
1574319338647,37.25000000,-0.37500000
1574319338867,43.78125000,-0.37500000
1574319339087,46.04687500,-0.37500000
1574319339527,52.98437500,-0.37500000
1574319339747,55.29687500,-0.37500000
1574319340407,59.67187500,-0.35937500
1574319340627,60.85937500,-0.35937500
1574319341287,69.59375000,-0.40625000
1574319341507,65.04687500,-0.40625000
1574319341948,69.54687500,-0.37500000
1574319342167,73.95312500,-0.37500000
1574319342387,74.20312500,-0.37500000
1574319342827,86.93750000,-0.39062500
1574319343047,89.95312500,-0.39062500
1574319343267,86.70312500,-0.39062500
1574319343707,87.21875000,-0.40625000
1574319343927,84.76562500,-0.40625000
1574319344147,70.92187500,-0.40625000
1574319344587,68.56250000,-0.35937500
1574319344807,47.85937500,-0.35937500
1574319345467,38.45312500,-0.34375000
1574319345687,32.28125000,-0.34375000
1574319346347,12.96875000,-0.37500000
1574319346567,10.71875000,-0.37500000
1574319347227,8.23437500,-0.37500000
1574319347447,9.57812500,-0.37500000
1574319348107,13.01562500,-0.37500000
1574319348327,12.53125000,-0.37500000
1574319348767,9.23437500,-0.37500000
1574319348987,8.04687500,-0.37500000
1574319349207,6.60937500,-0.37500000
1574319349647,3.00000000,-0.40625000
1574319349867,-6.62500000,-0.40625000
1574319350087,-3.60937500,-0.40625000
1574319350527,20.18750000,-0.37500000
1574319350747,25.85937500,-0.37500000
1574319350967,25.62500000,-0.37500000
1574319351407,47.28125000,-0.37500000
1574319351627,52.68750000,-0.37500000
1574319351847,56.04687500,-0.37500000
1574319352287,68.87500000,-0.43750000
1574319352507,71.54687500,-0.43750000
1574319352727,71.98437500,-0.43750000
1574319353167,65.64062500,-0.31250000
1574319353387,62.79687500,-0.31250000
1574319353607,58.84375000,-0.31250000
1574319354047,48.31250000,-0.45312500
1574319354267,42.12500000,-0.45312500
1574319354488,35.43750000,-0.45312500
1574319354927,23.98437500,-0.12500000
1574319355147,21.53125000,-0.12500000
1574319355367,19.79687500,-0.12500000
1574319355807,18.04687500,-0.28125000
1574319356027,17.50000000,-0.28125000
1574319356247,18.03125000,-0.28125000
1574319356687,23.15625000,-0.23437500
1574319356907,26.39062500,-0.23437500
1574319357127,22.87500000,-0.23437500
1574319357567,38.07812500,-0.26562500
1574319357787,43.03125000,-0.26562500
1574319358007,46.15625000,-0.26562500
1574319358447,46.57812500,-0.09375000
1574319358667,46.73437500,-0.09375000
1574319358887,42.39062500,-0.09375000
1574319359327,39.87500000,0.15625000
1574319359547,35.85937500,0.15625000
1574319359767,32.92187500,0.15625000
1574319360207,33.79687500,-0.34375000
1574319360427,32.37500000,-0.34375000
1574319360647,29.87500000,-0.34375000
1574319361087,42.84375000,-0.43750000
1574319361307,52.50000000,-0.43750000
1574319361527,54.78125000,-0.43750000
1574319361967,67.60937500,-0.28125000
1574319362187,69.78125000,-0.28125000
1574319362407,71.46875000,-0.28125000
1574319362847,72.93750000,-0.15625000
1574319363067,72.37500000,-0.15625000
1574319363287,70.75000000,-0.15625000
1574319363727,67.46875000,-0.23437500
1574319363947,64.09375000,-0.23437500
1574319364167,59.71875000,-0.23437500
1574319364607,52.26562500,0.09375000
1574319364827,49.01562500,0.09375000
1574319365047,43.40625000,0.09375000
1574319365487,40.12500000,0.06250000
1574319365707,38.89062500,0.06250000
1574319365927,36.90625000,0.06250000
1574319366367,32.14062500,0.06250000
1574319366587,29.64062500,0.06250000
1574319366807,28.20312500,0.06250000
1574319367247,24.01562500,0.07812500
1574319367467,23.23437500,0.07812500
1574319367687,21.75000000,0.07812500
1574319368127,20.12500000,-0.20312500
1574319368347,19.95312500,-0.20312500
1574319369007,19.29687500,-0.01562500
1574319369227,19.93750000,-0.01562500
1574319369887,20.78125000,-0.06250000
1574319370107,21.35937500,-0.06250000
1574319370767,23.10937500,-0.35937500
1574319370987,25.01562500,-0.35937500
1574319371427,27.23437500,-0.01562500
1574319371647,28.34375000,-0.01562500
1574319371867,26.53125000,-0.01562500
1574319372307,30.40625000,-0.28125000
1574319372527,29.98437500,-0.28125000
1574319372747,34.75000000,-0.28125000
1574319373187,33.34375000,-0.39062500
1574319373407,31.65625000,-0.39062500
1574319373627,28.78125000,-0.39062500
1574319374067,27.23437500,-0.42187500
1574319374287,30.73437500,-0.42187500
1574319374947,42.79687500,-0.25000000
1574319375167,43.25000000,-0.25000000
1574319375387,46.00000000,-0.25000000
1574319375827,43.35937500,-0.43750000
1574319376047,48.17187500,-0.43750000
1574319376267,46.37500000,-0.43750000
1574319376707,43.85937500,-0.29687500
1574319376927,41.68750000,-0.29687500
1574319377147,37.21875000,-0.29687500
1574319377587,29.93750000,-0.12500000
1574319377807,28.20312500,-0.12500000
1574319378027,27.10937500,-0.12500000
1574319378467,16.71875000,-0.43750000
1574319378687,26.81250000,-0.43750000
1574319378907,27.67187500,-0.43750000
1574319379347,27.84375000,-0.39062500
1574319379567,26.90625000,-0.39062500
1574319379787,26.18750000,-0.39062500
1574319380227,22.34375000,-0.37500000
1574319380447,21.32812500,-0.37500000
1574319380667,21.70312500,-0.37500000
1574319381107,25.82812500,-0.35937500
1574319381327,31.64062500,-0.35937500
1574319381547,38.56250000,-0.35937500
1574319381987,44.20312500,-0.34375000
1574319382207,55.34375000,-0.34375000
1574319382427,48.67187500,-0.34375000
1574319382867,49.73437500,-0.34375000
1574319383087,73.68750000,-0.34375000
1574319383307,85.14062500,-0.34375000
1574319383747,85.57812500,-0.34375000
1574319383967,78.81250000,-0.34375000
1574319384187,81.39062500,-0.34375000
1574319384627,69.14062500,-0.25000000
1574319384847,58.95312500,-0.25000000
1574319385067,49.39062500,-0.25000000
1574319385507,41.51562500,-0.26562500
1574319385727,37.51562500,-0.26562500
1574319386387,21.85937500,-0.29687500
1574319386607,16.81250000,-0.29687500
1574319387267,-0.56250000,-0.25000000
1574319387487,-5.42187500,-0.25000000
1574319388147,-12.35937500,-0.29687500
1574319388367,-17.56250000,-0.29687500
1574319389027,-12.39062500,-0.37500000
1574319389247,10.43750000,-0.37500000
1574319389697,32.53125000,-0.31250000
1574319389917,54.85937500,-0.31250000
1574319390357,86.37500000,-0.31250000
1574319390577,76.20312500,-0.31250000
1574319390797,76.28125000,-0.31250000
1574319391237,60.01562500,-0.32812500
1574319391457,47.09375000,-0.32812500
1574319391677,33.89062500,-0.32812500
1574319392118,20.03125000,-0.34375000
1574319392337,20.46875000,-0.34375000
1574319392557,19.40625000,-0.34375000
