0.000000,0.000000,0.000000
308175.000000,-0.218000,10.900000
308410.000000,-0.327000,10.900000
308688.000000,-0.436000,10.900000
308851.000000,-0.327000,10.900000
309022.000000,-0.218000,10.900000
309134.000000,-0.109000,10.900000
309232.000000,0.000000,10.900000
309421.000000,0.109000,10.900000
309586.000000,0.218000,10.900000
309772.000000,0.327000,10.900000
310630.000000,0.218000,10.900000
310785.000000,0.109000,10.900000
310979.000000,0.000000,10.900000
311253.000000,-0.109000,10.900000
311560.000000,0.000000,10.900000
312103.000000,0.109000,10.900000
312565.000000,0.218000,10.900000
315130.000000,0.327000,10.900000
315885.000000,0.436000,10.900000
316365.000000,0.545000,10.900000
316702.000000,0.654000,10.900000
317131.000000,0.763000,10.900000
317368.000000,0.872000,10.900000
317677.000000,0.981000,10.900000
318048.000000,0.872000,10.900000
318196.000000,0.763000,10.900000
318348.000000,0.654000,10.900000
318513.000000,0.545000,10.900000
318671.000000,0.436000,10.900000
318798.000000,0.327000,10.900000
318915.000000,0.218000,10.900000
318998.000000,0.109000,10.900000
319224.000000,0.000000,10.900000
319409.000000,-0.109000,10.900000
319729.000000,-0.218000,10.900000
319907.000000,-0.327000,10.900000
320167.000000,-0.436000,10.900000
320673.000000,-0.327000,10.900000
320874.000000,-0.436000,10.900000
321292.000000,-0.545000,10.900000
321778.000000,-0.654000,10.900000
322036.000000,-0.763000,10.900000
322259.000000,-0.872000,10.900000
322516.000000,-0.763000,10.900000
322654.000000,-0.654000,10.900000
322846.000000,-0.545000,10.900000
323197.000000,-0.436000,10.900000
323876.000000,-0.545000,10.900000
324123.000000,-0.654000,10.900000
325074.000000,-0.763000,10.900000
328658.000000,-0.654000,10.900000
328931.000000,-0.545000,10.900000
329155.000000,-0.436000,10.900000
329354.000000,-0.327000,10.900000
329558.000000,-0.218000,10.900000
329726.000000,-0.109000,10.900000
329883.000000,0.000000,10.900000
330154.000000,0.109000,10.900000
330452.000000,0.218000,10.900000
330777.000000,0.327000,10.900000
331067.000000,0.436000,10.900000
331680.000000,0.545000,10.900000
331944.000000,0.654000,10.900000
332165.000000,0.763000,10.900000
332399.000000,0.872000,10.900000
332791.000000,0.981000,10.900000
333205.000000,0.872000,10.900000
333463.000000,0.763000,10.900000
333613.000000,0.654000,10.900000
333756.000000,0.545000,10.900000
333916.000000,0.436000,10.900000
334118.000000,0.327000,10.900000
334413.000000,0.218000,10.900000
334664.000000,0.109000,10.900000
334891.000000,0.000000,10.900000
336838.000000,-0.109000,10.900000
337018.000000,-0.218000,10.900000
337552.000000,-0.109000,10.900000
337698.000000,0.000000,10.900000
337927.000000,0.109000,10.900000
338239.000000,0.000000,10.900000
338337.000000,-0.109000,10.900000
338436.000000,-0.218000,10.900000
338528.000000,-0.327000,10.900000
338647.000000,-0.436000,10.900000
338834.000000,-0.545000,10.900000
339057.000000,-0.654000,10.900000
339302.000000,-0.763000,10.900000
339479.000000,-0.872000,10.900000
345608.000000,-0.763000,10.900000
345744.000000,-0.654000,10.900000
345868.000000,-0.545000,10.900000
345981.000000,-0.436000,10.900000
346124.000000,-0.327000,10.900000
346266.000000,-0.218000,10.900000
346447.000000,-0.109000,10.900000
346615.000000,0.000000,10.900000
347508.000000,0.109000,10.900000
347913.000000,0.218000,10.900000
351719.000000,0.109000,10.900000
352000.000000,0.000000,10.900000
352311.000000,-0.109000,10.900000
352591.000000,-0.218000,10.900000
352909.000000,-0.327000,10.900000
353196.000000,-0.218000,10.900000
353465.000000,-0.109000,10.900000
353691.000000,0.000000,10.900000
354214.000000,0.109000,10.900000
355152.000000,0.218000,10.900000
355341.000000,0.109000,10.900000
355649.000000,0.000000,10.900000
356298.000000,-0.109000,10.900000
356499.000000,0.000000,10.900000
356932.000000,-0.109000,10.900000
357095.000000,0.000000,10.900000
357313.000000,-0.109000,10.900000
357457.000000,-0.218000,10.900000
357540.000000,-0.327000,10.900000
357687.000000,-0.218000,10.900000
357824.000000,-0.109000,10.900000
358036.000000,0.000000,10.900000
358541.000000,0.109000,10.900000
359326.000000,0.000000,10.900000
359973.000000,-0.109000,10.900000
361257.000000,-0.218000,10.900000
361981.000000,-0.327000,10.900000
362130.000000,-0.436000,10.900000
362540.000000,-0.545000,10.900000
362650.000000,-0.654000,10.900000
362994.000000,-0.545000,10.900000
363226.000000,-0.436000,10.900000
363535.000000,-0.327000,10.900000
364173.000000,-0.218000,10.900000
364496.000000,-0.109000,10.900000
364988.000000,0.000000,10.900000
366240.000000,0.109000,10.900000
366724.000000,0.218000,10.900000
367975.000000,0.327000,10.900000
368524.000000,0.436000,10.900000
369226.000000,0.327000,10.900000
369521.000000,0.218000,10.900000
369708.000000,0.109000,10.900000
370258.000000,0.000000,10.900000
371162.000000,-0.109000,10.900000
371880.000000,-0.218000,10.900000
372384.000000,-0.327000,10.900000
372617.000000,-0.218000,10.900000
372795.000000,-0.109000,10.900000
373531.000000,0.000000,10.900000
375389.000000,0.109000,10.900000
377056.000000,0.000000,10.900000
379358.000000,0.109000,10.900000
379601.000000,0.218000,10.900000
379872.000000,0.327000,10.900000
380248.000000,0.436000,10.900000
380746.000000,0.327000,10.900000
380917.000000,0.218000,10.900000
381083.000000,0.109000,10.900000
381229.000000,0.000000,10.900000
381398.000000,-0.109000,10.900000
381568.000000,-0.218000,10.900000
381966.000000,-0.327000,10.900000
382151.000000,-0.436000,10.900000
382717.000000,-0.545000,10.900000
382936.000000,-0.654000,10.900000
385250.000000,-0.763000,10.900000
385724.000000,-0.872000,10.900000
386395.000000,-0.981000,10.900000
386910.000000,-1.090000,10.900000
387505.000000,-1.199000,10.900000
388082.000000,-1.308000,10.900000
388940.000000,-1.199000,10.900000
389222.000000,-1.090000,10.900000
389511.000000,-0.981000,10.900000
389816.000000,-0.872000,10.900000
390039.000000,-0.763000,10.900000
390340.000000,-0.654000,10.900000
390600.000000,-0.545000,10.900000
390852.000000,-0.436000,10.900000
391114.000000,-0.327000,10.900000
391388.000000,-0.218000,10.900000
391820.000000,-0.109000,10.900000
392122.000000,0.000000,10.900000
