0,0.00000000,0.00000000
1574460037416,151.17187500,5.96875000
1574460037436,150.81250000,5.96875000
1574460037496,149.35937500,5.93750000
1574460037516,148.84375000,5.93750000
1574460037557,148.37500000,5.92187500
1574460037577,147.71875000,5.92187500
1574460037637,144.01562500,5.60937500
1574460037656,142.64062500,5.60937500
1574460037716,139.90625000,5.31250000
1574460037737,139.90625000,5.31250000
1574460037796,139.32812500,5.15625000
1574460037816,138.84375000,5.15625000
1574460037877,140.40625000,5.06250000
1574460037897,139.76562500,5.06250000
1574460037916,139.53125000,5.06250000
1574460037936,141.32812500,5.06250000
1574460037956,141.39062500,5.06250000
1574460038016,142.64062500,5.03125000
1574460038036,143.53125000,5.03125000
1574460038096,144.21875000,5.03125000
1574460038116,143.92187500,5.03125000
1574460038176,144.67187500,4.96875000
1574460038196,144.56250000,4.96875000
1574460038257,144.51562500,4.89062500
1574460038276,143.85937500,4.89062500
1574460038336,144.50000000,4.90625000
1574460038357,143.95312500,4.90625000
1574460038376,144.15625000,4.90625000
1574460038436,144.70312500,4.82812500
1574460038457,143.53125000,4.82812500
1574460038517,144.51562500,4.85937500
1574460038536,144.62500000,4.85937500
1574460038597,144.31250000,4.89062500
1574460038616,143.93750000,4.89062500
1574460038677,144.29687500,4.92187500
1574460038696,145.75000000,4.92187500
1574460038756,145.31250000,4.96875000
1574460038776,144.59375000,4.96875000
1574460038816,144.57812500,4.92187500
1574460038837,145.09375000,4.92187500
1574460038857,143.95312500,4.92187500
1574460038877,145.40625000,4.92187500
1574460038936,144.98437500,4.81250000
1574460038957,144.29687500,4.81250000
1574460039016,144.60937500,4.70312500
1574460039037,144.87500000,4.70312500
1574460039096,144.65625000,4.65625000
1574460039117,144.34375000,4.65625000
1574460039176,144.42187500,4.54687500
1574460039196,145.00000000,4.54687500
1574460039256,144.18750000,4.51562500
1574460039277,144.45312500,4.51562500
1574460039337,144.03125000,4.53125000
1574460039356,144.00000000,4.53125000
1574460039417,144.18750000,4.51562500
1574460039436,144.46875000,4.51562500
1574460039497,143.35937500,4.48437500
1574460039516,143.35937500,4.48437500
1574460039536,144.20312500,4.48437500
1574460039557,143.65625000,4.48437500
1574460039576,143.56250000,4.48437500
1574460039636,143.64062500,4.45312500
1574460039656,143.17187500,4.45312500
1574460039717,143.84375000,4.45312500
1574460039736,144.54687500,4.45312500
1574460039797,143.10937500,4.51562500
1574460039816,143.45312500,4.51562500
1574460039837,144.06250000,4.51562500
1574460039856,144.12500000,4.51562500
1574460039876,143.71875000,4.51562500
1574460039937,143.98437500,4.53125000
1574460039956,143.51562500,4.53125000
1574460040017,143.45312500,4.50000000
1574460040037,143.93750000,4.50000000
1574460040096,143.04687500,4.50000000
1574460040116,142.92187500,4.50000000
1574460040177,142.90625000,4.46875000
1574460040196,143.06250000,4.46875000
1574460040257,143.06250000,4.43750000
1574460040276,143.35937500,4.43750000
1574460040296,142.90625000,4.43750000
1574460040317,143.31250000,4.43750000
1574460040337,144.00000000,4.43750000
1574460040397,143.53125000,4.42187500
1574460040416,144.17187500,4.42187500
1574460040477,142.90625000,4.43750000
1574460040496,143.07812500,4.43750000
1574460040557,143.48437500,4.39062500
1574460040576,144.45312500,4.39062500
1574460040637,143.18750000,4.50000000
1574460040657,143.65625000,4.50000000
1574460040696,142.96875000,4.46875000
1574460040716,143.45312500,4.46875000
1574460040736,143.37500000,4.46875000
1574460040756,143.43750000,4.46875000
1574460040817,143.01562500,4.56250000
1574460040831,142.79687500,4.56250000
1574460040856,143.03125000,4.56250000
1574460040876,144.25000000,4.56250000
1574460040937,142.73437500,4.46875000
1574460040956,143.73437500,4.46875000
1574460040997,143.37500000,4.45312500
1574460041016,143.78125000,4.45312500
1574460041076,143.68750000,4.45312500
1574460041096,143.40625000,4.45312500
1574460041157,143.37500000,4.45312500
1574460041176,144.32812500,4.45312500
1574460041236,142.73437500,4.46875000
1574460041257,143.54687500,4.46875000
1574460041317,142.75000000,4.43750000
1574460041336,143.42187500,4.43750000
1574460041397,142.89062500,4.43750000
1574460041416,143.42187500,4.43750000
1574460041436,142.90625000,4.43750000
1574460041456,143.57812500,4.43750000
1574460041476,142.70312500,4.43750000
1574460041537,143.35937500,4.45312500
1574460041557,143.23437500,4.45312500
1574460041617,143.81250000,4.46875000
1574460041636,143.45312500,4.46875000
1574460041697,144.26562500,4.45312500
1574460041717,145.64062500,4.45312500
1574460041736,145.82812500,4.45312500
1574460041756,146.46875000,4.45312500
1574460041776,146.84375000,4.45312500
1574460041837,151.25000000,4.85937500
1574460041856,152.73437500,4.85937500
1574460041917,156.29687500,5.12500000
1574460041936,156.98437500,5.12500000
1574460041997,157.78125000,5.43750000
1574460042016,159.18750000,5.43750000
1574460042036,159.67187500,5.43750000
1574460042057,159.71875000,5.43750000
1574460042076,159.79687500,5.43750000
1574460042137,159.82812500,5.60937500
1574460042156,161.71875000,5.60937500
1574460042216,163.06250000,5.81250000
1574460042236,164.71875000,5.81250000
1574460042297,165.32812500,6.03125000
1574460042316,165.89062500,6.03125000
1574460042377,167.20312500,6.29687500
1574460042396,167.04687500,6.29687500
1574460042456,168.68750000,6.42187500
1574460042476,169.40625000,6.42187500
1574460042517,167.57812500,6.46875000
1574460042536,168.10937500,6.46875000
1574460042557,168.06250000,6.46875000
1574460042576,167.60937500,6.46875000
1574460042636,168.17187500,6.46875000
1574460042656,168.10937500,6.46875000
1574460042716,168.20312500,6.54687500
1574460042736,168.75000000,6.54687500
1574460042796,168.45312500,6.60937500
1574460042816,168.84375000,6.60937500
1574460042876,168.98437500,6.57812500
1574460042896,168.29687500,6.57812500
1574460042957,168.71875000,6.51562500
1574460042977,168.17187500,6.51562500
1574460043016,168.50000000,6.50000000
1574460043037,167.18750000,6.50000000
1574460043056,168.39062500,6.50000000
1574460043077,168.03125000,6.50000000
1574460043137,168.06250000,6.54687500
1574460043157,169.82812500,6.54687500
1574460043217,169.00000000,6.57812500
1574460043236,169.48437500,6.57812500
1574460043297,169.87500000,6.65625000
1574460043317,169.92187500,6.65625000
1574460043376,171.46875000,6.76562500
1574460043396,171.43750000,6.76562500
1574460043416,171.26562500,6.76562500
1574460043437,172.26562500,6.76562500
1574460043456,173.31250000,6.76562500
1574460043517,178.81250000,7.57812500
1574460043536,179.62500000,7.57812500
1574460043597,184.96875000,8.29687500
1574460043617,186.67187500,8.29687500
1574460043676,191.87500000,9.20312500
1574460043696,193.56250000,9.20312500
1574460043756,198.82812500,10.10937500
1574460043776,200.43750000,10.10937500
1574460043816,203.40625000,10.71875000
1574460043837,204.62500000,10.71875000
1574460043896,213.37500000,11.67187500
1574460043916,215.25000000,11.67187500
1574460043977,224.46875000,13.12500000
1574460043996,225.79687500,13.12500000
1574460044057,230.98437500,14.18750000
1574460044076,231.71875000,14.18750000
1574460044116,234.84375000,14.78125000
1574460044136,234.96875000,14.78125000
1574460044156,237.21875000,14.78125000
1574460044176,237.59375000,14.78125000
1574460044237,239.04687500,15.40625000
1574460044256,240.73437500,15.40625000
1574460044316,241.76562500,15.79687500
1574460044336,242.28125000,15.79687500
1574460044397,242.89062500,15.93750000
1574460044417,243.87500000,15.93750000
1574460044476,245.37500000,16.35937500
1574460044496,245.12500000,16.35937500
1574460044557,248.17187500,16.65625000
1574460044577,247.28125000,16.65625000
1574460044596,248.23437500,16.65625000
1574460044617,248.57812500,16.65625000
1574460044637,248.14062500,16.65625000
1574460044696,251.60937500,16.87500000
1574460044717,250.18750000,16.87500000
1574460044776,251.23437500,16.70312500
1574460044796,250.29687500,16.70312500
1574460044857,251.73437500,16.14062500
1574460044876,250.96875000,16.14062500
1574460044896,251.10937500,16.14062500
1574460044916,251.54687500,16.14062500
1574460044936,250.54687500,16.14062500
1574460044996,250.01562500,14.82812500
1574460045016,246.89062500,14.82812500
1574460045076,239.60937500,13.75000000
1574460045096,230.23437500,13.75000000
1574460045156,212.00000000,10.43750000
1574460045176,202.56250000,10.43750000
1574460045236,179.26562500,7.53125000
1574460045256,173.28125000,7.53125000
1574460045296,166.96875000,6.42187500
1574460045317,163.87500000,6.42187500
1574460045376,159.87500000,5.87500000
1574460045397,157.56250000,5.87500000
1574460045456,155.56250000,5.56250000
1574460045476,154.00000000,5.56250000
1574460045536,152.35937500,5.42187500
1574460045557,152.21875000,5.42187500
1574460045577,151.57812500,5.42187500
1574460045596,150.34375000,5.42187500
1574460045617,150.82812500,5.42187500
1574460045676,149.10937500,5.18750000
1574460045696,148.82812500,5.18750000
1574460045756,148.57812500,5.10937500
1574460045777,148.29687500,5.10937500
1574460045837,148.03125000,5.09375000
1574460045857,148.26562500,5.09375000
1574460045916,147.57812500,5.03125000
1574460045936,147.60937500,5.03125000
1574460045977,147.31250000,5.03125000
1574460045997,147.03125000,5.03125000
1574460046016,147.34375000,5.03125000
1574460046037,146.65625000,5.03125000
1574460046096,148.18750000,5.10937500
1574460046116,149.46875000,5.10937500
1574460046177,151.34375000,5.48437500
1574460046197,151.20312500,5.48437500
1574460046257,152.85937500,5.51562500
1574460046276,153.14062500,5.51562500
1574460046337,154.21875000,5.75000000
1574460046356,155.31250000,5.75000000
1574460046397,155.70312500,5.89062500
1574460046416,155.65625000,5.89062500
1574460046437,157.15625000,5.89062500
1574460046456,157.87500000,5.89062500
1574460046517,161.18750000,6.34375000
1574460046536,162.39062500,6.34375000
1574460046596,166.53125000,6.67187500
1574460046616,168.14062500,6.67187500
1574460046676,173.39062500,7.12500000
1574460046697,175.54687500,7.12500000
1574460046716,178.70312500,7.12500000
1574460046736,183.57812500,7.12500000
1574460046757,187.04687500,7.12500000
1574460046817,194.43750000,8.67187500
1574460046836,196.81250000,8.67187500
1574460046896,204.15625000,9.64062500
1574460046916,206.20312500,9.64062500
1574460046976,211.48437500,10.50000000
1574460046996,211.68750000,10.50000000
1574460047037,213.26562500,10.82812500
1574460047056,216.09375000,10.82812500
1574460047076,216.76562500,10.82812500
1574460047096,218.76562500,10.82812500
1574460047156,226.07812500,12.26562500
1574460047176,226.84375000,12.26562500
1574460047237,231.31250000,13.20312500
1574460047256,232.37500000,13.20312500
1574460047317,233.95312500,13.75000000
1574460047336,233.56250000,13.75000000
1574460047397,233.79687500,13.67187500
1574460047416,232.14062500,13.67187500
1574460047436,231.68750000,13.67187500
1574460047456,230.92187500,13.67187500
1574460047476,230.62500000,13.67187500
1574460047537,230.18750000,12.87500000
1574460047556,231.28125000,12.87500000
1574460047617,233.43750000,13.73437500
1574460047636,235.00000000,13.73437500
1574460047697,238.26562500,14.57812500
1574460047717,239.17187500,14.57812500
1574460047737,240.90625000,14.57812500
1574460047756,241.81250000,14.57812500
1574460047776,243.21875000,14.57812500
1574460047837,244.59375000,15.81250000
1574460047856,246.57812500,15.81250000
1574460047917,248.15625000,16.35937500
1574460047936,248.79687500,16.35937500
1574460047997,250.89062500,16.82812500
1574460048017,252.00000000,16.82812500
1574460048037,253.48437500,16.82812500
1574460048056,253.29687500,16.82812500
1574460048077,254.26562500,16.82812500
1574460048136,255.87500000,17.75000000
1574460048157,256.54687500,17.75000000
1574460048217,256.65625000,18.00000000
1574460048236,256.31250000,18.00000000
1574460048297,257.92187500,18.23437500
1574460048317,258.34375000,18.23437500
1574460048337,258.84375000,18.23437500
1574460048356,259.95312500,18.23437500
1574460048376,259.96875000,18.23437500
1574460048436,259.40625000,18.54687500
1574460048456,261.37500000,18.54687500
1574460048516,259.81250000,18.68750000
1574460048536,260.34375000,18.68750000
1574460048596,260.51562500,18.75000000
1574460048616,261.76562500,18.75000000
1574460048677,262.53125000,18.85937500
1574460048697,262.65625000,18.85937500
1574460048756,262.84375000,18.82812500
1574460048776,264.25000000,18.82812500
1574460048837,265.14062500,18.26562500
1574460048856,265.73437500,18.26562500
1574460048917,265.37500000,17.12500000
1574460048936,263.28125000,17.12500000
1574460048996,247.64062500,14.46875000
1574460049017,242.04687500,14.46875000
1574460049077,228.96875000,11.76562500
1574460049097,221.90625000,11.76562500
1574460049157,205.73437500,9.60937500
1574460049176,199.93750000,9.60937500
1574460049236,184.20312500,8.09375000
1574460049257,179.45312500,8.09375000
1574460049316,167.60937500,6.89062500
1574460049337,163.85937500,6.89062500
1574460049377,159.70312500,6.37500000
1574460049396,157.79687500,6.37500000
1574460049416,155.64062500,6.37500000
1574460049436,154.81250000,6.37500000
1574460049497,152.39062500,5.84375000
1574460049516,151.96875000,5.84375000
1574460049577,151.28125000,5.68750000
1574460049596,151.10937500,5.68750000
1574460049657,149.93750000,5.56250000
1574460049677,149.60937500,5.56250000
1574460049737,149.20312500,5.51562500
1574460049756,149.76562500,5.51562500
1574460049816,148.56250000,5.54687500
1574460049837,148.89062500,5.54687500
1574460049857,149.17187500,5.54687500
1574460049876,148.51562500,5.54687500
1574460049897,148.57812500,5.54687500
1574460049956,147.67187500,5.50000000
1574460049976,149.04687500,5.50000000
1574460050037,148.14062500,5.45312500
1574460050057,149.17187500,5.45312500
1574460050116,148.62500000,5.46875000
1574460050136,149.06250000,5.46875000
1574460050177,149.06250000,5.56250000
1574460050197,149.37500000,5.56250000
1574460050256,148.62500000,5.67187500
1574460050276,149.65625000,5.67187500
1574460050336,149.34375000,5.76562500
1574460050356,150.51562500,5.76562500
1574460050416,150.54687500,5.79687500
1574460050437,151.15625000,5.79687500
1574460050497,153.04687500,5.90625000
1574460050516,154.01562500,5.90625000
1574460050577,160.75000000,6.26562500
1574460050597,164.12500000,6.26562500
1574460050657,170.51562500,7.15625000
1574460050676,172.17187500,7.15625000
1574460050737,178.43750000,7.65625000
1574460050756,181.20312500,7.65625000
1574460050817,189.07812500,8.43750000
1574460050836,193.54687500,8.43750000
1574460050858,197.90625000,8.43750000
1574460050877,203.17187500,8.43750000
1574460050897,206.73437500,8.43750000
1574460050956,217.37500000,11.29687500
1574460050976,222.78125000,11.29687500
1574460051037,230.31250000,12.87500000
1574460051056,233.48437500,12.87500000
1574460051116,238.45312500,14.09375000
1574460051136,240.46875000,14.09375000
1574460051177,244.03125000,14.75000000
1574460051196,244.85937500,14.75000000
1574460051216,246.57812500,14.75000000
1574460051236,247.84375000,14.75000000
1574460051296,251.57812500,15.90625000
1574460051316,252.12500000,15.90625000
1574460051377,254.95312500,16.51562500
1574460051397,257.10937500,16.51562500
1574460051456,256.70312500,17.00000000
1574460051476,257.75000000,17.00000000
1574460051536,258.40625000,17.32812500
1574460051556,260.31250000,17.32812500
1574460051596,259.42187500,17.51562500
1574460051616,260.15625000,17.51562500
1574460051637,259.82812500,17.51562500
1574460051656,261.23437500,17.51562500
1574460051716,261.50000000,17.78125000
1574460051736,262.31250000,17.78125000
1574460051796,261.93750000,17.59375000
1574460051816,262.64062500,17.59375000
1574460051877,263.40625000,17.62500000
1574460051897,263.85937500,17.62500000
1574460051956,262.56250000,17.62500000
1574460051977,263.31250000,17.62500000
1574460051997,262.71875000,17.62500000
1574460052016,263.56250000,17.62500000
1574460052036,264.09375000,17.62500000
1574460052096,263.84375000,17.70312500
1574460052116,264.06250000,17.70312500
1574460052177,264.42187500,17.68750000
1574460052196,264.71875000,17.68750000
1574460052257,265.00000000,17.71875000
1574460052276,265.26562500,17.71875000
1574460052296,264.56250000,17.71875000
1574460052317,264.54687500,17.71875000
1574460052337,264.59375000,17.71875000
1574460052397,265.67187500,17.79687500
1574460052416,264.28125000,17.79687500
1574460052477,265.40625000,17.82812500
1574460052496,266.01562500,17.82812500
1574460052557,264.46875000,17.75000000
1574460052577,265.76562500,17.75000000
1574460052637,265.06250000,17.37500000
1574460052656,266.64062500,17.37500000
1574460052697,265.93750000,17.04687500
1574460052716,265.67187500,17.04687500
1574460052736,265.31250000,17.04687500
1574460052756,265.35937500,17.04687500
1574460052816,263.23437500,16.04687500
1574460052836,261.73437500,16.04687500
1574460052896,256.29687500,14.68750000
1574460052916,253.34375000,14.68750000
1574460052976,239.28125000,12.71875000
1574460052996,232.31250000,12.71875000
1574460053056,212.73437500,9.95312500
1574460053077,205.89062500,9.95312500
1574460053096,199.26562500,9.95312500
1574460053116,192.73437500,9.95312500
1574460053136,186.81250000,9.95312500
1574460053196,174.51562500,7.04687500
1574460053217,170.48437500,7.04687500
1574460053276,165.01562500,6.56250000
1574460053297,163.40625000,6.56250000
1574460053356,159.40625000,6.28125000
1574460053380,159.62500000,6.28125000
1574460053398,158.28125000,6.28125000
1574460053417,157.70312500,6.28125000
1574460053437,156.75000000,6.28125000
1574460053497,155.51562500,6.03125000
1574460053516,153.90625000,6.03125000
1574460053576,152.48437500,5.76562500
1574460053596,151.14062500,5.76562500
1574460053656,149.87500000,5.60937500
1574460053677,150.60937500,5.60937500
1574460053737,150.09375000,5.56250000
1574460053757,149.96875000,5.56250000
1574460053816,149.06250000,5.57812500
1574460053836,149.12500000,5.57812500
1574460053896,149.28125000,5.57812500
1574460053916,149.23437500,5.57812500
1574460053976,149.82812500,5.57812500
1574460053996,149.18750000,5.57812500
1574460054057,149.39062500,5.57812500
1574460054076,149.51562500,5.57812500
1574460054136,150.10937500,5.56250000
1574460054156,150.46875000,5.56250000
1574460054197,150.12500000,5.60937500
1574460054217,149.62500000,5.60937500
1574460054277,151.34375000,5.71875000
1574460054296,152.48437500,5.71875000
1574460054357,155.59375000,6.12500000
1574460054376,157.67187500,6.12500000
1574460054436,162.06250000,6.57812500
1574460054456,163.89062500,6.57812500
1574460054516,170.70312500,7.09375000
1574460054537,174.98437500,7.09375000
1574460054556,177.21875000,7.09375000
1574460054577,180.84375000,7.09375000
1574460054597,183.26562500,7.09375000
1574460054616,187.34375000,7.09375000
1574460054637,190.92187500,7.09375000
1574460054697,202.15625000,10.15625000
1574460054717,204.51562500,10.15625000
1574460054776,213.23437500,11.48437500
1574460054797,215.34375000,11.48437500
1574460054856,222.73437500,12.53125000
1574460054877,225.43750000,12.53125000
1574460054936,231.25000000,13.64062500
1574460054957,233.07812500,13.64062500
1574460055016,237.90625000,14.68750000
1574460055037,238.92187500,14.68750000
1574460055096,243.90625000,15.53125000
1574460055116,243.95312500,15.53125000
1574460055176,248.29687500,16.31250000
1574460055196,248.43750000,16.31250000
1574460055257,251.20312500,17.04687500
1574460055277,252.68750000,17.04687500
1574460055316,254.92187500,17.42187500
1574460055337,254.37500000,17.42187500
1574460055356,255.90625000,17.42187500
1574460055376,256.45312500,17.42187500
1574460055396,256.54687500,17.42187500
1574460055416,256.17187500,17.42187500
1574460055476,257.64062500,18.29687500
1574460055496,257.68750000,18.29687500
1574460055557,258.68750000,18.65625000
1574460055576,259.12500000,18.65625000
1574460055636,259.32812500,18.96875000
1574460055656,259.96875000,18.96875000
1574460055696,260.50000000,19.10937500
1574460055716,259.84375000,19.10937500
1574460055736,260.00000000,19.10937500
1574460055757,260.04687500,19.10937500
1574460055816,261.60937500,19.53125000
1574460055836,260.23437500,19.53125000
1574460055936,261.06250000,19.78125000
1574460055956,261.48437500,19.78125000
1574460055996,262.10937500,19.87500000
1574460056016,262.17187500,19.87500000
1574460056036,261.64062500,19.87500000
1574460056056,262.20312500,19.87500000
1574460056116,262.28125000,20.09375000
1574460056137,262.45312500,20.09375000
1574460056197,262.57812500,20.23437500
1574460056216,263.26562500,20.23437500
1574460056277,263.85937500,20.15625000
1574460056296,264.46875000,20.15625000
1574460056357,266.96875000,19.95312500
1574460056376,268.57812500,19.95312500
1574460056437,270.70312500,18.75000000
1574460056457,271.68750000,18.75000000
1574460056516,271.34375000,17.21875000
1574460056537,269.39062500,17.21875000
1574460056597,256.25000000,14.73437500
1574460056616,250.54687500,14.73437500
1574460056677,231.06250000,12.18750000
1574460056696,220.85937500,12.18750000
1574460056757,196.90625000,8.87500000
1574460056777,189.54687500,8.87500000
1574460056817,180.73437500,7.54687500
1574460056836,175.09375000,7.54687500
1574460056856,170.43750000,7.54687500
1574460056876,168.26562500,7.54687500
1574460056937,159.40625000,6.48437500
1574460056956,157.92187500,6.48437500
1574460057017,153.81250000,6.00000000
1574460057036,153.64062500,6.00000000
1574460057096,150.95312500,5.81250000
1574460057116,150.68750000,5.81250000
1574460057176,149.64062500,5.54687500
1574460057196,149.01562500,5.54687500
1574460057236,148.14062500,5.40625000
1574460057256,147.82812500,5.40625000
1574460057276,148.32812500,5.40625000
1574460057297,148.15625000,5.40625000
1574460057357,147.53125000,5.32812500
1574460057377,147.43750000,5.32812500
1574460057437,146.93750000,5.29687500
1574460057456,147.42187500,5.29687500
1574460057516,147.82812500,5.21875000
1574460057536,146.89062500,5.21875000
1574460057596,147.46875000,5.09375000
1574460057617,146.46875000,5.09375000
1574460057636,146.54687500,5.09375000
1574460057657,146.57812500,5.09375000
1574460057677,146.68750000,5.09375000
1574460057736,145.07812500,5.15625000
1574460057756,146.50000000,5.15625000
1574460057816,145.81250000,5.09375000
1574460057837,145.64062500,5.09375000
1574460057896,146.73437500,5.14062500
1574460057916,146.45312500,5.14062500
1574460057977,146.60937500,5.18750000
1574460057997,147.20312500,5.18750000
1574460058017,146.75000000,5.18750000
1574460058037,146.21875000,5.18750000
1574460058056,145.42187500,5.18750000
1574460058076,147.37500000,5.18750000
1574460058096,146.71875000,5.18750000
1574460058157,147.71875000,5.23437500
1574460058176,148.59375000,5.23437500
1574460058237,151.42187500,5.25000000
1574460058257,153.32812500,5.25000000
1574460058317,155.34375000,5.28125000
1574460058336,157.79687500,5.28125000
1574460058396,168.96875000,5.81250000
1574460058416,169.34375000,5.81250000
1574460058456,171.32812500,6.31250000
1574460058476,172.40625000,6.31250000
1574460058497,173.62500000,6.31250000
1574460058516,173.32812500,6.31250000
1574460058576,177.39062500,7.32812500
1574460058597,178.56250000,7.32812500
1574460058656,180.32812500,9.29687500
1574460058677,181.43750000,9.29687500
1574460058736,181.70312500,10.51562500
1574460058756,181.92187500,10.51562500
1574460058816,180.34375000,12.23437500
1574460058836,180.87500000,12.23437500
1574460058857,180.65625000,12.23437500
1574460058876,181.40625000,12.23437500
1574460058897,181.20312500,12.23437500
1574460058957,180.35937500,13.73437500
1574460058977,181.32812500,13.73437500
1574460059036,180.56250000,14.26562500
1574460059057,180.65625000,14.26562500
1574460059097,181.21875000,14.87500000
1574460059116,181.23437500,14.87500000
1574460059136,181.04687500,14.87500000
1574460059157,180.93750000,14.87500000
1574460059217,184.37500000,16.21875000
1574460059236,185.96875000,16.21875000
1574460059296,188.20312500,17.59375000
1574460059316,188.71875000,17.59375000
1574460059376,190.29687500,18.23437500
1574460059396,188.78125000,18.23437500
1574460059457,188.35937500,18.48437500
1574460059476,188.78125000,18.48437500
1574460059517,188.18750000,18.40625000
1574460059536,187.70312500,18.40625000
1574460059556,187.68750000,18.40625000
1574460059577,187.78125000,18.40625000
1574460059636,187.06250000,18.35937500
1574460059657,187.39062500,18.35937500
1574460059716,186.82812500,18.50000000
1574460059737,187.21875000,18.50000000
1574460059796,187.39062500,18.46875000
1574460059817,187.32812500,18.46875000
1574460059876,187.68750000,18.39062500
1574460059896,186.50000000,18.39062500
1574460059957,185.64062500,18.00000000
1574460059976,186.50000000,18.00000000
1574460060037,185.56250000,17.42187500
1574460060057,185.17187500,17.42187500
1574460060117,184.12500000,16.46875000
1574460060137,183.62500000,16.46875000
1574460060196,182.10937500,15.67187500
1574460060216,180.54687500,15.67187500
1574460060276,179.56250000,14.25000000
1574460060296,178.23437500,14.25000000
1574460060357,176.46875000,11.35937500
1574460060376,176.68750000,11.35937500
1574460060436,173.56250000,8.87500000
1574460060456,173.90625000,8.87500000
1574460060496,171.48437500,7.78125000
1574460060516,170.35937500,7.78125000
1574460060537,168.54687500,7.78125000
1574460060556,167.12500000,7.78125000
1574460060616,161.89062500,6.32812500
1574460060637,160.60937500,6.32812500
1574460060696,158.62500000,4.92187500
1574460060717,157.18750000,4.92187500
1574460060777,157.84375000,4.62500000
1574460060796,156.84375000,4.62500000
1574460060857,156.87500000,4.53125000
1574460060876,156.00000000,4.53125000
1574460060916,156.32812500,4.50000000
1574460060957,156.95312500,4.45312500
1574460060976,156.68750000,4.45312500
1574460060997,156.95312500,4.45312500
1574460061016,156.78125000,4.45312500
1574460061076,157.54687500,4.37500000
1574460061097,156.65625000,4.37500000
1574460061157,157.31250000,4.31250000
1574460061176,158.06250000,4.31250000
1574460061236,157.32812500,4.25000000
1574460061257,157.10937500,4.25000000
1574460061316,157.53125000,4.28125000
1574460061336,156.64062500,4.28125000
1574460061396,157.21875000,4.20312500
1574460061416,156.57812500,4.20312500
1574460061476,157.78125000,4.21875000
1574460061497,157.31250000,4.21875000
1574460061557,156.98437500,4.20312500
1574460061577,157.65625000,4.20312500
1574460061616,157.07812500,4.23437500
1574460061637,157.00000000,4.23437500
1574460061657,156.64062500,4.23437500
1574460061677,156.78125000,4.23437500
1574460061737,157.34375000,4.25000000
1574460061757,158.04687500,4.25000000
1574460061816,160.76562500,4.40625000
1574460061837,161.35937500,4.40625000
1574460061897,166.48437500,4.64062500
1574460061917,166.48437500,4.64062500
1574460061977,169.07812500,4.98437500
1574460061996,168.89062500,4.98437500
1574460062057,170.62500000,5.29687500
1574460062076,171.29687500,5.29687500
1574460062137,171.62500000,5.73437500
1574460062157,173.46875000,5.73437500
1574460062217,172.87500000,6.64062500
1574460062237,173.03125000,6.64062500
1574460062297,173.39062500,7.85937500
1574460062316,172.15625000,7.85937500
1574460062377,174.18750000,9.09375000
1574460062397,173.60937500,9.09375000
1574460062417,173.50000000,9.09375000
1574460062437,174.07812500,9.09375000
1574460062457,173.65625000,9.09375000
1574460062517,174.28125000,11.20312500
1574460062537,174.29687500,11.20312500
1574460062597,175.51562500,12.46875000
1574460062617,174.84375000,12.46875000
1574460062676,176.20312500,13.59375000
1574460062697,175.48437500,13.59375000
1574460062757,176.98437500,14.85937500
1574460062777,178.73437500,14.85937500
1574460062817,178.76562500,15.64062500
1574460062836,179.84375000,15.64062500
1574460062857,180.28125000,15.64062500
1574460062877,180.98437500,15.64062500
1574460062937,180.81250000,16.79687500
1574460062957,181.67187500,16.79687500
1574460063017,183.60937500,17.45312500
1574460063036,182.51562500,17.45312500
1574460063097,184.37500000,17.89062500
1574460063117,183.48437500,17.89062500
1574460063177,185.59375000,18.10937500
1574460063196,184.29687500,18.10937500
1574460063257,184.04687500,18.15625000
1574460063276,185.68750000,18.15625000
1574460063316,184.78125000,18.20312500
1574460063336,185.17187500,18.20312500
1574460063357,185.09375000,18.20312500
1574460063377,185.42187500,18.20312500
1574460063426,185.75000000,18.34375000
1574460063447,184.82812500,18.34375000
1574460063467,184.45312500,18.34375000
1574460063487,185.17187500,18.34375000
1574460063507,184.79687500,18.34375000
1574460063567,186.46875000,18.46875000
1574460063586,185.00000000,18.46875000
1574460063647,184.73437500,18.39062500
1574460063666,184.26562500,18.39062500
1574460063727,183.56250000,17.37500000
1574460063747,181.59375000,17.37500000
1574460063807,180.92187500,15.54687500
1574460063826,181.43750000,15.54687500
1574460063887,177.65625000,12.76562500
1574460063906,176.89062500,12.76562500
1574460063966,174.65625000,10.29687500
1574460063987,174.23437500,10.29687500
1574460064027,172.65625000,8.32812500
1574460064047,171.73437500,8.32812500
1574460064067,170.43750000,8.32812500
1574460064087,169.92187500,8.32812500
1574460064147,169.40625000,6.14062500
1574460064167,167.43750000,6.14062500
1574460064227,165.67187500,5.59375000
1574460064247,164.10937500,5.59375000
1574460064307,164.43750000,5.45312500
1574460064326,164.70312500,5.45312500
1574460064386,163.67187500,5.35937500
1574460064407,164.45312500,5.35937500
1574460064467,164.40625000,5.35937500
1574460064487,163.87500000,5.35937500
1574460064546,164.65625000,5.28125000
1574460064567,163.92187500,5.28125000
1574460064627,164.81250000,5.28125000
1574460064647,164.37500000,5.28125000
1574460064707,164.15625000,5.25000000
1574460064726,163.98437500,5.25000000
1574460064767,164.68750000,5.28125000
1574460064786,164.37500000,5.28125000
1574460064806,165.50000000,5.28125000
1574460064827,165.23437500,5.28125000
1574460064887,164.84375000,5.26562500
1574460064906,165.79687500,5.26562500
1574460064966,165.15625000,5.26562500
1574460064986,164.67187500,5.26562500
1574460065046,164.85937500,5.25000000
1574460065067,165.09375000,5.25000000
1574460065086,165.20312500,5.25000000
1574460065106,166.31250000,5.25000000
1574460065127,166.00000000,5.25000000
1574460065187,166.20312500,5.32812500
1574460065206,166.87500000,5.32812500
1574460065266,169.98437500,5.53125000
1574460065286,171.93750000,5.53125000
1574460065346,173.78125000,6.82812500
1574460065367,174.01562500,6.82812500
1574460065406,173.93750000,7.67187500
1574460065427,174.01562500,7.67187500
1574460065487,173.53125000,9.45312500
1574460065506,172.89062500,9.45312500
1574460065566,174.31250000,10.92187500
1574460065586,174.43750000,10.92187500
1574460065646,174.40625000,12.57812500
1574460065667,174.68750000,12.57812500
1574460065706,175.54687500,13.51562500
1574460065727,175.62500000,13.51562500
1574460065747,176.35937500,13.51562500
1574460065767,176.42187500,13.51562500
1574460065827,178.96875000,15.48437500
1574460065847,179.60937500,15.48437500
1574460065907,180.10937500,16.51562500
1574460065926,182.37500000,16.51562500
1574460065987,183.09375000,17.56250000
1574460066006,184.39062500,17.56250000
1574460066067,185.62500000,18.37500000
1574460066087,186.76562500,18.37500000
1574460066106,186.51562500,18.37500000
1574460066127,187.59375000,18.37500000
1574460066147,188.14062500,18.37500000
1574460066207,188.67187500,19.04687500
1574460066226,188.70312500,19.04687500
1574460066286,188.64062500,19.10937500
1574460066306,188.59375000,19.10937500
1574460066366,188.50000000,19.23437500
1574460066387,188.76562500,19.23437500
1574460066427,188.90625000,19.26562500
1574460066447,189.43750000,19.26562500
1574460066507,188.43750000,19.32812500
1574460066526,189.20312500,19.32812500
1574460066586,188.03125000,19.26562500
1574460066606,188.79687500,19.26562500
1574460066667,188.35937500,19.20312500
1574460066687,188.54687500,19.20312500
1574460066707,187.87500000,19.20312500
1574460066726,188.89062500,19.20312500
1574460066747,188.95312500,19.20312500
1574460066807,188.48437500,19.04687500
1574460066827,189.12500000,19.04687500
1574460066886,187.53125000,18.62500000
1574460066906,187.62500000,18.62500000
1574460066967,185.65625000,16.81250000
1574460066987,183.62500000,16.81250000
1574460067047,181.95312500,14.60937500
1574460067067,180.95312500,14.60937500
1574460067087,180.40625000,14.60937500
1574460067107,179.17187500,14.60937500
1574460067126,178.35937500,14.60937500
1574460067187,174.42187500,10.76562500
1574460067206,174.03125000,10.76562500
1574460067266,170.35937500,8.37500000
1574460067287,169.18750000,8.37500000
1574460067347,164.46875000,6.76562500
1574460067366,163.78125000,6.76562500
1574460067426,165.01562500,5.96875000
1574460067445,163.51562500,5.96875000
1574460067507,162.23437500,5.60937500
1574460067527,162.87500000,5.60937500
1574460067587,161.17187500,5.40625000
1574460067607,161.54687500,5.40625000
1574460067667,160.90625000,5.26562500
1574460067687,160.68750000,5.26562500
1574460067746,159.95312500,5.18750000
1574460067767,159.39062500,5.18750000
1574460067827,159.84375000,5.12500000
1574460067847,158.90625000,5.12500000
1574460067906,157.68750000,5.04687500
1574460067927,158.39062500,5.04687500
1574460067986,156.96875000,4.92187500
1574460068007,157.00000000,4.92187500
1574460068067,156.89062500,4.93750000
1574460068087,157.07812500,4.93750000
1574460068147,157.18750000,4.87500000
1574460068167,156.46875000,4.87500000
1574460068227,157.12500000,4.89062500
1574460068247,156.64062500,4.89062500
1574460068307,156.65625000,4.85937500
1574460068327,157.14062500,4.85937500
1574460068367,157.25000000,4.89062500
1574460068387,157.65625000,4.89062500
1574460068410,157.43750000,4.89062500
1574460068427,157.32812500,4.89062500
1574460068487,156.85937500,4.87500000
1574460068507,157.87500000,4.87500000
1574460068567,158.23437500,4.84375000
1574460068586,157.50000000,4.84375000
1574460068647,158.62500000,4.87500000
1574460068667,157.84375000,4.87500000
1574460068727,160.25000000,4.98437500
1574460068746,162.28125000,4.98437500
1574460068807,169.26562500,5.70312500
1574460068827,171.50000000,5.70312500
1574460068867,173.93750000,6.40625000
1574460068886,172.76562500,6.40625000
1574460068907,173.32812500,6.40625000
1574460068927,173.34375000,6.40625000
1574460068987,173.25000000,10.07812500
1574460069007,174.42187500,10.07812500
1574460069067,174.62500000,12.03125000
1574460069087,175.34375000,12.03125000
1574460069147,175.82812500,13.51562500
1574460069167,175.60937500,13.51562500
1574460069227,177.07812500,14.96875000
1574460069247,176.87500000,14.96875000
1574460069307,179.06250000,15.90625000
1574460069327,180.39062500,15.90625000
1574460069387,181.73437500,16.68750000
1574460069407,182.09375000,16.68750000
1574460069426,181.95312500,16.68750000
1574460069447,183.18750000,16.68750000
1574460069467,182.98437500,16.68750000
1574460069527,184.14062500,17.54687500
1574460069547,183.56250000,17.54687500
1574460069607,184.87500000,18.03125000
1574460069627,185.09375000,18.03125000
1574460069687,186.20312500,18.43750000
1574460069707,186.79687500,18.43750000
1574460069767,186.93750000,18.40625000
1574460069787,186.62500000,18.40625000
1574460069847,187.15625000,18.45312500
1574460069867,186.09375000,18.45312500
1574460069927,187.56250000,18.65625000
1574460069947,187.15625000,18.65625000
1574460069987,187.45312500,18.71875000
1574460070007,186.54687500,18.71875000
1574460070027,188.10937500,18.71875000
1574460070047,187.81250000,18.71875000
1574460070107,186.71875000,18.56250000
1574460070127,187.67187500,18.56250000
1574460070187,185.84375000,18.07812500
1574460070207,185.04687500,18.07812500
1574460070267,184.68750000,17.65625000
1574460070287,184.04687500,17.65625000
1574460070347,181.50000000,15.68750000
1574460070367,180.39062500,15.68750000
1574460070407,178.95312500,13.53125000
1574460070427,178.35937500,13.53125000
1574460070447,177.51562500,13.53125000
1574460070467,175.51562500,13.53125000
1574460070527,172.03125000,8.81250000
1574460070547,170.01562500,8.81250000
1574460070607,169.28125000,6.43750000
1574460070627,168.64062500,6.43750000
1574460070687,165.50000000,5.18750000
1574460070705,163.54687500,5.18750000
1574460070767,161.81250000,4.90625000
1574460070787,162.01562500,4.90625000
1574460070847,162.87500000,4.81250000
1574460070867,162.01562500,4.81250000
1574460070967,162.46875000,4.67187500
1574460070987,162.10937500,4.67187500
1574460071047,162.12500000,4.60937500
1574460071067,161.45312500,4.60937500
1574460071127,161.32812500,4.57812500
1574460071147,161.01562500,4.57812500
1574460071207,160.42187500,4.51562500
1574460071227,160.96875000,4.51562500
1574460071287,160.14062500,4.50000000
1574460071307,160.35937500,4.50000000
1574460071367,159.07812500,4.46875000
1574460071387,159.87500000,4.46875000
1574460071428,160.04687500,4.43750000
1574460071447,160.32812500,4.43750000
1574460071467,159.71875000,4.43750000
1574460071487,159.84375000,4.43750000
1574460071547,160.59375000,4.45312500
1574460071567,160.04687500,4.45312500
1574460071627,161.06250000,4.46875000
1574460071647,160.17187500,4.46875000
1574460071687,159.50000000,4.50000000
1574460071707,159.43750000,4.50000000
1574460071727,159.84375000,4.50000000
1574460071747,159.53125000,4.50000000
1574460071807,159.26562500,4.46875000
1574460071827,159.96875000,4.46875000
1574460071887,159.71875000,4.43750000
1574460071907,159.78125000,4.43750000
1574460071967,159.75000000,4.45312500
1574460071987,159.34375000,4.45312500
1574460072047,162.04687500,4.43750000
1574460072067,162.93750000,4.43750000
1574460072107,167.26562500,4.57812500
1574460072127,171.98437500,4.57812500
1574460072147,177.64062500,4.57812500
1574460072167,179.57812500,4.57812500
1574460072227,186.90625000,5.96875000
1574460072247,186.15625000,5.96875000
1574460072307,184.06250000,7.32812500
1574460072327,182.79687500,7.32812500
1574460072387,180.78125000,8.14062500
1574460072407,178.32812500,8.14062500
1574460072467,173.68750000,8.23437500
1574460072487,174.29687500,8.23437500
1574460072527,174.32812500,8.87500000
1574460072547,174.10937500,8.87500000
1574460072567,174.26562500,8.87500000
1574460072587,174.87500000,8.87500000
1574460072647,174.48437500,10.43750000
1574460072667,174.15625000,10.43750000
1574460072727,174.75000000,12.00000000
1574460072747,175.10937500,12.00000000
1574460072807,174.92187500,13.09375000
1574460072827,175.81250000,13.09375000
1574460072887,176.37500000,13.95312500
1574460072907,176.84375000,13.95312500
1574460072967,177.23437500,14.71875000
1574460072987,177.78125000,14.71875000
1574460073047,179.17187500,15.20312500
1574460073067,179.15625000,15.20312500
1574460073107,180.35937500,15.57812500
1574460073127,180.98437500,15.57812500
1574460073147,182.57812500,15.57812500
1574460073167,180.56250000,15.57812500
1574460073227,182.07812500,16.14062500
1574460073247,181.01562500,16.14062500
1574460073307,181.92187500,16.23437500
1574460073327,181.75000000,16.23437500
1574460073387,181.92187500,16.14062500
1574460073408,182.01562500,16.14062500
1574460073477,181.71875000,16.04687500
1574460073497,179.84375000,16.04687500
1574460073557,179.42187500,15.28125000
1574460073577,179.14062500,15.28125000
1574460073637,177.70312500,14.10937500
1574460073657,178.25000000,14.10937500
1574460073717,176.35937500,12.53125000
1574460073737,176.37500000,12.53125000
1574460073797,174.67187500,11.04687500
1574460073817,173.17187500,11.04687500
1574460073877,170.21875000,9.20312500
1574460073897,168.90625000,9.20312500
1574460073957,166.51562500,7.18750000
1574460073977,165.64062500,7.18750000
1574460074037,166.26562500,6.09375000
1574460074057,165.60937500,6.09375000
1574460074117,162.34375000,5.43750000
1574460074137,161.39062500,5.43750000
1574460074197,157.06250000,4.93750000
1574460074217,155.14062500,4.93750000
1574460074277,155.31250000,4.81250000
1574460074297,155.15625000,4.81250000
1574460074357,154.46875000,4.76562500
1574460074377,155.26562500,4.76562500
1574460074417,155.26562500,4.70312500
1574460074437,154.51562500,4.70312500
1574460074457,155.62500000,4.70312500
1574460074477,155.17187500,4.70312500
1574460074537,154.67187500,4.68750000
1574460074557,155.32812500,4.68750000
1574460074617,155.51562500,4.71875000
1574460074637,156.01562500,4.71875000
1574460074657,155.60937500,4.71875000
1574460074677,156.56250000,4.71875000
1574460074697,156.43750000,4.71875000
1574460074757,155.92187500,4.78125000
1574460074777,156.92187500,4.78125000
1574460074837,157.15625000,4.73437500
1574460074857,157.76562500,4.73437500
1574460074917,156.85937500,4.68750000
1574460074937,157.42187500,4.68750000
1574460074997,157.54687500,4.75000000
1574460075017,157.59375000,4.75000000
1574460075077,157.81250000,4.70312500
1574460075097,157.75000000,4.70312500
1574460075157,159.73437500,4.75000000
1574460075177,163.92187500,4.75000000
1574460075237,175.62500000,5.29687500
1574460075257,179.28125000,5.29687500
1574460075317,193.71875000,6.37500000
1574460075337,195.42187500,6.37500000
1574460075397,198.60937500,7.70312500
1574460075417,196.59375000,7.70312500
1574460075477,196.43750000,9.31250000
1574460075497,197.81250000,9.31250000
1574460075557,202.40625000,11.21875000
1574460075577,204.12500000,11.21875000
1574460075637,205.07812500,13.23437500
1574460075657,206.03125000,13.23437500
1574460075717,206.75000000,15.42187500
1574460075737,208.57812500,15.42187500
1574460075797,214.37500000,17.71875000
1574460075817,215.07812500,17.71875000
1574460075877,220.03125000,19.78125000
1574460075897,220.68750000,19.78125000
1574460075937,223.01562500,21.09375000
1574460075997,226.07812500,22.09375000
1574460076017,226.96875000,22.09375000
1574460076077,230.54687500,23.53125000
1574460076097,230.76562500,23.53125000
1574460076157,233.45312500,24.96875000
1574460076177,235.90625000,24.96875000
1574460076217,237.09375000,25.90625000
1574460076237,237.09375000,25.90625000
1574460076257,239.26562500,25.90625000
1574460076277,239.09375000,25.90625000
1574460076337,240.68750000,26.96875000
1574460076357,241.64062500,26.96875000
1574460076417,242.29687500,27.92187500
1574460076437,241.84375000,27.92187500
1574460076497,242.64062500,28.71875000
1574460076517,242.85937500,28.71875000
1574460076577,243.54687500,29.00000000
1574460076597,243.76562500,29.00000000
1574460076657,241.70312500,29.23437500
1574460076677,242.95312500,29.23437500
1574460076737,241.67187500,29.39062500
1574460076757,242.76562500,29.39062500
1574460076797,241.20312500,29.45312500
1574460076817,240.20312500,29.45312500
1574460076837,239.68750000,29.45312500
1574460076857,240.56250000,29.45312500
1574460076917,239.60937500,29.54687500
1574460076937,239.81250000,29.54687500
1574460076997,240.87500000,29.48437500
1574460077017,240.53125000,29.48437500
1574460077077,242.01562500,29.40625000
1574460077097,244.09375000,29.40625000
1574460077157,245.25000000,28.70312500
1574460077177,248.79687500,28.70312500
1574460077237,252.43750000,26.45312500
1574460077257,251.17187500,26.45312500
1574460077317,233.25000000,21.21875000
1574460077337,227.34375000,21.21875000
1574460077357,220.84375000,21.21875000
1574460077417,200.37500000,14.85937500
1574460077437,196.48437500,14.85937500
1574460077497,187.23437500,11.53125000
1574460077517,184.46875000,11.53125000
1574460077577,177.78125000,9.32812500
1574460077597,176.42187500,9.32812500
1574460077657,168.87500000,7.07812500
1574460077677,166.54687500,7.07812500
1574460077717,163.43750000,6.12500000
1574460077737,162.43750000,6.12500000
1574460077757,161.75000000,6.12500000
1574460077777,161.32812500,6.12500000
1574460077837,160.07812500,5.81250000
1574460077857,160.17187500,5.81250000
1574460077917,158.00000000,5.59375000
1574460077937,158.01562500,5.59375000
1574460077997,157.00000000,5.48437500
1574460078017,155.89062500,5.48437500
1574460078077,155.48437500,5.35937500
1574460078097,155.06250000,5.35937500
1574460078137,154.60937500,5.25000000
1574460078157,154.45312500,5.25000000
1574460078177,153.96875000,5.25000000
1574460078197,153.93750000,5.25000000
1574460078257,153.00000000,5.12500000
1574460078277,153.93750000,5.12500000
1574460078337,152.51562500,5.15625000
1574460078357,153.40625000,5.15625000
1574460078418,151.79687500,5.14062500
1574460078437,151.81250000,5.14062500
1574460078497,152.98437500,5.17187500
1574460078517,152.92187500,5.17187500
1574460078577,153.53125000,5.25000000
1574460078597,155.01562500,5.25000000
1574460078657,154.76562500,5.26562500
1574460078677,155.15625000,5.26562500
1574460078697,156.07812500,5.26562500
1574460078717,157.95312500,5.26562500
1574460078737,159.60937500,5.26562500
1574460078797,162.89062500,5.60937500
1574460078817,167.10937500,5.60937500
1574460078877,176.00000000,6.10937500
1574460078897,178.40625000,6.10937500
1574460078957,186.45312500,6.90625000
1574460078977,189.67187500,6.90625000
1574460079037,198.20312500,7.76562500
1574460079057,202.78125000,7.76562500
1574460079117,210.32812500,9.17187500
1574460079137,216.35937500,9.17187500
1574460079197,224.50000000,11.39062500
1574460079217,227.09375000,11.39062500
1574460079277,232.28125000,13.54687500
1574460079297,234.92187500,13.54687500
1574460079357,239.26562500,15.35937500
1574460079377,240.79687500,15.35937500
1574460079437,243.18750000,17.12500000
1574460079457,245.45312500,17.12500000
1574460079517,244.60937500,19.31250000
1574460079537,244.87500000,19.31250000
1574460079597,245.18750000,21.92187500
1574460079617,245.14062500,21.92187500
1574460079677,246.54687500,23.78125000
1574460079697,247.23437500,23.78125000
1574460079737,247.71875000,25.96875000
1574460079757,247.82812500,25.96875000
1574460079777,247.93750000,25.96875000
1574460079797,247.53125000,25.96875000
1574460079857,246.17187500,28.45312500
1574460079877,247.98437500,28.45312500
1574460079937,247.78125000,29.29687500
1574460079957,249.45312500,29.29687500
1574460080017,247.67187500,29.93750000
1574460080037,247.43750000,29.93750000
1574460080097,247.89062500,30.31250000
1574460080117,246.65625000,30.31250000
1574460080177,247.90625000,30.76562500
1574460080197,247.54687500,30.76562500
1574460080257,247.56250000,30.95312500
1574460080277,247.06250000,30.95312500
1574460080337,246.65625000,31.06250000
1574460080357,248.07812500,31.06250000
1574460080417,246.04687500,31.17187500
1574460080437,246.64062500,31.17187500
1574460080497,246.90625000,31.20312500
1574460080517,246.42187500,31.20312500
1574460080577,248.12500000,31.20312500
1574460080596,247.84375000,31.20312500
1574460080657,247.12500000,31.18750000
1574460080677,246.85937500,31.18750000
1574460080737,246.43750000,31.06250000
1574460080757,247.84375000,31.06250000
1574460080817,248.29687500,30.73437500
1574460080837,251.51562500,30.73437500
1574460080897,256.56250000,28.17187500
1574460080917,257.51562500,28.17187500
1574460080977,251.78125000,22.32812500
1574460080997,244.68750000,22.32812500
1574460081017,239.53125000,22.32812500
1574460081037,230.43750000,22.32812500
1574460081057,224.62500000,22.32812500
1574460081117,203.87500000,13.01562500
1574460081137,198.26562500,13.01562500
1574460081197,184.54687500,10.53125000
1574460081217,180.75000000,10.53125000
1574460081277,172.18750000,8.84375000
1574460081297,169.62500000,8.84375000
1574460081357,165.29687500,7.48437500
1574460081377,163.56250000,7.48437500
1574460081417,160.31250000,6.95312500
1574460081437,159.21875000,6.95312500
1574460081457,158.06250000,6.95312500
1574460081477,157.43750000,6.95312500
1574460081537,154.79687500,6.45312500
1574460081557,154.89062500,6.45312500
1574460081617,152.50000000,6.25000000
1574460081637,151.76562500,6.25000000
1574460081697,150.60937500,6.15625000
1574460081717,151.14062500,6.15625000
1574460081777,150.50000000,5.98437500
1574460081797,150.28125000,5.98437500
1574460081857,149.78125000,5.92187500
1574460081877,149.78125000,5.92187500
1574460081937,150.12500000,5.87500000
1574460081957,150.07812500,5.87500000
1574460082017,149.85937500,5.92187500
1574460082037,149.34375000,5.92187500
1574460082097,149.48437500,5.90625000
1574460082117,149.82812500,5.90625000
1574460082177,149.87500000,5.85937500
1574460082197,149.48437500,5.85937500
1574460082257,149.59375000,5.82812500
1574460082277,149.51562500,5.82812500
1574460082317,150.75000000,5.84375000
1574460082337,152.09375000,5.84375000
1574460082357,154.45312500,5.84375000
1574460082377,155.79687500,5.84375000
1574460082437,159.98437500,6.43750000
1574460082457,162.20312500,6.43750000
1574460082517,167.93750000,7.21875000
1574460082537,170.09375000,7.21875000
1574460082597,175.78125000,8.03125000
1574460082617,178.20312500,8.03125000
1574460082677,186.89062500,9.17187500
1574460082697,190.76562500,9.17187500
1574460082757,201.51562500,11.20312500
1574460082777,206.45312500,11.20312500
1574460082837,216.35937500,13.43750000
1574460082857,220.07812500,13.43750000
1574460082917,227.45312500,15.65625000
1574460082937,229.46875000,15.65625000
1574460082977,232.87500000,17.42187500
1574460082997,235.10937500,17.42187500
1574460083017,233.79687500,17.42187500
1574460083037,235.25000000,17.42187500
1574460083097,236.95312500,21.26562500
1574460083117,238.93750000,21.26562500
1574460083177,241.34375000,23.03125000
1574460083197,242.71875000,23.03125000
1574460083257,244.95312500,24.32812500
1574460083277,245.59375000,24.32812500
1574460083337,247.17187500,26.29687500
1574460083357,248.71875000,26.29687500
1574460083397,248.32812500,27.92187500
1574460083417,248.46875000,27.92187500
1574460083438,247.20312500,27.92187500
1574460083457,248.50000000,27.92187500
1574460083517,248.09375000,30.07812500
1574460083537,247.53125000,30.07812500
1574460083597,248.40625000,30.93750000
1574460083617,247.84375000,30.93750000
1574460083677,247.29687500,31.53125000
1574460083697,247.42187500,31.53125000
1574460083757,247.01562500,31.87500000
1574460083777,247.42187500,31.87500000
1574460083817,245.65625000,32.06250000
1574460083837,246.15625000,32.06250000
1574460083857,247.07812500,32.06250000
1574460083877,246.76562500,32.06250000
1574460083937,245.68750000,32.62500000
1574460083957,246.37500000,32.62500000
1574460084017,245.79687500,32.73437500
1574460084037,245.68750000,32.73437500
1574460084097,245.64062500,32.85937500
1574460084117,245.65625000,32.85937500
1574460084177,246.14062500,32.73437500
1574460084197,245.68750000,32.73437500
1574460084257,248.40625000,32.53125000
1574460084277,248.31250000,32.53125000
1574460084337,249.93750000,31.84375000
1574460084357,252.43750000,31.84375000
1574460084417,253.56250000,30.29687500
1574460084437,255.31250000,30.29687500
1574460084497,258.87500000,27.23437500
1574460084517,258.54687500,27.23437500
1574460084577,257.50000000,24.59375000
1574460084597,252.64062500,24.59375000
1574460084657,234.12500000,17.67187500
1574460084677,225.71875000,17.67187500
1574460084737,204.93750000,13.17187500
1574460084757,200.31250000,13.17187500
1574460084817,185.35937500,10.53125000
1574460084837,179.68750000,10.53125000
1574460084857,176.42187500,10.53125000
1574460084877,172.25000000,10.53125000
1574460084897,170.00000000,10.53125000
1574460084958,164.96875000,7.46875000
1574460084977,163.53125000,7.46875000
1574460085037,158.85937500,6.87500000
1574460085057,158.01562500,6.87500000
1574460085117,152.84375000,6.51562500
1574460085137,151.09375000,6.51562500
1574460085197,149.46875000,6.21875000
1574460085217,147.50000000,6.21875000
1574460085257,147.07812500,6.07812500
1574460085277,145.84375000,6.07812500
1574460085297,144.60937500,6.07812500
1574460085317,143.96875000,6.07812500
1574460085377,143.10937500,5.87500000
1574460085397,142.01562500,5.87500000
1574460085457,142.48437500,5.78125000
1574460085477,142.18750000,5.78125000
1574460085537,141.92187500,5.79687500
1574460085557,142.37500000,5.79687500
1574460085617,142.93750000,5.73437500
1574460085637,142.73437500,5.73437500
1574460085677,144.06250000,5.71875000
1574460085697,143.60937500,5.71875000
1574460085717,143.79687500,5.71875000
1574460085737,143.07812500,5.71875000
1574460085797,143.70312500,5.73437500
1574460085817,143.34375000,5.73437500
1574460085877,144.37500000,5.73437500
1574460085897,143.79687500,5.73437500
1574460085954,145.00000000,5.73437500
1574460086007,147.60937500,5.84375000
1574460086027,148.29687500,5.84375000
1574460086087,154.50000000,6.29687500
1574460086107,158.79687500,6.29687500
1574460086167,166.54687500,7.25000000
1574460086187,166.87500000,7.25000000
1574460086247,174.60937500,8.00000000
1574460086267,175.96875000,8.00000000
1574460086327,181.18750000,8.96875000
1574460086347,183.42187500,8.96875000
1574460086407,189.25000000,10.35937500
1574460086427,192.32812500,10.35937500
1574460086487,198.60937500,12.57812500
1574460086507,201.65625000,12.57812500
1574460086567,209.51562500,15.64062500
1574460086587,211.04687500,15.64062500
1574460086647,217.50000000,18.25000000
1574460086667,218.67187500,18.25000000
1574460086727,224.21875000,20.87500000
1574460086747,225.04687500,20.87500000
1574460086787,229.26562500,22.57812500
1574460086807,231.67187500,22.57812500
1574460086827,232.57812500,22.57812500
1574460086847,234.73437500,22.57812500
1574460086907,239.40625000,25.23437500
1574460086927,240.34375000,25.23437500
1574460086987,243.14062500,27.34375000
1574460087007,243.85937500,27.34375000
1574460087067,243.65625000,28.92187500
1574460087087,243.15625000,28.92187500
1574460087147,244.79687500,29.90625000
1574460087167,243.42187500,29.90625000
1574460087227,243.54687500,30.60937500
1574460087247,241.53125000,30.60937500
1574460087307,243.37500000,31.12500000
1574460087327,242.82812500,31.12500000
1574460087387,241.71875000,31.37500000
1574460087407,241.59375000,31.37500000
1574460087467,239.31250000,31.71875000
1574460087487,238.92187500,31.71875000
1574460087547,240.37500000,31.87500000
1574460087567,239.67187500,31.87500000
1574460087607,240.46875000,31.93750000
1574460087627,239.96875000,31.93750000
1574460087647,240.06250000,31.93750000
1574460087667,240.28125000,31.93750000
1574460087727,241.17187500,31.85937500
1574460087747,240.45312500,31.85937500
1574460087807,241.93750000,31.89062500
1574460087827,240.40625000,31.89062500
1574460087887,241.07812500,31.92187500
1574460087907,242.14062500,31.92187500
1574460087967,241.39062500,31.71875000
1574460087987,242.39062500,31.71875000
1574460088047,247.28125000,31.17187500
1574460088067,246.98437500,31.17187500
1574460088127,253.51562500,29.76562500
1574460088147,253.64062500,29.76562500
1574460088207,258.14062500,26.73437500
1574460088227,256.67187500,26.73437500
1574460088287,244.40625000,21.21875000
1574460088307,239.45312500,21.21875000
1574460088347,226.84375000,16.84375000
1574460088367,219.93750000,16.84375000
1574460088387,215.56250000,16.84375000
1574460088407,210.45312500,16.84375000
1574460088467,195.28125000,11.78125000
1574460088487,190.20312500,11.78125000
1574460088547,180.81250000,9.53125000
1574460088567,176.28125000,9.53125000
1574460088627,169.85937500,7.89062500
1574460088647,165.10937500,7.89062500
1574460088707,158.40625000,6.79687500
1574460088727,154.76562500,6.79687500
1574460088787,150.73437500,6.35937500
1574460088807,150.01562500,6.35937500
1574460088867,147.57812500,6.01562500
1574460088887,148.10937500,6.01562500
1574460088947,147.20312500,5.96875000
1574460088967,146.62500000,5.96875000
1574460089027,146.73437500,5.96875000
1574460089047,145.76562500,5.96875000
1574460089107,146.51562500,5.95312500
1574460089127,146.17187500,5.95312500
1574460089187,146.34375000,5.90625000
1574460089207,147.31250000,5.90625000
1574460089268,146.26562500,5.98437500
1574460089287,147.20312500,5.98437500
1574460089347,147.12500000,6.01562500
1574460089367,147.21875000,6.01562500
1574460089427,147.45312500,6.01562500
1574460089447,147.17187500,6.01562500
1574460089507,148.25000000,6.03125000
1574460089527,148.34375000,6.03125000
1574460089587,148.76562500,6.12500000
1574460089607,150.17187500,6.12500000
1574460089667,150.31250000,6.15625000
1574460089687,150.48437500,6.15625000
1574460089747,150.95312500,6.15625000
1574460089767,151.07812500,6.15625000
1574460089827,151.70312500,6.26562500
1574460089847,151.28125000,6.26562500
1574460089907,151.84375000,6.31250000
1574460089927,151.90625000,6.31250000
1574460089987,151.03125000,6.29687500
1574460090007,152.65625000,6.29687500
1574460090067,153.07812500,6.34375000
1574460090087,154.48437500,6.34375000
1574460090147,155.12500000,6.46875000
1574460090167,154.89062500,6.46875000
1574460090227,156.01562500,6.40625000
1574460090247,155.59375000,6.40625000
1574460090307,157.06250000,6.56250000
1574460090327,156.48437500,6.56250000
1574460090387,156.62500000,6.62500000
1574460090407,157.15625000,6.62500000
1574460090467,157.79687500,6.67187500
1574460090487,157.79687500,6.67187500
1574460090547,157.81250000,6.73437500
1574460090567,158.60937500,6.73437500
1574460090627,158.54687500,6.78125000
1574460090647,158.75000000,6.78125000
1574460090707,160.51562500,6.90625000
1574460090727,160.57812500,6.90625000
1574460090787,160.31250000,6.92187500
1574460090807,161.76562500,6.92187500
1574460090867,161.79687500,6.95312500
1574460090887,161.95312500,6.95312500
1574460090947,162.26562500,7.06250000
1574460090969,162.73437500,7.06250000
1574460091027,166.75000000,7.35937500
1574460091047,168.50000000,7.35937500
1574460091087,171.17187500,8.04687500
1574460091107,175.71875000,8.04687500
1574460091127,181.00000000,8.04687500
1574460091147,183.96875000,8.04687500
1574460091207,193.51562500,10.81250000
1574460091227,196.59375000,10.81250000
1574460091287,204.37500000,12.54687500
1574460091307,208.68750000,12.54687500
1574460091367,215.92187500,14.56250000
1574460091387,219.10937500,14.56250000
1574460091447,221.78125000,17.18750000
1574460091467,223.95312500,17.18750000
1574460091507,226.59375000,18.98437500
1574460091547,228.98437500,20.07812500
1574460091567,229.45312500,20.07812500
1574460091587,231.21875000,20.07812500
1574460091607,232.25000000,20.07812500
1574460091667,233.87500000,22.82812500
1574460091687,236.18750000,22.82812500
1574460091747,237.64062500,24.51562500
1574460091767,240.17187500,24.51562500
1574460091827,242.89062500,26.01562500
1574460091847,243.60937500,26.01562500
1574460091907,245.79687500,27.29687500
1574460091927,248.15625000,27.29687500
1574460091947,245.43750000,27.29687500
1574460092007,248.65625000,28.48437500
1574460092027,248.81250000,28.48437500
1574460092087,250.46875000,29.34375000
1574460092107,250.93750000,29.34375000
1574460092167,252.42187500,29.73437500
1574460092187,252.81250000,29.73437500
1574460092247,252.67187500,30.23437500
1574460092267,252.73437500,30.23437500
1574460092327,253.60937500,30.51562500
1574460092347,253.15625000,30.51562500
1574460092407,254.17187500,30.70312500
1574460092427,255.14062500,30.70312500
1574460092467,252.73437500,30.93750000
1574460092487,253.79687500,30.93750000
1574460092507,253.68750000,30.93750000
1574460092527,253.46875000,30.93750000
1574460092587,252.85937500,31.10937500
1574460092607,253.64062500,31.10937500
1574460092667,253.67187500,31.20312500
1574460092687,254.20312500,31.20312500
1574460092747,252.57812500,31.21875000
1574460092767,253.29687500,31.21875000
1574460092827,253.93750000,31.25000000
1574460092847,253.85937500,31.25000000
1574460092907,253.70312500,31.01562500
1574460092927,254.78125000,31.01562500
1574460092987,254.64062500,30.53125000
1574460093007,256.20312500,30.53125000
1574460093067,257.06250000,29.51562500
1574460093087,258.43750000,29.51562500
1574460093107,259.01562500,29.51562500
1574460093127,258.81250000,29.51562500
1574460093147,258.50000000,29.51562500
1574460093207,260.64062500,25.95312500
1574460093227,259.15625000,25.95312500
1574460093287,256.09375000,23.23437500
1574460093307,255.06250000,23.23437500
1574460093367,248.60937500,20.68750000
1574460093387,246.21875000,20.68750000
1574460093447,235.78125000,18.35937500
1574460093468,232.40625000,18.35937500
1574460093537,222.76562500,15.56250000
1574460093557,220.12500000,15.56250000
1574460093618,212.54687500,13.78125000
1574460093637,210.01562500,13.78125000
1574460093697,201.46875000,12.00000000
1574460093717,197.75000000,12.00000000
1574460093777,190.89062500,10.60937500
1574460093797,189.28125000,10.60937500
1574460093857,184.46875000,9.81250000
1574460093877,183.90625000,9.81250000
1574460093937,179.78125000,9.28125000
1574460093957,179.31250000,9.28125000
1574460093977,177.78125000,9.28125000
1574460093997,177.10937500,9.28125000
1574460094017,176.26562500,9.28125000
1574460094077,173.48437500,8.54687500
1574460094097,172.92187500,8.54687500
1574460094157,170.96875000,8.26562500
1574460094177,171.43750000,8.26562500
1574460094237,167.42187500,8.07812500
1574460094257,167.75000000,8.07812500
1574460094317,166.18750000,7.85937500
1574460094337,166.42187500,7.85937500
1574460094397,164.48437500,7.89062500
1574460094417,165.32812500,7.89062500
1574460094477,163.57812500,7.81250000
1574460094497,163.14062500,7.81250000
1574460094557,161.06250000,7.68750000
1574460094577,161.42187500,7.68750000
1574460094637,155.95312500,7.34375000
1574460094657,155.79687500,7.34375000
1574460094717,154.29687500,7.17187500
1574460094737,154.67187500,7.17187500
1574460094777,154.00000000,7.04687500
1574460094797,153.82812500,7.04687500
1574460094817,153.17187500,7.04687500
1574460094837,153.60937500,7.04687500
1574460094897,152.75000000,6.96875000
1574460094917,152.92187500,6.96875000
1574460094977,152.01562500,6.87500000
1574460094997,152.15625000,6.87500000
1574460095057,153.60937500,6.96875000
1574460095077,153.34375000,6.96875000
1574460095137,153.62500000,7.03125000
1574460095157,154.00000000,7.03125000
1574460095217,155.82812500,7.09375000
1574460095237,156.64062500,7.09375000
1574460095297,155.15625000,7.20312500
1574460095317,156.26562500,7.20312500
1574460095377,155.65625000,7.14062500
1574460095397,156.09375000,7.14062500
1574460095457,156.25000000,7.14062500
1574460095477,155.14062500,7.14062500
1574460095537,155.45312500,7.04687500
1574460095557,154.79687500,7.04687500
1574460095617,154.62500000,7.01562500
1574460095637,155.46875000,7.01562500
1574460095697,153.70312500,6.95312500
1574460095717,154.51562500,6.95312500
1574460095777,154.54687500,6.96875000
1574460095797,154.37500000,6.96875000
1574460095857,155.37500000,6.93750000
1574460095877,155.14062500,6.93750000
1574460095937,154.71875000,6.90625000
1574460095957,154.73437500,6.90625000
1574460096017,154.75000000,6.90625000
1574460096037,154.93750000,6.90625000
1574460096057,155.53125000,6.90625000
1574460096117,154.89062500,6.92187500
1574460096137,156.53125000,6.92187500
1574460096197,155.04687500,6.89062500
1574460096217,154.93750000,6.89062500
1574460096277,154.95312500,6.81250000
1574460096297,155.15625000,6.81250000
1574460096357,153.07812500,6.79687500
1574460096377,151.40625000,6.79687500
1574460096417,149.57812500,6.50000000
1574460096437,147.89062500,6.50000000
1574460096457,147.65625000,6.50000000
1574460096477,148.25000000,6.50000000
1574460096537,147.21875000,6.23437500
1574460096557,147.64062500,6.23437500
1574460096617,147.82812500,6.25000000
1574460096637,148.23437500,6.25000000
1574460096697,148.10937500,6.10937500
1574460096717,148.03125000,6.10937500
1574460096777,148.29687500,6.01562500
1574460096797,148.57812500,6.01562500
1574460096837,147.81250000,5.96875000
1574460096857,148.14062500,5.96875000
1574460096877,148.32812500,5.96875000
1574460096897,147.79687500,5.96875000
1574460096957,149.29687500,5.90625000
1574460096977,149.18750000,5.90625000
1574460097037,149.43750000,5.90625000
1574460097057,149.34375000,5.90625000
1574460097117,149.48437500,5.92187500
1574460097137,149.71875000,5.92187500
1574460097197,149.70312500,5.90625000
1574460097217,149.87500000,5.90625000
1574460097277,150.67187500,6.00000000
1574460097297,151.15625000,6.00000000
1574460097357,150.68750000,6.03125000
1574460097377,150.81250000,6.03125000
1574460097437,150.85937500,6.00000000
1574460097457,150.60937500,6.00000000
1574460097517,150.84375000,6.00000000
1574460097537,150.67187500,6.00000000
1574460097597,150.68750000,6.01562500
1574460097617,150.98437500,6.01562500
1574460097677,151.45312500,6.07812500
1574460097697,152.34375000,6.07812500
1574460097737,152.21875000,6.15625000
1574460097757,152.51562500,6.15625000
1574460097777,153.12500000,6.15625000
1574460097797,153.15625000,6.15625000
1574460097857,154.76562500,6.21875000
1574460097877,154.59375000,6.21875000
1574460097937,155.48437500,6.29687500
1574460097957,154.75000000,6.29687500
1574460098017,155.29687500,6.32812500
1574460098037,155.29687500,6.32812500
1574460098097,155.28125000,6.35937500
1574460098117,155.23437500,6.35937500
1574460098177,156.46875000,6.43750000
1574460098197,155.62500000,6.43750000
1574460098257,156.59375000,6.46875000
1574460098277,156.23437500,6.46875000
