<?xml version="1.0" encoding="utf-8"?>
<!-- This URDF was automatically created by SolidWorks to URDF Exporter! Originally created by Stephen Brawner (brawner@gmail.com) 
     Commit Version: 1.5.1-0-g916b5db  Build Version: 1.5.7152.31018
     For more information, please see http://wiki.ros.org/sw_urdf_exporter -->
<robot name="orthosis_description">

  <link name="world" />
  <link name="base_plate">
    <inertial>
      <origin xyz="0.00743702041006169 -0.00357633169508506 0.03909635084849" rpy="0 0 0" />
      <mass value="0.0474034875770527" />
      <inertia ixx="2.44073478442254E-05" ixy="2.7346141915609E-06" ixz="-1.08342221218367E-06" iyy="5.8766418218488E-05" iyz="-6.46852929318952E-07" izz="4.34431199181991E-05" />
    </inertial>
    <visual>
      <origin xyz="0 0 0" rpy="0 0 0" />
      <geometry>
        <mesh filename="package://orthosis_description/meshes/base_plate.STL" />
      </geometry>
      <material name="">
        <color rgba="1 1 1 1" />
      </material>
    </visual>
    <collision>
      <origin xyz="0 0 0" rpy="0 0 0" />
      <geometry>
        <mesh filename="package://orthosis_description/meshes/base_plate.STL" />
      </geometry>
    </collision>
  </link>

  <joint name="fix_base_plate" type="fixed">
    <origin xyz="0 0 0.2" rpy="0 0 0" />
    <parent link="world" />
    <child link="base_plate" />
  </joint>
  <link name="index_link1">
    <inertial>
      <origin xyz="-0.00524934881948466 0.0143007784990638 -0.0249999911774287" rpy="0 0 0" />
      <mass value="0.00510767663808047" />
      <inertia ixx="4.64668914818127E-07" ixy="-1.63548988677425E-13" ixz="1.55256482633738E-12" iyy="5.50822214203879E-07" iyz="9.10672133571089E-14" izz="2.30499865705361E-07" />
    </inertial>
    <visual>
      <origin xyz="0 0 0" rpy="0 0 0" />
      <geometry>
        <mesh filename="package://orthosis_description/meshes/index_link1.STL" />
      </geometry>
      <material name="">
        <color rgba="1 1 1 1" />
      </material>
    </visual>
    <collision>
      <origin xyz="0 0 0" rpy="0 0 0" />
      <geometry>
        <mesh filename="package://orthosis_description/meshes/index_link1.STL" />
      </geometry>
    </collision>
  </link>
  <joint name="index_joint1" type="revolute">
    <origin xyz="0.022655 -0.08 -0.010172" rpy="1.5708 -0.54614 3.1416" />
    <parent link="base_plate" />
    <child link="index_link1" />
    <axis xyz="1 0 0" />
    <limit lower="-0.7854" upper="0" effort="10" velocity="1" />
  </joint>
  <link name="index_link2">
    <inertial>
      <origin xyz="-0.0052493359281705 0.00956980261680376 -0.0169570633163517" rpy="0 0 0" />
      <mass value="0.00240552563381329" />
      <inertia ixx="1.27251351449245E-07" ixy="2.87099509958882E-13" ixz="5.83609435343937E-13" iyy="1.76811595722754E-07" iyz="-1.7286803685482E-08" izz="9.65342292754926E-08" />
    </inertial>
    <visual>
      <origin xyz="0 0 0" rpy="0 0 0" />
      <geometry>
        <mesh filename="package://orthosis_description/meshes/index_link2.STL" />
      </geometry>
      <material name="">
        <color rgba="1 1 1 1" />
      </material>
    </visual>
    <collision>
      <origin xyz="0 0 0" rpy="0 0 0" />
      <geometry>
        <mesh filename="package://orthosis_description/meshes/index_link2.STL" />
      </geometry>
    </collision>
  </link>
  <joint name="index_joint2" type="revolute">
    <origin xyz="0 0.003 -0.045" rpy="0 0 0" />
    <parent link="index_link1" />
    <child link="index_link2" />
    <axis xyz="1 0 0" />
    <limit lower="-1.5708" upper="0" effort="10" velocity="1" />
  </joint>
  <link name="middle_link1">
    <inertial>
      <origin xyz="-0.00917269746705619 0.0143007960209371 -0.0249999774369469" rpy="0 0 0" />
      <mass value="0.00510766142565245" />
      <inertia ixx="4.64667868141553E-07" ixy="-3.85341496956777E-14" ixz="1.94076630147409E-12" iyy="5.50821057291569E-07" iyz="2.79329019006864E-13" izz="2.30499062177588E-07" />
    </inertial>
    <visual>
      <origin xyz="0 0 0" rpy="0 0 0" />
      <geometry>
        <mesh filename="package://orthosis_description/meshes/middle_link1.STL" />
      </geometry>
      <material name="">
        <color rgba="1 1 1 1" />
      </material>
    </visual>
    <collision>
      <origin xyz="0 0 0" rpy="0 0 0" />
      <geometry>
        <mesh filename="package://orthosis_description/meshes/middle_link1.STL" />
      </geometry>
    </collision>
  </link>
  <joint name="middle_joint1" type="revolute">
    <origin xyz="-0.00072712 -0.081 -0.0045039" rpy="1.5708 -0.16006 3.1416" />
    <parent link="base_plate" />
    <child link="middle_link1" />
    <axis xyz="1 0 0" />
    <limit lower="-0.7854" upper="0" effort="10" velocity="1" />
  </joint>
  <link name="middle_link2">
    <inertial>
      <origin xyz="-0.00917274273816071 0.00956984028134967 -0.0169569863118824" rpy="0 0 0" />
      <mass value="0.00240555648833588" />
      <inertia ixx="1.27250534672E-07" ixy="9.84199049719429E-13" ixz="1.44049018889192E-12" iyy="1.76811578086764E-07" iyz="-1.7286989136568E-08" izz="9.6535957319213E-08" />
    </inertial>
    <visual>
      <origin xyz="0 0 0" rpy="0 0 0" />
      <geometry>
        <mesh filename="package://orthosis_description/meshes/middle_link2.STL" />
      </geometry>
      <material name="">
        <color rgba="1 1 1 1" />
      </material>
    </visual>
    <collision>
      <origin xyz="0 0 0" rpy="0 0 0" />
      <geometry>
        <mesh filename="package://orthosis_description/meshes/middle_link2.STL" />
      </geometry>
    </collision>
  </link>
  <joint name="middle_joint2" type="revolute">
    <origin xyz="0 0.003 -0.0495" rpy="0 0 0" />
    <parent link="middle_link1" />
    <child link="middle_link2" />
    <axis xyz="1 0 0" />
    <limit lower="-1.5708" upper="0" effort="10" velocity="1" />
  </joint>
  <link name="ring_link1">
    <inertial>
      <origin xyz="0.0161135310392936 0.0143277487570384 -0.0274999726561027" rpy="0 0 0" />
      <mass value="0.00422200782497882" />
      <inertia ixx="2.8463848618534E-07" ixy="-2.44429526117819E-14" ixz="1.40431481587952E-12" iyy="3.55018657312769E-07" iyz="2.69638863011471E-13" izz="1.89265578844961E-07" />
    </inertial>
    <visual>
      <origin xyz="0 0 0" rpy="0 0 0" />
      <geometry>
        <mesh filename="package://orthosis_description/meshes/ring_link1.STL" />
      </geometry>
      <material name="">
        <color rgba="1 1 1 1" />
      </material>
    </visual>
    <collision>
      <origin xyz="0 0 0" rpy="0 0 0" />
      <geometry>
        <mesh filename="package://orthosis_description/meshes/ring_link1.STL" />
      </geometry>
    </collision>
  </link>
  <joint name="ring_joint1" type="revolute">
    <origin xyz="0.0036252 -0.069 -0.0029901" rpy="1.5708 0.23277 -3.1416" />
    <parent link="base_plate" />
    <child link="ring_link1" />
    <axis xyz="1 0 0" />
    <limit lower="-0.7854" upper="0" effort="10" velocity="1" />
  </joint>
  <link name="ring_link2">
    <inertial>
      <origin xyz="0.0154425638883961 0.00956982413139559 -0.0169570401526029" rpy="0 0 0" />
      <mass value="0.00240556553104821" />
      <inertia ixx="1.27252838389482E-07" ixy="-9.47690443437805E-13" ixz="5.41733079982334E-13" iyy="1.76813137970182E-07" iyz="-1.72869865383491E-08" izz="9.65352609873053E-08" />
    </inertial>
    <visual>
      <origin xyz="0 0 0" rpy="0 0 0" />
      <geometry>
        <mesh filename="package://orthosis_description/meshes/ring_link2.STL" />
      </geometry>
      <material name="">
        <color rgba="1 1 1 1" />
      </material>
    </visual>
    <collision>
      <origin xyz="0 0 0" rpy="0 0 0" />
      <geometry>
        <mesh filename="package://orthosis_description/meshes/ring_link2.STL" />
      </geometry>
    </collision>
  </link>
  <joint name="ring_joint2" type="revolute">
    <origin xyz="0.00067101 0.003 -0.0525" rpy="0 0 0" />
    <parent link="ring_link1" />
    <child link="ring_link2" />
    <axis xyz="1 0 0" />
    <limit lower="-1.5708" upper="0" effort="10" velocity="1" />
  </joint>
  <link name="pinky_link1">
    <inertial>
      <origin xyz="0.019771927030814 0.0143830054077592 -0.0199999951969515" rpy="0 0 0" />
      <mass value="0.00274569695163782" />
      <inertia ixx="1.34658050415457E-07" ixy="-9.54499243409192E-14" ixz="-5.17648239590328E-14" iyy="1.57803744706109E-07" iyz="3.59912903036693E-14" izz="1.05433940896909E-07" />
    </inertial>
    <visual>
      <origin xyz="0 0 0" rpy="0 0 0" />
      <geometry>
        <mesh filename="package://orthosis_description/meshes/pinky_link1.STL" />
      </geometry>
      <material name="">
        <color rgba="1 1 1 1" />
      </material>
    </visual>
    <collision>
      <origin xyz="0 0 0" rpy="0 0 0" />
      <geometry>
        <mesh filename="package://orthosis_description/meshes/pinky_link1.STL" />
      </geometry>
    </collision>
  </link>
  <joint name="pinky_joint1" type="revolute">
    <origin xyz="-0.012622 -0.059 -0.0035046" rpy="1.5708 0.59367 -3.1416" />
    <parent link="base_plate" />
    <child link="pinky_link1" />
    <axis xyz="1 0 0" />
    <limit lower="-0.7854" upper="0" effort="10" velocity="1" />
  </joint>
  <link name="pinky_link2">
    <inertial>
      <origin xyz="0.0179224001085063 0.00837718525445392 -0.0170602731540764" rpy="0 0 0" />
      <mass value="0.00203404472554594" />
      <inertia ixx="1.10301859259634E-07" ixy="-9.00318220857386E-13" ixz="-1.29266539486529E-13" iyy="1.39150303208189E-07" iyz="-1.48232102596366E-08" izz="6.91752303590718E-08" />
    </inertial>
    <visual>
      <origin xyz="0 0 0" rpy="0 0 0" />
      <geometry>
        <mesh filename="package://orthosis_description/meshes/pinky_link2.STL" />
      </geometry>
      <material name="">
        <color rgba="1 1 1 1" />
      </material>
    </visual>
    <collision>
      <origin xyz="0 0 0" rpy="0 0 0" />
      <geometry>
        <mesh filename="package://orthosis_description/meshes/pinky_link2.STL" />
      </geometry>
    </collision>
  </link>
  <joint name="pinky_joint2" type="revolute">
    <origin xyz="0.0018497 0.004 -0.0355" rpy="0 0 0" />
    <parent link="pinky_link1" />
    <child link="pinky_link2" />
    <axis xyz="1 0 0" />
    <limit lower="-1.5708" upper="0" effort="10" velocity="1" />
  </joint>
</robot>