<?xml version="1.0"?>
<robot name="orthosis_description" version="1.0">
  <link name="arm_base_link">
    <inertial>
      <origin xyz="0.0 0.0 -2.05719914751e-20" rpy="0.0 0.0 0.0"/>
      <mass value="101.198893873"/>
      <inertia ixx="0.169989986173" ixy="-3.59989002583e-20" ixz="-3.59989002583e-20" iyy="0.169327404648" iyz="0.0" izz="0.169327404648"/>
    </inertial>
    <visual>
      <origin xyz="0.0 0.0 0.0" rpy="0.0 0.0 0.0"/>
      <geometry>
        <mesh filename="package://orthosis_description/meshes/arm_mount/arm_base_link.STL"/>
      </geometry>
      <material name="">
        <color rgba="1.0 1.0 1.0 1.0"/>
      </material>
    </visual>
    <collision>
      <origin xyz="0.0 0.0 0.0" rpy="0.0 0.0 0.0"/>
      <geometry>
        <mesh filename="package://orthosis_description/meshes/arm_mount/arm_base_link.STL"/>
      </geometry>
    </collision>
  </link>
  <link name="arm_link1">
    <inertial>
      <origin xyz="-0.01 -2.98372437868e-16 0.0794905430237" rpy="0.0 0.0 0.0"/>
      <mass value="16.1020991335"/>
      <inertia ixx="0.055174992889" ixy="-7.30999562664e-21" ixz="-6.98550019233e-18" iyy="0.0535368606886" iyz="3.13402190484e-18" izz="0.00271160547593"/>
    </inertial>
    <visual>
      <origin xyz="0.0 0.0 0.0" rpy="0.0 0.0 0.0"/>
      <geometry>
        <mesh filename="package://orthosis_description/meshes/arm_mount/arm_link1.STL"/>
      </geometry>
      <material name="">
        <color rgba="1.0 1.0 1.0 1.0"/>
      </material>
    </visual>
    <collision>
      <origin xyz="0.0 0.0 0.0" rpy="0.0 0.0 0.0"/>
      <geometry>
        <mesh filename="package://orthosis_description/meshes/arm_mount/arm_link1.STL"/>
      </geometry>
    </collision>
  </link>
  <joint name="arm_joint1" type="revolute">
    <origin xyz="-0.05 0.0 0.0" rpy="-2.8322 0.0 0.0"/>
    <axis xyz="1.0 0.0 0.0"/>
    <parent link="arm_base_link"/>
    <child link="arm_link1"/>
    <limit effort="5000.0" lower="-0.21424" upper="1.15" velocity="10.0"/>
  </joint>
  <link name="arm_link2">
    <inertial>
      <origin xyz="-0.01 0.0 0.0794905430237" rpy="0.0 0.0 0.0"/>
      <mass value="16.1020991335"/>
      <inertia ixx="0.055174992889" ixy="9.98660152059e-20" ixz="-8.10518093452e-18" iyy="0.0535368606886" iyz="-1.17314063195e-17" izz="0.00271160547593"/>
    </inertial>
    <visual>
      <origin xyz="0.0 0.0 0.0" rpy="0.0 0.0 0.0"/>
      <geometry>
        <mesh filename="package://orthosis_description/meshes/arm_mount/arm_link2.STL"/>
      </geometry>
      <material name="">
        <color rgba="1.0 1.0 1.0 1.0"/>
      </material>
    </visual>
    <collision>
      <origin xyz="0.0 0.0 0.0" rpy="0.0 0.0 0.0"/>
      <geometry>
        <mesh filename="package://orthosis_description/meshes/arm_mount/arm_link2.STL"/>
      </geometry>
    </collision>
  </link>
  <joint name="arm_joint2" type="revolute">
    <origin xyz="-0.02 0.0 0.16" rpy="-1.9204 0.0 0.0"/>
    <axis xyz="1.0 0.0 0.0"/>
    <parent link="arm_link1"/>
    <child link="arm_link2"/>
    <limit effort="5000.0" lower="-0.43581" upper="1.9204" velocity="10.0"/>
  </joint>
  <link name="base_plate">
    <inertial>
      <origin xyz="0.00743702041006 -0.00357633169509 0.0390963508485" rpy="0.0 0.0 0.0"/>
      <mass value="4.74034875771"/>
      <inertia ixx="0.00244073478442" ixy="0.000273461419156" ixz="-0.000108342221218" iyy="0.00587664182185" iyz="-6.46852929319e-05" izz="0.00434431199182"/>
    </inertial>
    <visual>
      <origin xyz="0.0 0.0 0.0" rpy="0.0 0.0 0.0"/>
      <geometry>
        <mesh filename="package://orthosis_description/meshes/base_plate.STL"/>
      </geometry>
      <material name="">
        <color rgba="1.0 1.0 1.0 1.0"/>
      </material>
    </visual>
    <collision>
      <origin xyz="0.0 0.0 0.0" rpy="0.0 0.0 0.0"/>
      <geometry>
        <mesh filename="package://orthosis_description/meshes/base_plate.STL"/>
      </geometry>
    </collision>
  </link>
  <joint name="arm_to_base_plate" type="fixed">
    <origin xyz="-0.02 0.0 0.158981086047" rpy="-1.5708 0.0 3.1419"/>
    <parent link="arm_link2"/>
    <child link="base_plate"/>
  </joint>
  <link name="base_plate_camera">
    <inertial>
      <origin xyz="0.0515 0.011 0.0165" rpy="0.0 0.0 0.0"/>
      <mass value="1.0"/>
      <inertia ixx="0.0027225" ixy="0.0" ixz="0.0" iyy="0.00121" iyz="0.0" izz="0.0265225"/>
    </inertial>
    <visual>
      <origin xyz="0.0 0.0 0.0" rpy="0.0 0.0 0.0"/>
      <geometry>
        <box size="0.0515 0.011 0.0165"/>
      </geometry>
      <material name="">
        <color rgba="1.0 1.0 1.0 1.0"/>
      </material>
    </visual>
    <collision>
      <origin xyz="0.0 0.0 0.0" rpy="0.0 0.0 0.0"/>
      <geometry>
        <box size="0.0515 0.011 0.0165"/>
      </geometry>
    </collision>
  </link>
  <joint name="base_plate_camera_joint" type="fixed">
    <origin xyz="0.00743702041006 -0.00357633169509 0.0190963508485" rpy="0.0 0.0 0.0"/>
    <parent link="base_plate"/>
    <child link="base_plate_camera"/>
  </joint>
  <link name="index_link1">
    <inertial>
      <origin xyz="-0.00524934881948 0.0143007784991 -0.0249999911774" rpy="0.0 0.0 0.0"/>
      <mass value="0.510767663808"/>
      <inertia ixx="4.64668914818e-05" ixy="-1.63548988677e-11" ixz="1.55256482634e-10" iyy="5.50822214204e-05" iyz="9.10672133571e-12" izz="2.30499865705e-05"/>
    </inertial>
    <visual>
      <origin xyz="0.0 0.0 0.0" rpy="0.0 0.0 0.0"/>
      <geometry>
        <mesh filename="package://orthosis_description/meshes/index_link1.STL"/>
      </geometry>
      <material name="">
        <color rgba="1.0 1.0 1.0 1.0"/>
      </material>
    </visual>
    <collision>
      <origin xyz="0.0 0.0 0.0" rpy="0.0 0.0 0.0"/>
      <geometry>
        <mesh filename="package://orthosis_description/meshes/index_link1.STL"/>
      </geometry>
    </collision>
  </link>
  <joint name="index_joint1" type="revolute">
    <origin xyz="0.022655 -0.08 -0.010172" rpy="1.5708 -0.54614 3.1416"/>
    <axis xyz="1.0 0.0 0.0"/>
    <parent link="base_plate"/>
    <child link="index_link1"/>
    <limit effort="1000.0" lower="-0.7854" upper="0.0" velocity="1.0"/>
  </joint>
  <link name="index_link2">
    <inertial>
      <origin xyz="-0.00524933592817 0.0095698026168 -0.0169570633164" rpy="0.0 0.0 0.0"/>
      <mass value="0.240552563381"/>
      <inertia ixx="1.27251351449e-05" ixy="2.87099509959e-11" ixz="5.83609435344e-11" iyy="1.76811595723e-05" iyz="-1.72868036855e-06" izz="9.65342292755e-06"/>
    </inertial>
    <visual>
      <origin xyz="0.0 0.0 0.0" rpy="0.0 0.0 0.0"/>
      <geometry>
        <mesh filename="package://orthosis_description/meshes/index_link2.STL"/>
      </geometry>
      <material name="">
        <color rgba="1.0 1.0 1.0 1.0"/>
      </material>
    </visual>
    <collision>
      <origin xyz="0.0 0.0 0.0" rpy="0.0 0.0 0.0"/>
      <geometry>
        <mesh filename="package://orthosis_description/meshes/index_link2.STL"/>
      </geometry>
    </collision>
  </link>
  <joint name="index_joint2" type="revolute">
    <origin xyz="0.0 0.003 -0.045" rpy="0.0 0.0 0.0"/>
    <axis xyz="1.0 0.0 0.0"/>
    <parent link="index_link1"/>
    <child link="index_link2"/>
    <limit effort="1000.0" lower="-1.5708" upper="0.0" velocity="1.0"/>
  </joint>
  <link name="middle_link1">
    <inertial>
      <origin xyz="-0.00917269746706 0.0143007960209 -0.0249999774369" rpy="0.0 0.0 0.0"/>
      <mass value="0.510766142565"/>
      <inertia ixx="4.64667868142e-05" ixy="-3.85341496957e-12" ixz="1.94076630147e-10" iyy="5.50821057292e-05" iyz="2.79329019007e-11" izz="2.30499062178e-05"/>
    </inertial>
    <visual>
      <origin xyz="0.0 0.0 0.0" rpy="0.0 0.0 0.0"/>
      <geometry>
        <mesh filename="package://orthosis_description/meshes/middle_link1.STL"/>
      </geometry>
      <material name="">
        <color rgba="1.0 1.0 1.0 1.0"/>
      </material>
    </visual>
    <collision>
      <origin xyz="0.0 0.0 0.0" rpy="0.0 0.0 0.0"/>
      <geometry>
        <mesh filename="package://orthosis_description/meshes/middle_link1.STL"/>
      </geometry>
    </collision>
  </link>
  <joint name="middle_joint1" type="revolute">
    <origin xyz="-0.00072712 -0.081 -0.0045039" rpy="1.5708 -0.16006 3.1416"/>
    <axis xyz="1.0 0.0 0.0"/>
    <parent link="base_plate"/>
    <child link="middle_link1"/>
    <limit effort="1000.0" lower="-0.7854" upper="0.0" velocity="1.0"/>
  </joint>
  <link name="middle_link2">
    <inertial>
      <origin xyz="-0.00917274273816 0.00956984028135 -0.0169569863119" rpy="0.0 0.0 0.0"/>
      <mass value="0.240555648834"/>
      <inertia ixx="1.27250534672e-05" ixy="9.84199049719e-11" ixz="1.44049018889e-10" iyy="1.76811578087e-05" iyz="-1.72869891366e-06" izz="9.65359573192e-06"/>
    </inertial>
    <visual>
      <origin xyz="0.0 0.0 0.0" rpy="0.0 0.0 0.0"/>
      <geometry>
        <mesh filename="package://orthosis_description/meshes/middle_link2.STL"/>
      </geometry>
      <material name="">
        <color rgba="1.0 1.0 1.0 1.0"/>
      </material>
    </visual>
    <collision>
      <origin xyz="0.0 0.0 0.0" rpy="0.0 0.0 0.0"/>
      <geometry>
        <mesh filename="package://orthosis_description/meshes/middle_link2.STL"/>
      </geometry>
    </collision>
  </link>
  <joint name="middle_joint2" type="revolute">
    <origin xyz="0.0 0.003 -0.0495" rpy="0.0 0.0 0.0"/>
    <axis xyz="1.0 0.0 0.0"/>
    <parent link="middle_link1"/>
    <child link="middle_link2"/>
    <limit effort="1000.0" lower="-1.5708" upper="0.0" velocity="1.0"/>
  </joint>
  <link name="ring_link1">
    <inertial>
      <origin xyz="0.0161135310393 0.014327748757 -0.0274999726561" rpy="0.0 0.0 0.0"/>
      <mass value="0.422200782498"/>
      <inertia ixx="2.84638486185e-05" ixy="-2.44429526118e-12" ixz="1.40431481588e-10" iyy="3.55018657313e-05" iyz="2.69638863011e-11" izz="1.89265578845e-05"/>
    </inertial>
    <visual>
      <origin xyz="0.0 0.0 0.0" rpy="0.0 0.0 0.0"/>
      <geometry>
        <mesh filename="package://orthosis_description/meshes/ring_link1.STL"/>
      </geometry>
      <material name="">
        <color rgba="1.0 1.0 1.0 1.0"/>
      </material>
    </visual>
    <collision>
      <origin xyz="0.0 0.0 0.0" rpy="0.0 0.0 0.0"/>
      <geometry>
        <mesh filename="package://orthosis_description/meshes/ring_link1.STL"/>
      </geometry>
    </collision>
  </link>
  <joint name="ring_joint1" type="revolute">
    <origin xyz="0.0036252 -0.069 -0.0029901" rpy="1.5708 0.23277 -3.1416"/>
    <axis xyz="1.0 0.0 0.0"/>
    <parent link="base_plate"/>
    <child link="ring_link1"/>
    <limit effort="1000.0" lower="-0.7854" upper="0.0" velocity="1.0"/>
  </joint>
  <link name="ring_link2">
    <inertial>
      <origin xyz="0.0154425638884 0.0095698241314 -0.0169570401526" rpy="0.0 0.0 0.0"/>
      <mass value="0.240556553105"/>
      <inertia ixx="1.27252838389e-05" ixy="-9.47690443438e-11" ixz="5.41733079982e-11" iyy="1.7681313797e-05" iyz="-1.72869865383e-06" izz="9.65352609873e-06"/>
    </inertial>
    <visual>
      <origin xyz="0.0 0.0 0.0" rpy="0.0 0.0 0.0"/>
      <geometry>
        <mesh filename="package://orthosis_description/meshes/ring_link2.STL"/>
      </geometry>
      <material name="">
        <color rgba="1.0 1.0 1.0 1.0"/>
      </material>
    </visual>
    <collision>
      <origin xyz="0.0 0.0 0.0" rpy="0.0 0.0 0.0"/>
      <geometry>
        <mesh filename="package://orthosis_description/meshes/ring_link2.STL"/>
      </geometry>
    </collision>
  </link>
  <joint name="ring_joint2" type="revolute">
    <origin xyz="0.00067101 0.003 -0.0525" rpy="0.0 0.0 0.0"/>
    <axis xyz="1.0 0.0 0.0"/>
    <parent link="ring_link1"/>
    <child link="ring_link2"/>
    <limit effort="1000.0" lower="-1.5708" upper="0.0" velocity="1.0"/>
  </joint>
  <link name="pinky_link1">
    <inertial>
      <origin xyz="0.0197719270308 0.0143830054078 -0.019999995197" rpy="0.0 0.0 0.0"/>
      <mass value="0.274569695164"/>
      <inertia ixx="1.34658050415e-05" ixy="-9.54499243409e-12" ixz="-5.1764823959e-12" iyy="1.57803744706e-05" iyz="3.59912903037e-12" izz="1.05433940897e-05"/>
    </inertial>
    <visual>
      <origin xyz="0.0 0.0 0.0" rpy="0.0 0.0 0.0"/>
      <geometry>
        <mesh filename="package://orthosis_description/meshes/pinky_link1.STL"/>
      </geometry>
      <material name="">
        <color rgba="1.0 1.0 1.0 1.0"/>
      </material>
    </visual>
    <collision>
      <origin xyz="0.0 0.0 0.0" rpy="0.0 0.0 0.0"/>
      <geometry>
        <mesh filename="package://orthosis_description/meshes/pinky_link1.STL"/>
      </geometry>
    </collision>
  </link>
  <joint name="pinky_joint1" type="revolute">
    <origin xyz="-0.012622 -0.059 -0.0035046" rpy="1.5708 0.59367 -3.1416"/>
    <axis xyz="1.0 0.0 0.0"/>
    <parent link="base_plate"/>
    <child link="pinky_link1"/>
    <limit effort="1000.0" lower="-0.7854" upper="0.0" velocity="1.0"/>
  </joint>
  <link name="pinky_link2">
    <inertial>
      <origin xyz="0.0179224001085 0.00837718525445 -0.0170602731541" rpy="0.0 0.0 0.0"/>
      <mass value="0.203404472555"/>
      <inertia ixx="1.1030185926e-05" ixy="-9.00318220857e-11" ixz="-1.29266539487e-11" iyy="1.39150303208e-05" iyz="-1.48232102596e-06" izz="6.91752303591e-06"/>
    </inertial>
    <visual>
      <origin xyz="0.0 0.0 0.0" rpy="0.0 0.0 0.0"/>
      <geometry>
        <mesh filename="package://orthosis_description/meshes/pinky_link2.STL"/>
      </geometry>
      <material name="">
        <color rgba="1.0 1.0 1.0 1.0"/>
      </material>
    </visual>
    <collision>
      <origin xyz="0.0 0.0 0.0" rpy="0.0 0.0 0.0"/>
      <geometry>
        <mesh filename="package://orthosis_description/meshes/pinky_link2.STL"/>
      </geometry>
    </collision>
  </link>
  <joint name="pinky_joint2" type="revolute">
    <origin xyz="0.0018497 0.004 -0.0355" rpy="0.0 0.0 0.0"/>
    <axis xyz="1.0 0.0 0.0"/>
    <parent link="pinky_link1"/>
    <child link="pinky_link2"/>
    <limit effort="1000.0" lower="-1.5708" upper="0.0" velocity="1.0"/>
  </joint>
</robot>
