# Theta1, Theta2
15.16,1.90
15.21,1.89
15.24,1.92
15.30,1.95
15.39,2.12
15.46,2.23
15.54,2.40
15.52,2.95
15.43,3.18
15.30,3.53
15.19,3.77
14.65,4.78
14.50,5.18
14.33,5.74
14.00,7.71
13.89,8.58
13.83,9.47
13.73,12.36
13.70,13.43
13.59,15.73
13.60,16.82
13.39,20.71
13.37,22.16
13.27,23.72
13.17,29.10
13.21,31.40
13.28,37.04
13.33,40.26
13.55,50.95
13.69,54.79
13.81,58.74
14.10,71.09
14.23,75.14
14.59,83.48
14.77,87.95
15.18,101.38
15.39,105.46
15.54,109.54
16.03,119.57
16.17,122.20
16.50,126.63
16.68,128.42
17.30,132.16
17.46,133.30
17.65,134.43
18.26,137.08
18.52,137.59
19.03,138.53
19.30,138.88
20.17,139.54
20.42,139.74
20.64,139.90
21.09,140.37
21.10,140.56
21.11,140.67
20.95,140.68
20.21,140.41
19.87,140.12
19.40,139.52
17.55,135.80
16.93,134.15
15.82,128.79
15.29,124.91
14.00,112.26
13.81,107.46
13.64,101.59
13.14,81.33
13.11,74.99
13.04,62.40
13.02,55.88
12.97,39.52
12.98,35.72
12.97,32.49
12.91,24.91
12.87,23.25
12.79,20.62
12.72,19.51
12.63,16.16
12.61,15.11
12.61,14.22
12.54,11.63
12.50,10.88
12.48,10.13
12.49,9.47
12.43,8.90
12.36,7.39
12.38,6.80
12.36,6.33
12.32,4.90
12.25,4.53
12.07,3.96
12.13,3.70
12.07,3.30
11.97,3.20
11.90,3.14
11.91,2.92
11.88,2.87
11.64,2.79
11.57,2.74
11.49,2.69
11.42,2.70
11.41,2.70
11.52,2.70
11.61,2.69
11.51,2.95
11.51,3.09
11.54,3.50
11.50,3.71
11.49,4.04
11.67,5.06
11.80,5.47
11.95,6.50
12.18,7.11
12.85,9.58
13.02,10.79
13.25,12.17
13.60,17.42
13.75,19.58
13.86,21.95
13.97,29.85
14.04,32.77
14.13,39.33
14.15,42.80
14.29,54.07
14.29,58.15
14.35,62.46
14.70,77.37
14.84,82.80
15.23,93.33
15.38,98.58
15.94,112.06
16.13,115.87
16.19,119.21
16.41,126.31
16.46,128.04
16.47,131.06
16.53,132.33
16.74,135.19
16.81,136.04
17.04,137.61
17.20,138.23
17.57,139.76
17.59,140.21
17.60,140.63
17.72,140.71
17.85,140.70
17.92,141.33
18.03,141.72
18.02,141.95
17.98,142.13
17.75,142.06
16.74,140.92
16.31,139.94
15.88,138.31
14.61,131.83
14.21,129.38
13.78,121.16
13.54,114.95
12.99,92.46
12.86,84.25
12.38,67.00
12.15,58.15
11.64,38.15
11.52,33.76
11.45,30.10
11.32,22.96
11.42,21.35
11.62,18.23
11.60,16.98
11.64,13.70
11.69,12.62
11.59,11.69
11.19,9.59
11.06,9.20
10.82,8.42
10.69,8.08
10.51,6.96
10.54,6.57
10.51,6.24
10.59,5.22
10.62,4.93
10.60,4.52
10.59,4.37
10.64,4.03
10.60,3.96
10.61,3.91
10.65,3.71
10.65,3.71
10.75,3.71
10.75,3.70
10.88,3.71
10.95,3.79
11.00,3.88
11.02,4.36
11.10,4.58
11.51,5.25
11.71,5.65
12.60,6.79
12.98,7.16
13.46,7.53
14.79,8.49
15.20,8.81
16.01,9.65
16.33,10.37
17.02,13.15
17.11,14.43
17.11,15.97
16.83,21.74
16.68,23.99
16.52,26.53
15.97,35.65
15.80,39.22
15.55,47.89
15.44,52.56
15.36,67.34
15.40,72.81
15.55,78.10
15.79,94.28
15.94,99.31
16.22,108.77
16.34,113.01
16.52,123.74
16.66,126.39
16.88,128.42
17.41,133.37
17.67,134.67
18.10,137.00
18.32,137.90
18.97,140.42
19.19,141.12
19.40,141.72
19.71,143.33
19.80,143.67
20.00,144.04
20.10,144.15
20.45,144.14
20.49,144.11
20.53,144.04
20.45,144.07
20.44,143.96
19.98,143.44
19.59,143.00
19.18,142.50
17.98,140.86
17.66,140.19
16.85,138.71
16.51,137.93
16.01,135.64
15.85,134.20
15.65,132.45
15.13,125.18
14.98,121.30
14.87,116.59
14.45,100.25
14.35,94.55
14.24,81.19
14.16,74.22
14.09,56.10
14.11,50.94
14.06,46.43
14.08,34.43
14.12,31.54
14.22,26.64
14.19,24.61
13.90,18.72
13.81,16.87
13.72,15.18
13.23,11.59
13.06,10.65
12.61,9.26
12.47,8.83
11.94,7.64
11.75,7.28
11.57,6.98
11.31,5.90
11.25,5.53
11.17,4.89
11.06,4.67
10.87,4.01
10.74,3.89
10.60,3.76
10.33,3.63
10.26,3.60
10.24,3.55
9.98,3.58
9.89,3.58
9.84,3.61
9.83,3.56
9.74,3.63
9.83,3.61
9.94,3.65
10.45,3.88
10.62,3.99
10.94,4.33
11.21,4.48
11.87,5.29
12.05,5.71
12.44,6.04
14.04,7.34
14.63,7.81
15.22,8.26
17.41,9.48
18.33,9.81
19.76,10.49
20.36,10.79
22.57,11.99
23.37,12.44
24.06,12.89
26.10,14.26
26.83,14.82
28.21,15.82
28.87,16.22
30.90,17.69
31.61,18.11
32.32,18.44
34.56,19.00
35.44,19.01
37.03,18.70
37.90,18.21
40.67,16.63
41.58,16.19
42.39,15.80
44.90,14.79
45.78,14.65
47.03,14.85
47.67,14.89
49.39,15.61
49.93,15.96
50.37,16.42
52.09,18.16
52.81,18.94
54.26,20.69
54.96,21.64
57.16,25.07
57.84,26.34
58.55,27.45
60.07,30.13
60.48,30.84
60.87,31.30
61.90,31.53
62.03,31.43
62.16,30.99
62.23,30.58
61.98,29.10
61.75,28.48
61.51,27.74
60.85,24.63
60.52,23.42
59.94,22.43
58.15,19.40
57.57,18.45
56.21,16.74
55.36,16.06
53.05,14.02
52.30,13.33
51.54,12.69
49.04,10.90
48.24,10.37
47.51,9.84
44.68,9.00
43.69,8.87
41.61,8.60
40.46,8.55
37.12,8.35
35.69,8.09
35.24,7.99
32.80,7.41
32.15,7.27
31.53,7.13
30.97,7.00
30.40,6.84
27.99,6.55
27.16,6.34
26.34,6.11
24.05,5.29
23.36,4.90
21.98,4.41
21.63,4.11
20.93,3.60
20.29,3.55
20.08,3.58
19.95,3.41
19.84,3.41
19.35,3.34
19.20,3.22
19.07,3.12
18.81,3.05
18.77,3.02
18.57,3.01
18.50,3.03
18.54,3.10
18.60,3.15
18.70,3.29
19.38,4.03
19.81,4.27
20.92,4.81
21.59,5.03
23.73,5.70
24.43,5.86
25.07,6.01
26.75,6.44
27.27,6.55
27.71,6.75
28.99,7.37
29.49,7.52
30.63,7.80
31.25,7.96
33.17,8.51
33.87,8.61
34.59,8.66
36.80,8.84
37.53,8.89
39.00,9.03
39.81,9.08
42.37,9.22
43.13,9.41
44.01,9.54
46.51,10.13
47.38,10.29
49.18,10.57
50.05,10.76
52.71,11.12
53.55,11.18
54.40,11.22
56.34,11.44
56.84,11.54
57.88,11.64
58.41,11.64
59.56,11.72
59.99,11.65
60.39,11.60
61.01,11.57
61.03,11.62
61.10,11.66
61.06,11.72
61.08,11.77
60.97,11.99
60.85,12.05
60.68,12.14
60.58,12.12
60.21,12.14
59.35,12.11
59.04,12.09
58.68,12.04
56.62,11.99
55.73,11.98
53.68,11.96
52.64,11.88
49.66,11.34
48.86,11.14
48.10,10.96
46.30,10.24
45.91,9.97
45.04,9.62
44.69,9.48
43.46,9.01
43.02,8.81
42.52,8.74
40.62,8.64
39.99,8.57
38.49,8.58
37.70,8.55
35.21,8.49
34.42,8.48
33.68,8.43
31.47,8.22
30.76,8.13
29.50,8.02
28.92,8.05
27.29,7.96
26.76,7.92
26.19,7.94
24.46,7.78
23.90,7.67
23.28,7.56
21.26,7.43
20.57,7.41
19.26,7.27
18.64,7.21
17.07,6.94
16.64,6.80
16.24,6.62
15.17,6.11
14.92,5.93
14.50,5.63
14.31,5.51
13.73,5.15
13.64,5.01
13.56,4.87
13.13,4.64
13.06,4.49
12.77,4.29
12.68,4.20
12.31,4.10
12.24,4.04
12.20,3.98
12.06,4.00
12.11,3.96
12.15,3.97
12.19,3.97
12.42,4.04
12.53,4.11
12.67,4.16
13.22,4.58
13.49,4.76
14.11,5.23
14.44,5.49
15.67,6.38
16.22,6.70
16.87,6.90
18.85,7.54
19.62,7.75
21.40,8.14
22.33,8.30
25.14,8.65
26.04,8.79
26.94,8.88
29.40,9.20
30.20,9.21
31.86,9.27
32.78,9.28
35.85,9.27
37.06,9.11
38.31,8.93
41.71,8.70
42.75,8.63
43.78,8.56
46.63,8.50
47.52,8.57
49.11,8.83
49.91,9.09
52.42,10.02
53.36,10.41
54.06,11.06
56.42,13.27
57.33,14.06
58.95,15.90
59.65,16.86
61.27,19.67
61.78,20.36
62.12,20.99
62.51,22.27
62.54,22.44
62.56,22.41
62.45,22.30
62.26,21.66
62.19,21.42
62.20,21.18
61.97,20.51
62.06,20.34
62.10,20.04
62.07,19.96
61.81,19.89
61.63,19.88
61.48,19.78
60.57,19.29
60.29,18.98
59.59,18.09
59.19,17.54
58.21,15.58
57.95,14.90
57.59,14.31
56.29,12.95
55.72,12.62
54.67,11.82
54.14,11.50
52.71,10.50
52.19,10.22
51.61,9.85
49.43,9.28
48.58,9.16
46.23,9.19
45.02,9.21
41.24,9.37
40.01,9.34
38.84,9.33
35.66,9.15
34.71,9.06
33.77,8.97
31.03,8.56
30.20,8.43
28.53,8.20
27.77,8.06
25.58,7.66
24.74,7.39
24.48,7.30
23.06,6.84
22.64,6.69
21.82,6.48
21.51,6.36
20.53,6.27
20.21,6.27
19.93,6.24
19.28,6.15
19.13,6.13
18.78,6.08
18.60,6.02
18.15,5.88
18.06,5.85
17.99,5.80
17.71,5.81
17.69,5.74
17.70,5.75
17.75,5.74
18.05,5.83
18.16,5.89
18.36,5.94
19.04,6.31
19.39,6.39
20.23,6.51
20.68,6.59
22.39,6.72
22.98,6.86
23.69,6.92
25.74,7.15
26.46,7.23
27.17,7.30
29.27,7.41
30.02,7.40
31.39,7.43
32.17,7.40
34.53,7.38
35.41,7.33
36.31,7.32
39.46,7.04
40.53,6.97
42.55,6.90
43.48,6.90
46.05,6.81
46.85,6.75
47.63,6.76
49.49,6.80
50.13,6.82
51.50,7.02
52.22,7.23
53.95,8.36
54.64,8.80
55.54,9.28
57.87,10.89
58.48,11.42
59.89,12.45
60.36,13.05
61.22,14.62
61.45,15.03
61.61,15.42
62.00,16.31
62.15,16.41
62.40,16.39
63.12,16.21
63.47,16.05
63.91,15.97
64.11,15.94
64.35,16.17
64.42,16.23
64.46,16.31
64.29,16.67
64.33,16.75
64.29,17.01
64.38,17.09
64.83,17.15
64.87,17.21
64.98,17.21
64.96,16.60
64.93,16.28
64.81,15.98
63.88,14.96
63.69,14.39
62.88,13.37
62.31,12.91
59.71,11.78
58.76,11.28
57.70,10.82
53.54,9.92
52.04,9.65
49.40,9.07
48.21,8.82
44.31,8.69
43.08,8.74
42.03,8.70
38.78,8.74
37.68,8.77
35.66,8.66
34.62,8.56
31.42,8.11
30.46,7.94
29.50,7.78
26.64,7.17
25.74,7.04
24.26,6.79
23.59,6.66
21.94,6.37
21.53,6.34
21.16,6.33
20.42,6.24
20.19,6.28
20.00,6.29
19.95,6.27
19.79,6.18
19.79,6.12
19.71,6.12
19.58,6.10
19.54,6.07
19.53,6.06
19.73,6.22
19.88,6.25
20.32,6.37
20.74,6.36
22.31,6.53
22.99,6.56
23.81,6.63
26.69,6.81
27.74,6.90
29.73,7.19
30.85,7.27
34.17,7.34
35.23,7.39
36.33,7.38
40.00,7.09
41.25,7.03
44.96,6.85
48.52,6.88
49.51,7.01
51.33,7.31
52.20,7.47
54.18,8.22
54.73,8.56
55.27,8.80
57.03,9.80
57.55,10.20
58.40,11.08
60.32,12.84
60.77,13.21
61.14,13.50
62.10,14.13
62.34,14.27
62.81,14.52
63.10,14.55
63.17,14.85
63.26,14.88
63.23,14.91
63.05,14.85
63.00,14.78
62.71,14.77
62.56,14.42
62.48,14.41
62.36,14.27
62.42,14.22
62.73,14.00
62.77,13.92
62.68,13.86
62.21,13.66
62.03,13.56
61.23,13.07
60.66,12.81
58.38,11.71
57.38,11.26
56.55,10.69
53.40,9.32
52.33,8.98
50.22,8.39
49.25,8.17
45.63,8.15
44.39,8.20
43.01,8.23
38.42,8.42
36.88,8.37
34.05,8.20
32.75,8.12
29.40,7.74
28.52,7.57
27.81,7.36
25.92,7.13
25.39,7.01
24.36,6.80
23.92,6.70
22.80,6.49
22.46,6.45
22.14,6.39
21.47,6.12
21.29,6.05
21.00,5.85
20.86,5.74
20.51,5.34
20.42,5.14
20.33,4.97
19.99,4.35
19.89,4.13
19.61,3.81
19.47,3.72
19.29,3.55
19.23,3.55
19.18,3.61
19.30,3.73
19.42,3.80
19.62,4.09
19.85,4.21
20.79,4.90
21.30,5.05
21.90,5.19
23.83,5.63
24.63,5.73
26.25,5.86
27.06,5.95
28.73,6.18
31.35,6.56
32.24,6.70
33.16,6.81
36.38,6.93
37.62,6.88
40.43,6.78
41.84,6.74
46.29,6.53
47.72,6.61
49.11,6.70
52.71,7.45
53.74,7.79
55.54,8.64
56.34,9.00
58.02,10.13
58.47,10.63
59.00,10.93
60.37,12.25
60.83,12.90
61.75,14.43
62.19,15.36
63.41,18.48
63.73,19.66
63.96,20.89
64.05,22.16
64.19,23.34
64.63,26.42
64.77,27.26
64.78,28.03
64.96,29.42
65.00,29.67
65.22,29.71
65.23,29.97
65.37,29.89
65.52,29.62
65.56,29.51
65.39,29.14
65.40,28.89
65.50,28.55
65.04,27.90
64.92,27.71
64.71,27.07
64.53,26.66
63.82,24.67
63.61,23.76
63.22,22.78
61.51,19.24
60.85,17.91
60.11,16.56
56.59,13.02
55.10,12.09
52.10,10.61
50.60,10.03
45.79,9.03
44.34,8.85
42.93,8.73
38.95,8.35
37.79,8.14
35.51,7.87
34.44,7.74
31.44,7.37
30.55,7.29
29.70,7.13
27.24,6.70
26.46,6.55
24.87,6.24
24.18,6.09
22.58,5.73
22.24,5.54
21.81,5.54
21.08,5.34
21.00,5.22
20.40,5.12
20.18,5.21
20.03,5.10
19.99,5.03
19.74,5.02
19.74,4.99
19.82,4.92
20.23,4.68
20.28,4.76
20.34,4.95
20.46,4.98
21.00,5.28
21.14,5.48
21.25,5.69
22.05,5.85
22.50,5.88
22.91,5.91
24.27,5.94
24.88,5.90
25.50,5.90
27.64,5.93
28.26,6.03
29.73,6.25
30.54,6.32
33.28,6.52
34.46,6.58
35.71,6.67
40.10,6.74
41.73,6.81
45.05,7.02
46.72,7.17
51.17,7.90
52.39,8.27
53.61,8.64
56.75,9.99
57.52,10.51
58.17,11.03
59.92,12.50
60.43,12.96
60.94,14.15
61.07,14.79
61.92,16.82
62.20,17.65
62.50,18.68
63.11,22.21
63.61,23.21
64.06,24.32
64.53,27.85
64.59,28.76
64.73,30.14
64.79,30.65
64.71,31.61
64.67,31.70
64.67,31.59
64.86,30.97
64.91,30.81
65.19,30.29
65.36,30.07
65.71,29.51
65.74,29.49
65.82,29.50
65.80,29.30
65.72,29.12
65.58,28.68
65.61,28.24
65.43,26.20
65.24,25.14
65.08,23.93
63.79,20.08
63.18,18.70
62.39,17.39
59.25,13.59
57.87,12.48
54.81,10.98
53.16,10.41
47.45,9.67
45.55,9.55
43.71,9.46
38.15,9.34
36.21,9.21
32.57,8.87
30.86,8.63
26.36,8.06
25.25,7.88
24.32,7.72
22.70,7.53
22.29,7.52
21.58,7.41
21.21,7.31
20.30,6.82
19.91,6.71
19.49,6.51
18.37,6.03
18.05,5.88
17.79,5.73
17.06,5.50
16.90,5.39
16.61,5.13
16.34,4.89
16.09,4.90
16.03,4.68
16.05,4.61
16.23,4.41
16.35,4.34
16.39,4.34
16.74,4.24
16.75,4.32
16.78,4.30
16.83,4.37
16.82,4.41
16.97,4.36
16.97,4.41
17.13,4.59
17.24,4.61
17.32,4.70
17.89,5.26
18.15,5.48
18.94,5.81
19.38,6.04
20.83,6.49
21.43,6.54
22.02,6.59
23.99,6.79
24.73,6.94
26.61,7.59
27.88,8.04
31.57,10.50
32.72,11.80
33.94,13.30
37.44,19.13
38.63,21.50
40.91,27.03
42.35,30.01
47.15,40.94
48.71,45.52
50.19,50.57
53.58,68.45
54.36,74.92
54.95,81.51
55.36,88.09
55.71,94.46
56.61,110.49
57.00,114.48
57.23,118.04
58.18,125.83
58.45,127.58
59.51,132.11
59.80,132.76
60.47,134.00
60.65,134.27
60.81,134.51
60.87,135.25
60.75,135.45
60.71,135.54
60.74,135.72
60.68,135.75
60.56,135.81
60.27,135.58
60.17,135.35
59.12,134.65
58.33,133.93
55.27,129.91
54.07,127.52
52.75,124.16
48.84,109.61
47.61,103.60
45.39,89.88
44.43,82.33
41.31,58.80
40.35,51.37
39.42,44.38
36.15,27.31
34.90,23.12
32.34,16.48
31.06,14.16
27.28,10.62
26.14,9.98
25.07,9.54
22.50,8.25
21.78,7.98
20.47,7.62
19.90,7.40
18.30,6.68
17.76,6.56
17.32,6.43
16.17,5.60
15.82,5.31
15.15,4.78
14.82,4.54
13.99,3.77
13.74,3.55
13.56,3.44
13.01,3.24
12.89,3.21
12.82,3.23
13.03,3.38
13.19,3.47
13.64,3.67
13.97,3.85
15.61,4.69
16.27,5.01
17.04,5.32
20.15,6.62
21.34,7.21
23.84,8.64
25.15,9.69
29.03,14.80
30.23,17.58
31.34,21.11
34.83,34.52
36.28,39.43
39.41,49.54
41.12,54.86
45.89,70.47
47.25,75.47
48.40,80.41
50.70,94.76
50.99,99.28
51.79,110.04
52.59,117.29
52.74,119.15
52.94,120.75
53.72,124.66
53.92,125.88
54.36,127.82
54.84,128.65
55.75,130.75
56.08,131.33
56.45,131.83
57.43,133.16
57.82,133.45
58.20,133.83
58.44,133.99
59.20,134.21
59.42,134.23
59.30,134.34
59.31,134.20
59.48,134.08
59.63,133.88
59.87,133.35
59.85,133.15
59.95,132.86
60.03,132.77
60.03,132.68
59.91,132.68
59.80,132.67
59.19,132.65
58.95,132.43
57.92,131.51
57.24,130.61
54.23,124.13
52.94,120.21
51.48,115.41
46.27,97.63
44.59,90.98
41.26,76.67
39.69,69.66
35.79,51.08
34.90,45.81
34.02,41.03
31.86,28.33
31.24,24.99
30.09,19.59
29.43,17.51
27.12,13.10
26.33,12.14
25.52,11.17
23.29,9.47
22.57,9.11
21.94,8.74
20.67,7.34
20.37,6.83
19.94,5.97
19.72,5.56
19.19,4.43
19.09,4.18
18.94,3.94
18.40,3.48
18.23,3.40
17.95,3.24
17.78,3.21
17.28,3.07
17.13,3.06
17.08,3.03
17.04,2.96
17.15,2.95
17.60,3.06
17.87,3.20
18.69,3.78
18.97,4.03
19.40,4.31
20.32,4.72
20.66,4.92
23.00,6.43
24.09,7.36
25.26,8.49
29.13,13.95
30.26,17.19
32.60,24.96
33.71,29.39
36.59,44.66
37.55,50.10
38.71,55.29
41.57,72.09
42.40,77.71
43.94,88.49
44.50,93.65
45.99,108.45
46.26,112.86
46.95,116.34
49.30,124.89
50.20,127.08
51.15,128.98
53.64,133.45
54.36,134.30
55.12,135.74
55.49,136.13
56.00,137.06
56.03,137.24
56.32,137.33
57.10,137.54
57.26,137.54
58.10,137.44
58.16,137.41
58.70,137.19
58.69,137.10
58.77,136.98
58.33,136.61
57.95,136.53
57.56,136.44
57.21,136.34
55.33,135.61
54.59,135.10
53.74,134.48
51.04,130.81
49.83,129.08
46.99,124.57
45.44,121.87
40.42,111.71
38.62,107.83
37.00,103.53
33.01,89.00
32.08,83.86
30.66,72.89
30.14,67.16
28.57,50.14
28.05,44.78
27.55,39.52
25.82,25.37
25.29,21.49
24.73,18.12
23.09,11.23
22.57,9.71
21.69,7.74
21.36,6.99
20.24,5.45
19.91,5.10
19.71,4.71
19.21,3.66
19.01,3.40
18.62,2.98
18.48,2.89
18.01,2.63
17.86,2.59
17.67,2.64
17.39,2.69
17.08,2.88
16.96,2.96
16.86,3.07
16.58,3.42
16.68,3.56
17.00,3.94
17.23,4.30
18.08,6.31
18.36,7.33
18.73,8.46
19.05,13.89
19.08,16.29
19.07,22.17
19.03,26.14
19.03,42.52
19.06,49.78
19.21,57.50
19.27,82.98
19.30,91.39
19.55,106.08
19.64,112.40
19.87,125.64
19.96,128.62
20.14,130.94
20.58,135.99
20.75,137.33
21.17,139.56
21.37,140.51
22.16,142.96
22.51,143.62
22.81,144.31
23.69,145.99
23.98,146.32
24.44,146.90
24.59,147.16
24.59,147.25
24.41,147.15
24.19,146.92
23.12,145.55
22.69,144.81
21.78,143.13
21.42,142.08
20.36,134.99
20.01,130.41
19.76,124.63
19.13,100.28
18.92,90.68
18.56,71.22
18.43,62.30
18.25,41.37
18.22,36.90
18.23,30.53
18.22,27.93
18.21,21.42
18.22,19.56
18.17,17.87
17.99,13.48
17.92,12.17
17.85,11.21
17.59,8.85
17.44,8.19
17.11,7.07
16.94,6.59
16.37,5.62
16.18,5.35
15.97,5.16
15.65,4.61
15.61,4.40
15.61,4.12
15.60,4.03
15.73,3.73
15.76,3.70
15.78,3.67
15.83,3.70
15.80,3.76
15.86,3.99
15.96,4.11
16.11,4.29
16.81,5.17
17.04,5.68
17.57,7.28
17.77,8.44
18.16,13.12
18.14,15.29
18.10,17.77
17.96,27.39
17.94,31.58
17.93,41.73
17.89,47.76
18.03,68.56
18.09,75.95
18.17,83.09
18.50,103.37
18.60,109.15
18.91,118.69
19.06,122.49
19.74,131.71
19.98,134.12
20.18,136.19
21.07,140.73
21.40,141.85
22.00,143.84
22.32,144.64
23.27,146.45
23.49,147.00
23.71,147.41
24.14,148.55
24.25,148.70
24.24,149.07
24.17,149.19
23.67,148.97
23.31,148.63
23.00,148.21
21.73,146.37
21.19,145.36
20.23,142.79
19.85,141.15
19.02,131.07
18.76,123.88
18.55,115.06
17.98,84.29
17.81,73.35
17.47,51.46
17.33,41.66
16.94,22.44
16.72,18.96
16.57,16.27
16.00,10.84
15.72,9.68
15.21,8.15
15.00,7.63
14.46,6.38
14.31,6.04
14.13,5.82
13.68,5.07
13.56,4.87
13.43,4.53
13.35,4.36
13.24,3.78
13.27,3.61
13.31,3.43
13.37,2.98
13.41,2.83
13.56,2.57
13.61,2.50
13.68,2.33
13.69,2.31
13.72,2.29
13.68,2.38
13.61,2.44
13.54,2.51
13.38,2.84
13.32,2.98
13.37,3.40
13.54,3.68
14.75,5.02
15.42,5.60
16.23,6.22
19.24,8.02
20.46,8.73
22.99,10.33
24.30,11.00
27.84,12.48
28.99,12.86
30.21,13.25
33.61,13.51
34.69,13.36
37.07,13.27
38.42,13.26
42.08,12.95
43.32,12.88
44.51,12.90
47.73,12.77
48.54,12.70
50.05,12.51
50.67,12.53
52.13,12.65
52.56,12.72
53.08,12.77
54.25,13.10
54.68,13.22
55.47,13.44
55.84,13.46
56.42,13.65
56.62,13.63
56.71,13.67
56.83,13.63
56.87,13.59
56.64,13.40
56.50,13.28
56.27,13.11
55.19,12.44
54.62,12.19
53.89,11.95
51.01,11.24
49.87,11.03
46.31,10.40
42.81,10.06
41.83,9.91
39.24,9.39
38.32,9.27
37.34,9.20
34.55,8.89
33.46,8.88
31.26,8.84
30.25,8.73
27.74,8.47
26.91,8.34
26.19,8.15
24.29,7.55
23.73,7.44
23.17,7.35
21.41,7.02
20.96,6.88
19.79,6.83
19.25,6.73
17.72,6.47
17.23,6.27
16.72,6.14
16.09,5.92
15.86,5.87
14.74,5.43
14.35,5.26
14.13,5.06
13.31,4.48
13.28,4.26
12.91,3.81
12.78,3.60
12.24,2.96
12.07,2.77
11.90,2.57
11.20,2.09
11.05,1.94
10.81,1.67
10.75,1.58
10.41,1.42
10.30,1.42
10.14,1.47
9.67,1.61
9.53,1.67
9.39,1.74
9.09,1.86
9.08,1.87
9.14,1.82
9.19,1.80
9.41,1.76
9.50,1.77
9.64,1.74
10.12,1.72
10.46,1.86
11.60,2.22
12.20,2.50
14.21,3.34
14.93,3.70
15.66,4.12
17.57,5.14
18.05,5.49
19.23,5.92
19.83,6.18
22.23,6.62
23.10,6.73
23.96,6.82
27.00,7.16
28.00,7.35
30.41,7.50
31.73,7.50
35.75,7.74
36.99,7.81
38.11,7.89
41.44,7.87
42.58,7.93
44.41,8.26
45.33,8.38
48.35,8.59
49.36,8.73
50.36,8.87
51.23,9.02
52.02,9.21
53.99,9.56
54.45,9.76
54.89,10.03
56.72,10.77
57.30,11.07
57.87,11.33
59.44,12.49
59.95,12.79
60.67,13.26
60.73,13.40
60.91,13.72
61.07,13.79
61.19,13.89
61.38,14.12
61.41,14.23
61.63,14.33
61.65,14.30
60.37,13.76
59.95,13.36
59.17,12.95
56.55,11.41
55.43,10.91
53.00,10.07
51.70,9.72
47.68,8.94
46.37,8.81
45.17,8.71
41.41,8.61
40.48,8.53
38.44,8.36
37.27,8.35
33.30,8.34
31.78,8.31
30.62,8.16
26.56,7.96
25.28,7.92
23.03,7.52
22.09,7.32
19.71,6.84
18.96,6.72
18.29,6.55
17.01,6.10
16.64,6.00
16.36,5.62
16.27,5.43
16.02,4.76
15.97,4.47
16.06,4.20
16.01,3.50
15.93,3.31
15.76,2.94
15.74,2.80
15.48,2.56
15.29,2.49
15.15,2.43
14.96,2.22
14.98,2.14
14.96,1.97
15.09,1.85
15.15,1.82
15.18,1.75
15.20,1.77
15.35,1.92
15.44,2.01
15.62,2.12
16.22,2.72
16.50,2.98
17.24,3.60
17.82,4.01
19.89,5.15
20.93,5.53
22.24,5.91
27.07,7.00
28.89,7.21
32.67,7.69
34.45,8.01
39.40,8.63
40.97,8.79
42.42,8.97
46.38,9.49
47.71,9.51
50.36,9.67
51.49,9.82
54.15,10.18
55.02,10.29
55.84,10.45
58.30,11.54
59.09,12.14
61.64,14.20
63.84,16.70
64.33,17.54
64.84,18.80
65.02,19.41
65.42,21.48
65.54,22.32
65.59,23.18
65.84,25.98
65.92,27.00
66.20,28.51
66.14,29.06
66.09,29.42
65.90,28.78
65.65,27.56
62.95,22.47
61.56,20.46
60.04,18.41
54.30,12.79
51.99,11.52
47.19,9.93
44.99,9.29
38.59,8.54
36.49,8.41
34.53,8.21
29.98,7.41
28.75,7.19
26.53,6.83
25.69,6.62
23.71,6.08
22.94,6.02
21.64,5.94
21.07,5.94
19.55,5.99
19.14,6.00
18.67,5.95
17.63,5.58
17.34,5.35
16.77,4.67
16.65,4.47
16.51,4.29
16.50,3.88
16.50,3.85
16.41,3.85
16.34,3.81
16.23,3.66
16.20,3.61
16.17,3.55
16.18,3.46
16.28,3.47
16.53,3.53
16.65,3.64
17.10,3.93
17.37,4.04
17.65,4.15
18.42,4.54
18.65,4.65
19.38,4.89
19.61,4.96
19.82,5.01
20.49,5.30
20.83,5.41
21.37,5.52
21.65,5.61
22.70,5.91
23.21,6.01
23.81,6.13
26.45,6.55
27.69,6.82
32.27,7.48
33.90,7.72
35.66,7.92
40.61,8.65
42.27,8.87
45.48,9.40
47.07,9.66
51.25,11.01
52.62,11.65
53.93,12.62
57.51,16.90
58.58,18.59
61.40,24.13
62.24,26.23
62.99,28.26
64.73,33.88
65.11,35.64
65.90,39.21
66.23,41.07
66.81,46.19
66.92,47.59
66.96,48.96
66.95,50.34
66.56,49.33
65.22,45.14
64.20,41.86
60.07,29.68
58.35,25.53
56.37,21.70
51.34,12.51
49.80,10.60
45.81,7.83
44.44,7.35
43.03,6.95
38.61,6.13
37.21,6.06
34.46,5.88
33.10,5.85
29.86,5.58
28.84,5.51
28.05,5.44
25.84,5.12
25.30,4.99
23.91,4.69
23.53,4.53
23.29,4.33
22.82,3.70
22.73,3.53
22.58,3.21
22.58,3.02
22.79,2.66
22.85,2.69
22.90,2.66
22.99,2.62
23.12,2.61
23.62,2.73
23.79,2.83
24.05,2.97
24.88,3.83
25.13,4.29
25.36,4.78
25.93,7.06
26.07,8.16
26.27,13.25
26.32,15.61
26.37,18.44
26.69,30.41
26.84,34.74
27.22,44.46
27.45,49.93
28.49,67.51
28.93,73.90
29.33,80.82
30.84,102.05
31.33,108.97
33.12,127.45
33.79,132.64
34.50,137.04
36.68,146.11
37.61,148.14
39.34,151.41
40.16,152.48
42.21,154.68
42.77,155.01
43.24,155.30
44.09,155.66
44.13,155.72
44.02,155.41
43.81,155.19
43.57,154.87
41.73,153.26
40.51,152.23
37.80,149.60
36.44,148.05
32.40,140.08
31.13,135.02
30.10,128.22
28.48,98.30
28.03,86.49
26.67,50.32
26.14,39.48
25.61,30.05
23.97,12.98
23.48,10.28
22.50,7.22
22.08,6.30
20.99,4.81
20.75,4.48
20.53,4.19
20.09,3.41
20.04,3.20
19.92,2.65
19.88,2.52
19.82,2.45
19.87,2.25
19.89,2.27
19.95,2.29
20.02,2.31
20.45,2.53
20.60,2.66
20.77,2.85
22.15,3.75
22.87,4.14
25.43,5.68
26.55,6.24
27.91,6.77
32.21,8.59
33.63,9.20
36.46,10.77
37.88,11.72
41.80,15.90
42.98,17.63
44.15,19.55
45.32,21.65
46.64,24.03
50.24,33.26
51.26,36.75
52.18,40.61
54.44,55.54
55.04,61.95
55.85,75.61
56.28,82.37
57.92,101.84
58.99,108.16
60.32,113.22
62.52,123.83
63.06,126.38
63.95,130.53
64.24,134.85
64.31,135.46
64.43,135.96
64.69,136.29
64.89,136.52
65.24,136.82
65.21,136.85
64.91,136.55
64.70,136.21
63.57,134.53
62.96,133.41
62.16,131.75
58.21,123.13
56.60,118.48
49.43,101.03
46.56,94.30
43.65,87.12
36.30,64.96
34.31,58.14
31.12,46.60
30.09,41.28
28.41,28.58
27.96,25.39
27.52,22.62
26.00,16.46
25.43,14.83
24.30,12.35
23.83,11.45
22.51,9.69
22.18,9.26
21.88,8.91
21.16,7.98
21.01,7.66
20.73,6.80
20.61,6.39
20.11,5.24
19.95,4.91
19.81,4.59
19.45,4.04
19.33,3.99
19.26,3.89
19.23,3.87
19.31,3.76
19.38,3.73
19.43,3.70
19.69,3.62
19.79,3.60
20.16,3.63
20.43,3.70
21.65,4.43
22.12,5.06
23.15,6.96
23.68,8.54
24.99,16.68
25.43,21.36
26.13,33.77
26.47,41.14
27.74,67.25
28.15,76.75
28.56,86.20
29.96,110.38
30.36,116.88
30.81,122.59
31.34,127.47
31.80,131.75
33.74,140.29
34.47,142.59
36.12,146.27
37.06,147.90
40.13,151.49
40.99,152.45
42.65,153.97
43.36,154.53
45.84,155.95
46.18,156.05
46.94,156.24
47.13,156.29
47.25,156.38
47.46,156.34
47.39,156.25
46.01,155.67
44.75,155.15
40.05,151.31
38.24,148.55
34.49,138.27
32.64,130.43
29.17,98.57
28.54,86.32
27.52,61.81
27.11,50.29
25.90,24.52
25.49,19.60
25.10,15.61
23.85,9.29
23.44,8.22
22.62,6.83
22.19,6.48
20.92,5.49
20.50,5.27
20.11,5.01
19.20,4.06
18.99,3.80
18.75,3.24
18.71,3.00
18.73,2.62
18.77,2.58
18.87,2.63
18.92,2.65
19.03,2.69
19.05,2.68
19.10,2.67
19.08,2.74
19.20,3.14
19.44,3.41
20.36,4.20
20.96,4.76
24.03,7.34
25.49,8.44
28.76,11.08
30.52,12.60
35.72,19.42
37.29,22.63
40.17,30.29
41.49,34.92
44.93,50.79
46.03,56.79
47.48,69.48
48.18,76.12
49.93,95.38
50.27,101.28
50.71,106.84
51.23,121.46
51.44,125.23
51.78,130.82
51.91,133.09
52.39,138.22
52.60,139.50
53.12,141.26
53.42,141.95
54.05,143.34
54.15,143.73
54.41,144.20
54.49,144.30
54.83,144.38
54.91,144.31
55.24,144.22
55.77,143.98
55.99,143.86
56.45,143.61
56.55,143.50
56.78,143.45
56.79,143.38
57.07,143.39
57.13,143.43
57.05,143.45
56.86,143.37
56.50,143.06
54.86,140.94
53.98,139.75
51.66,135.92
50.21,133.38
45.33,123.46
43.70,119.77
40.39,111.57
38.76,106.90
35.10,92.69
34.16,88.08
32.87,79.01
32.49,74.65
31.73,62.40
31.53,58.52
31.17,54.75
30.28,43.76
29.97,40.20
29.13,33.02
28.67,29.62
27.53,21.20
27.23,19.29
26.91,17.54
25.56,12.22
25.09,10.89
24.00,9.02
23.45,8.28
21.77,5.35
21.30,5.01
20.44,4.48
20.06,4.24
19.12,3.49
18.90,3.21
18.66,2.57
18.55,2.34
18.32,1.59
18.24,1.43
18.21,1.30
18.01,1.22
17.89,1.27
17.73,1.38
17.61,1.47
17.48,1.60
17.42,1.65
17.42,1.63
17.08,1.75
16.97,1.77
16.87,1.92
16.89,1.95
17.22,2.30
17.52,2.49
18.15,3.19
18.47,3.74
19.21,6.38
19.33,7.83
19.46,11.27
19.48,13.63
19.49,24.71
19.50,29.90
19.55,44.33
19.76,56.77
19.92,80.33
20.05,89.55
20.40,106.58
20.60,114.22
21.24,129.83
21.41,133.58
21.67,136.39
22.50,142.38
22.82,143.61
23.38,145.50
23.63,146.32
24.46,147.73
24.59,148.16
24.75,148.63
24.73,148.70
24.50,148.04
24.28,147.42
23.74,144.94
23.44,143.01
22.56,129.74
22.28,121.17
22.01,110.92
21.32,75.44
21.17,63.60
20.81,40.97
20.62,31.44
19.93,15.11
19.67,12.81
19.18,9.87
18.87,8.81
18.19,6.52
18.02,5.81
17.83,5.24
17.33,4.08
17.22,3.79
17.01,3.43
16.94,3.31
16.77,3.24
16.73,3.29
16.79,3.39
16.86,3.44
17.18,3.65
17.40,3.72
17.98,3.99
18.49,4.15
20.67,4.99
21.55,5.32
23.70,5.97
24.93,6.22
28.82,7.38
30.23,7.66
33.24,8.31
34.83,8.71
39.33,10.31
40.71,11.10
42.08,12.18
45.50,17.12
46.55,19.31
48.31,24.81
49.12,28.18
51.19,39.94
51.79,44.35
52.29,49.10
53.26,66.03
53.60,71.75
54.38,82.91
54.61,88.33
55.16,103.29
55.61,106.93
56.36,112.96
56.77,115.70
58.28,122.49
59.00,124.34
59.78,126.00
61.72,129.98
62.32,131.05
63.01,132.69
63.45,133.25
64.12,134.09
64.24,134.32
64.40,134.69
64.35,134.78
64.34,135.04
64.42,135.03
64.33,135.09
64.10,134.83
63.96,134.62
63.44,134.19
63.11,133.78
61.61,131.61
60.70,130.26
58.29,126.68
56.93,124.29
52.52,114.69
50.92,110.45
47.72,101.16
46.41,96.32
43.14,82.06
42.25,77.14
40.70,67.50
40.04,62.81
38.49,48.66
38.11,43.85
37.40,34.33
37.07,30.00
35.91,19.67
35.45,17.17
34.95,15.03
33.54,11.00
32.98,10.23
32.01,8.75
31.52,8.22
29.97,7.05
29.48,6.73
28.57,6.21
28.17,5.90
26.80,5.54
26.35,5.43
25.94,5.34
24.69,4.92
24.32,4.82
23.79,4.56
23.55,4.35
22.96,3.84
22.86,3.65
22.65,3.20
22.55,3.02
22.19,2.57
22.13,2.41
22.01,2.11
21.97,2.04
22.01,1.94
22.01,1.90
21.97,1.76
21.95,1.74
21.93,1.65
21.86,1.57
21.78,1.46
21.78,1.41
21.80,1.29
21.80,1.27
21.71,1.28
21.69,1.32
21.65,1.43
21.63,1.41
21.58,1.47
21.61,1.57
21.67,1.65
21.85,2.07
21.97,2.41
22.22,4.17
22.31,4.85
22.37,6.87
22.38,7.98
22.29,12.35
22.25,14.17
22.23,18.93
22.21,22.21
22.21,35.97
22.20,42.23
22.18,56.69
22.22,64.30
22.32,88.35
22.42,95.86
22.52,102.90
22.83,119.88
22.95,124.24
23.12,131.82
23.22,134.69
23.67,140.91
23.88,142.38
24.30,144.65
24.53,145.62
25.46,147.54
25.78,148.18
26.39,149.57
26.69,150.21
27.70,152.02
28.09,152.46
28.35,152.91
28.94,154.02
29.10,154.25
29.25,154.48
29.26,154.51
29.02,154.46
28.94,154.32
28.66,153.72
28.42,153.31
26.87,151.03
26.30,149.95
25.18,146.40
24.59,142.62
23.03,119.13
22.72,108.19
22.25,84.60
22.06,72.28
21.64,37.43
21.54,28.94
21.33,22.51
20.99,12.33
20.84,10.50
20.53,8.12
20.39,7.43
19.98,5.79
19.88,5.47
19.75,5.22
19.47,4.69
19.38,4.58
19.22,4.51
19.17,4.51
19.16,4.36
19.20,4.26
19.32,4.17
19.41,4.09
19.63,3.82
19.70,3.75
19.79,3.64
19.84,3.58
19.93,3.42
19.97,3.35
19.97,3.31
19.98,3.24
20.01,3.21
20.03,3.21
20.00,3.24
19.93,3.45
19.97,3.54
20.18,3.98
20.30,4.42
20.83,6.64
21.07,7.78
21.47,11.01
21.60,13.19
21.83,21.34
21.86,24.94
21.91,29.34
22.06,46.63
22.17,53.65
22.44,68.10
22.56,75.85
22.92,98.44
23.08,105.14
23.41,116.33
23.59,120.98
24.22,132.38
24.49,135.20
25.16,139.70
25.52,141.59
26.55,145.76
26.89,146.89
27.70,148.80
28.07,149.71
29.03,152.07
29.40,152.68
29.74,153.28
30.27,155.01
30.36,155.38
30.53,155.54
30.37,155.43
29.29,154.04
28.79,153.28
27.86,150.80
27.25,149.31
25.49,144.50
25.12,142.51
24.54,138.20
24.35,136.24
23.94,131.78
24.02,130.51
24.00,128.69
23.95,128.42
23.97,127.84
23.98,127.71
24.04,127.56
23.98,127.24
23.96,127.14
23.95,126.85
23.93,126.69
23.81,125.71
23.76,125.27
23.68,124.29
23.64,123.98
23.55,123.46
23.52,123.35
23.50,123.09
23.51,122.73
23.53,118.40
23.54,115.65
23.76,109.79
23.79,106.73
23.73,94.80
23.71,89.79
23.73,84.69
23.38,69.39
23.20,63.63
23.02,52.01
22.99,46.81
22.75,35.00
22.71,31.73
22.64,26.90
22.60,24.89
22.39,19.31
22.33,17.61
22.23,14.74
22.16,13.58
22.03,10.56
21.99,9.82
21.86,8.66
21.75,8.20
21.44,6.73
21.31,6.30
21.04,5.55
20.90,5.27
20.48,4.70
20.36,4.58
20.15,4.36
20.14,4.28
19.84,3.99
19.80,3.85
19.76,3.57
19.73,3.49
19.38,3.44
19.31,3.43
19.26,3.46
19.10,3.65
19.05,3.72
19.13,3.70
19.22,3.70
19.38,3.75
19.43,3.73
19.54,3.82
19.60,3.87
19.69,4.19
19.82,4.29
20.32,4.50
20.66,4.60
21.99,5.18
22.59,5.40
23.99,6.12
24.69,6.70
27.01,9.05
27.85,10.00
28.72,11.07
31.54,15.10
32.44,16.75
34.11,20.89
34.89,23.31
37.00,31.97
37.67,35.43
38.20,38.86
40.30,49.19
41.12,52.72
43.08,58.38
44.12,61.19
47.36,70.07
48.46,73.54
50.08,80.56
50.85,84.01
52.18,97.24
52.41,101.66
52.84,111.40
53.04,113.24
54.05,122.26
54.29,124.52
54.74,128.60
55.12,130.18
56.12,134.40
56.56,135.52
56.94,136.49
58.45,138.92
58.90,139.47
59.33,139.93
60.72,140.78
60.82,141.16
61.72,141.47
61.95,141.66
62.79,141.83
62.73,142.04
62.43,142.28
62.39,142.16
61.94,142.15
61.19,141.89
60.27,141.57
58.44,138.67
57.29,137.18
54.50,133.10
52.83,130.10
47.69,119.26
45.83,115.39
42.56,107.15
41.49,102.59
39.26,89.99
38.78,86.16
38.41,81.74
37.82,65.40
37.59,59.25
36.90,47.05
36.76,40.57
36.11,22.94
35.84,18.51
35.54,11.80
35.39,9.60
34.76,5.86
34.51,5.25
33.78,4.96
33.30,4.79
31.15,4.74
30.44,4.85
29.74,4.94
27.59,4.63
26.98,4.45
26.45,4.19
25.93,4.03
25.38,3.86
23.74,3.08
23.28,2.84
22.47,2.45
22.09,2.38
21.44,2.21
21.38,2.21
21.30,2.18
21.25,2.21
21.14,2.30
21.13,2.32
21.00,2.41
20.98,2.41
20.99,2.54
21.03,2.56
21.11,2.55
21.37,2.61
21.53,2.58
21.87,2.71
22.11,2.75
23.07,2.98
23.48,3.18
24.13,4.12
24.39,4.92
24.72,9.09
24.72,11.20
24.60,16.65
24.47,20.17
24.28,35.70
24.33,42.44
24.51,57.31
24.63,65.35
24.95,89.88
25.05,96.93
25.26,109.62
25.33,114.93
25.65,126.97
25.81,130.03
25.99,132.72
26.66,139.52
26.95,141.37
27.67,144.31
28.01,145.70
29.05,149.21
29.48,150.14
30.27,152.01
30.73,152.89
32.21,155.26
32.72,155.88
33.79,156.98
34.27,157.46
35.65,158.62
36.04,158.87
36.39,159.11
37.39,159.75
37.71,159.94
38.33,160.25
38.65,160.35
39.38,160.59
39.46,160.61
39.50,160.41
39.33,160.19
38.45,159.40
37.93,158.98
37.19,158.41
34.98,156.78
34.30,156.20
32.89,154.55
32.13,153.47
30.20,149.95
29.75,148.49
28.74,143.72
28.28,139.82
27.48,119.26
27.34,109.04
27.25,97.52
27.01,60.73
26.98,49.04
26.68,29.57
26.52,22.28
25.59,11.07
25.18,9.74
24.34,8.49
23.86,8.26
22.59,7.81
22.27,7.68
21.89,7.64
20.90,7.38
20.66,7.23
20.19,6.91
19.97,6.72
19.54,6.18
19.44,6.00
19.40,5.84
19.40,5.58
19.39,5.54
19.55,5.25
19.62,5.19
19.68,5.14
19.70,5.12
19.76,5.07
19.77,4.97
19.82,4.93
19.98,4.84
20.07,4.76
20.59,4.33
20.76,4.18
21.11,3.78
21.30,3.65
21.91,3.08
22.09,2.93
22.39,2.70
22.54,2.58
22.95,2.23
23.04,2.16
23.13,2.14
23.85,2.08
24.24,2.12
25.33,2.58
26.03,2.92
28.79,3.64
30.01,3.89
32.79,4.43
34.33,4.82
39.96,5.71
41.96,6.29
45.96,7.95
47.86,9.13
52.57,13.75
53.92,15.51
55.93,19.39
56.83,21.33
58.76,27.17
59.41,29.06
60.51,33.43
60.94,35.74
61.93,43.69
62.16,46.96
62.39,50.39
63.15,61.70
63.32,65.81
63.46,70.37
63.65,74.94
63.82,79.81
64.66,94.28
64.91,98.69
64.99,103.08
65.36,114.47
65.39,117.49
65.35,120.11
65.21,122.31
65.04,123.83
63.80,123.13
63.05,119.37
61.04,104.38
59.94,94.37
55.37,59.35
53.62,47.60
50.36,26.20
48.76,18.00
43.54,6.26
41.74,5.09
39.79,4.57
34.07,4.44
32.15,4.68
28.65,5.12
27.13,5.20
23.29,5.16
22.40,4.99
20.83,4.63
20.17,4.39
19.58,4.19
19.07,3.96
18.20,3.73
17.88,3.55
17.03,3.19
16.80,3.12
16.61,3.02
16.25,2.84
16.14,2.78
16.25,2.57
16.66,2.38
16.89,2.30
17.34,2.34
17.64,2.37
18.53,2.71
18.88,2.83
19.22,2.99
20.20,3.64
20.42,4.02
20.74,5.59
20.95,6.86
21.32,13.31
21.42,16.16
21.48,19.63
21.96,33.50
22.16,38.98
22.49,50.83
22.64,57.13
23.27,77.10
23.46,83.74
23.64,90.14
24.21,107.48
24.37,112.52
24.66,121.11
24.77,124.89
25.12,133.56
25.26,135.83
25.64,139.92
25.85,141.65
26.83,145.98
27.18,147.16
27.88,149.02
28.24,149.79
29.25,151.67
29.53,152.27
30.06,153.45
30.43,154.24
30.65,154.81
30.82,155.34
31.18,156.76
31.35,157.11
31.60,157.47
31.91,157.74
32.22,158.04
33.27,158.56
33.67,158.47
34.30,158.42
34.45,158.42
33.74,157.59
33.18,157.04
31.62,155.85
30.81,155.07
28.16,150.61
27.24,148.79
26.56,146.77
25.16,137.38
24.78,131.31
23.99,114.31
23.62,103.93
22.55,69.61
22.17,58.01
21.48,37.11
21.14,29.07
20.45,18.16
19.50,10.87
19.18,9.47
18.81,8.39
17.60,6.16
17.20,5.80
16.39,5.44
15.96,5.41
14.87,5.48
14.56,5.50
14.33,5.51
13.71,5.28
13.55,5.20
13.37,4.95
13.29,4.86
13.20,4.65
13.20,4.59
13.18,4.60
13.29,4.57
13.33,4.58
13.45,4.63
13.55,4.66
14.00,4.67
14.19,4.65
14.38,4.62
14.86,4.59
15.06,4.54
15.37,4.47
15.51,4.44
15.96,4.44
16.18,4.45
16.43,4.46
17.30,4.45
17.68,4.46
18.51,4.66
18.94,4.86
20.08,5.81
20.39,6.36
20.90,7.68
21.07,8.44
21.41,11.51
21.45,12.64
21.45,13.80
21.45,14.78
21.38,15.75
21.42,18.69
21.61,19.55
22.45,20.99
23.26,21.77
27.32,25.92
29.12,27.64
32.94,31.35
34.88,33.38
40.41,39.11
42.03,40.84
44.89,43.87
46.19,45.40
49.58,51.11
50.63,53.59
52.42,59.95
53.28,63.10
55.43,75.39
56.07,80.17
56.76,84.89
58.65,98.46
59.27,102.44
59.84,106.55
60.41,110.24
60.92,113.56
62.33,120.96
62.96,122.71
63.81,125.38
64.04,126.45
64.69,128.68
64.89,129.27
65.42,129.80
65.53,130.15
65.33,130.46
65.11,131.41
65.08,131.60
64.54,131.92
64.15,131.82
62.54,131.20
62.16,130.61
61.06,128.96
60.43,128.02
58.94,123.23
58.46,121.00
57.97,118.62
56.55,109.89
56.14,105.96
55.13,96.88
54.70,91.80
53.46,74.98
53.17,68.96
52.58,57.41
52.33,52.10
51.92,38.19
51.70,34.96
51.51,28.46
51.23,25.78
51.12,19.11
50.90,17.51
50.33,14.54
50.06,13.24
48.92,10.70
48.13,10.29
47.07,9.28
46.61,8.66
45.01,7.29
