0.000000,0.000000,0.000000
207139.000000,-0.119900,10.900000
207287.000000,-0.130800,10.900000
207377.000000,-0.141700,10.900000
207591.000000,-0.152600,10.900000
207732.000000,-0.163500,10.900000
207886.000000,-0.174400,10.900000
208125.000000,-0.185300,10.900000
208476.000000,-0.196200,10.900000
208603.000000,-0.207100,10.900000
208964.000000,-0.218000,10.900000
211139.000000,-0.207100,10.900000
211232.000000,-0.196200,10.900000
211322.000000,-0.185300,10.900000
211406.000000,-0.174400,10.900000
211497.000000,-0.163500,10.900000
211743.000000,-0.152600,10.900000
211839.000000,-0.141700,10.900000
211932.000000,-0.130800,10.900000
212026.000000,-0.119900,10.900000
212101.000000,-0.109000,10.900000
212335.000000,-0.098100,10.900000
212356.000000,-0.087200,10.900000
212377.000000,-0.076300,10.900000
212394.000000,-0.065400,10.900000
212560.000000,-0.054500,10.900000
212634.000000,-0.043600,10.900000
212717.000000,-0.032700,10.900000
212808.000000,-0.021800,10.900000
212923.000000,-0.010900,10.900000
213029.000000,0.000000,10.900000
213111.000000,0.010900,10.900000
213233.000000,0.021800,10.900000
213327.000000,0.032700,10.900000
213438.000000,0.043600,10.900000
213550.000000,0.054500,10.900000
213633.000000,0.065400,10.900000
213737.000000,0.076300,10.900000
213844.000000,0.087200,10.900000
213916.000000,0.098100,10.900000
214014.000000,0.109000,10.900000
214099.000000,0.119900,10.900000
214205.000000,0.130800,10.900000
214303.000000,0.141700,10.900000
214402.000000,0.152600,10.900000
214503.000000,0.163500,10.900000
214582.000000,0.174400,10.900000
214683.000000,0.185300,10.900000
214790.000000,0.196200,10.900000
214898.000000,0.207100,10.900000
215135.000000,0.218000,10.900000
220556.000000,0.228900,10.900000
220668.000000,0.239800,10.900000
220763.000000,0.250700,10.900000
220861.000000,0.261600,10.900000
220955.000000,0.272500,10.900000
221043.000000,0.283400,10.900000
221141.000000,0.294300,10.900000
221528.000000,0.283400,10.900000
221752.000000,0.272500,10.900000
221765.000000,0.261600,10.900000
221783.000000,0.250700,10.900000
221825.000000,0.239800,10.900000
221838.000000,0.228900,10.900000
221860.000000,0.218000,10.900000
221869.000000,0.207100,10.900000
221881.000000,0.196200,10.900000
221894.000000,0.185300,10.900000
221913.000000,0.174400,10.900000
221921.000000,0.163500,10.900000
221938.000000,0.152600,10.900000
221954.000000,0.141700,10.900000
221974.000000,0.130800,10.900000
221995.000000,0.119900,10.900000
222016.000000,0.109000,10.900000
222035.000000,0.098100,10.900000
222062.000000,0.087200,10.900000
222375.000000,0.076300,10.900000
222596.000000,0.065400,10.900000
222622.000000,0.054500,10.900000
222636.000000,0.043600,10.900000
222662.000000,0.032700,10.900000
222677.000000,0.021800,10.900000
222695.000000,0.010900,10.900000
222927.000000,0.000000,10.900000
223063.000000,-0.010900,10.900000
223364.000000,-0.021800,10.900000
223388.000000,-0.032700,10.900000
223419.000000,-0.043600,10.900000
223449.000000,-0.054500,10.900000
223677.000000,-0.065400,10.900000
223758.000000,-0.076300,10.900000
223881.000000,-0.087200,10.900000
224116.000000,-0.098100,10.900000
224229.000000,-0.109000,10.900000
224333.000000,-0.119900,10.900000
224449.000000,-0.130800,10.900000
224554.000000,-0.141700,10.900000
224661.000000,-0.152600,10.900000
224764.000000,-0.163500,10.900000
224880.000000,-0.174400,10.900000
224992.000000,-0.185300,10.900000
225122.000000,-0.196200,10.900000
225204.000000,-0.207100,10.900000
225318.000000,-0.218000,10.900000
225434.000000,-0.228900,10.900000
225553.000000,-0.239800,10.900000
225688.000000,-0.250700,10.900000
225810.000000,-0.261600,10.900000
225939.000000,-0.272500,10.900000
226077.000000,-0.283400,10.900000
226197.000000,-0.294300,10.900000
226281.000000,-0.305200,10.900000
226383.000000,-0.316100,10.900000
226493.000000,-0.327000,10.900000
226603.000000,-0.337900,10.900000
226869.000000,-0.348800,10.900000
226891.000000,-0.359700,10.900000
226908.000000,-0.370600,10.900000
226925.000000,-0.381500,10.900000
226951.000000,-0.392400,10.900000
227133.000000,-0.403300,10.900000
227246.000000,-0.414200,10.900000
227373.000000,-0.425100,10.900000
227486.000000,-0.436000,10.900000
227605.000000,-0.446900,10.900000
227733.000000,-0.457800,10.900000
227861.000000,-0.468700,10.900000
227982.000000,-0.479600,10.900000
228127.000000,-0.490500,10.900000
228238.000000,-0.501400,10.900000
228507.000000,-0.512300,10.900000
228529.000000,-0.523200,10.900000
228546.000000,-0.534100,10.900000
228561.000000,-0.545000,10.900000
228579.000000,-0.555900,10.900000
228593.000000,-0.566800,10.900000
228616.000000,-0.577700,10.900000
228633.000000,-0.588600,10.900000
228647.000000,-0.599500,10.900000
228835.000000,-0.610400,10.900000
228940.000000,-0.621300,10.900000
229048.000000,-0.632200,10.900000
229165.000000,-0.643100,10.900000
229272.000000,-0.654000,10.900000
229389.000000,-0.664900,10.900000
229490.000000,-0.675800,10.900000
229590.000000,-0.686700,10.900000
229695.000000,-0.697600,10.900000
229823.000000,-0.708500,10.900000
229947.000000,-0.719400,10.900000
230213.000000,-0.730300,10.900000
230227.000000,-0.741200,10.900000
230248.000000,-0.752100,10.900000
230270.000000,-0.763000,10.900000
230293.000000,-0.773900,10.900000
230306.000000,-0.784800,10.900000
230328.000000,-0.795700,10.900000
230345.000000,-0.806600,10.900000
230367.000000,-0.817500,10.900000
230382.000000,-0.828400,10.900000
230488.000000,-0.839300,10.900000
230611.000000,-0.850200,10.900000
230883.000000,-0.861100,10.900000
230896.000000,-0.872000,10.900000
230920.000000,-0.882900,10.900000
230932.000000,-0.893800,10.900000
230941.000000,-0.904700,10.900000
230963.000000,-0.915600,10.900000
230986.000000,-0.926500,10.900000
231107.000000,-0.937400,10.900000
231365.000000,-0.948300,10.900000
231383.000000,-0.959200,10.900000
231397.000000,-0.970100,10.900000
231409.000000,-0.981000,10.900000
231424.000000,-0.991900,10.900000
231439.000000,-1.002800,10.900000
231632.000000,-1.013700,10.900000
231880.000000,-1.024600,10.900000
231895.000000,-1.035500,10.900000
231912.000000,-1.046400,10.900000
231934.000000,-1.057300,10.900000
231945.000000,-1.068200,10.900000
231954.000000,-1.079100,10.900000
231972.000000,-1.090000,10.900000
231984.000000,-1.100900,10.900000
231999.000000,-1.111800,10.900000
232018.000000,-1.122700,10.900000
232151.000000,-1.133600,10.900000
232417.000000,-1.144500,10.900000
232436.000000,-1.155400,10.900000
232446.000000,-1.166300,10.900000
232483.000000,-1.177200,10.900000
233240.000000,-1.188100,10.900000
233518.000000,-1.177200,10.900000
233801.000000,-1.166300,10.900000
233823.000000,-1.155400,10.900000
233848.000000,-1.144500,10.900000
233864.000000,-1.133600,10.900000
233881.000000,-1.122700,10.900000
233892.000000,-1.111800,10.900000
233909.000000,-1.100900,10.900000
233933.000000,-1.090000,10.900000
234010.000000,-1.079100,10.900000
234259.000000,-1.068200,10.900000
234273.000000,-1.057300,10.900000
234291.000000,-1.046400,10.900000
234306.000000,-1.035500,10.900000
234323.000000,-1.024600,10.900000
234349.000000,-1.013700,10.900000
234372.000000,-1.002800,10.900000
234388.000000,-0.991900,10.900000
234404.000000,-0.981000,10.900000
234419.000000,-0.970100,10.900000
234440.000000,-0.959200,10.900000
234462.000000,-0.948300,10.900000
234482.000000,-0.937400,10.900000
234498.000000,-0.926500,10.900000
234518.000000,-0.915600,10.900000
234539.000000,-0.904700,10.900000
234555.000000,-0.893800,10.900000
234569.000000,-0.882900,10.900000
234598.000000,-0.872000,10.900000
234615.000000,-0.861100,10.900000
234700.000000,-0.850200,10.900000
234955.000000,-0.839300,10.900000
234976.000000,-0.828400,10.900000
234996.000000,-0.817500,10.900000
235012.000000,-0.806600,10.900000
235033.000000,-0.795700,10.900000
235061.000000,-0.784800,10.900000
235065.000000,-0.773900,10.900000
235213.000000,-0.763000,10.900000
235444.000000,-0.752100,10.900000
235457.000000,-0.741200,10.900000
235475.000000,-0.730300,10.900000
235491.000000,-0.719400,10.900000
235518.000000,-0.708500,10.900000
235530.000000,-0.697600,10.900000
235654.000000,-0.686700,10.900000
235912.000000,-0.675800,10.900000
235913.000000,-0.664900,10.900000
235933.000000,-0.654000,10.900000
235954.000000,-0.643100,10.900000
235973.000000,-0.632200,10.900000
236003.000000,-0.621300,10.900000
236009.000000,-0.610400,10.900000
236033.000000,-0.599500,10.900000
236050.000000,-0.588600,10.900000
236064.000000,-0.577700,10.900000
236090.000000,-0.566800,10.900000
236112.000000,-0.555900,10.900000
236112.000000,-0.545000,10.900000
236138.000000,-0.534100,10.900000
236162.000000,-0.523200,10.900000
236180.000000,-0.512300,10.900000
236200.000000,-0.501400,10.900000
236218.000000,-0.490500,10.900000
236236.000000,-0.479600,10.900000
236256.000000,-0.468700,10.900000
236281.000000,-0.457800,10.900000
236295.000000,-0.446900,10.900000
236311.000000,-0.436000,10.900000
236321.000000,-0.425100,10.900000
236340.000000,-0.414200,10.900000
236360.000000,-0.403300,10.900000
236380.000000,-0.392400,10.900000
236410.000000,-0.381500,10.900000
236429.000000,-0.370600,10.900000
236445.000000,-0.359700,10.900000
236556.000000,-0.348800,10.900000
236793.000000,-0.337900,10.900000
236818.000000,-0.327000,10.900000
236821.000000,-0.316100,10.900000
236847.000000,-0.305200,10.900000
236866.000000,-0.294300,10.900000
236880.000000,-0.283400,10.900000
236900.000000,-0.272500,10.900000
236914.000000,-0.261600,10.900000
236924.000000,-0.250700,10.900000
236942.000000,-0.239800,10.900000
236964.000000,-0.228900,10.900000
236983.000000,-0.218000,10.900000
237006.000000,-0.207100,10.900000
237027.000000,-0.196200,10.900000
237056.000000,-0.185300,10.900000
237081.000000,-0.174400,10.900000
237095.000000,-0.163500,10.900000
237119.000000,-0.152600,10.900000
237128.000000,-0.141700,10.900000
237135.000000,-0.130800,10.900000
237151.000000,-0.119900,10.900000
237167.000000,-0.109000,10.900000
237180.000000,-0.098100,10.900000
237194.000000,-0.087200,10.900000
237206.000000,-0.076300,10.900000
237218.000000,-0.065400,10.900000
237246.000000,-0.054500,10.900000
237263.000000,-0.043600,10.900000
237285.000000,-0.032700,10.900000
237307.000000,-0.021800,10.900000
237323.000000,-0.010900,10.900000
237342.000000,0.000000,10.900000
237366.000000,0.010900,10.900000
237378.000000,0.021800,10.900000
237391.000000,0.032700,10.900000
237412.000000,0.043600,10.900000
237419.000000,0.054500,10.900000
237441.000000,0.065400,10.900000
237451.000000,0.076300,10.900000
237463.000000,0.087200,10.900000
237475.000000,0.098100,10.900000
237486.000000,0.109000,10.900000
237510.000000,0.119900,10.900000
237524.000000,0.130800,10.900000
237541.000000,0.141700,10.900000
237563.000000,0.152600,10.900000
237581.000000,0.163500,10.900000
237593.000000,0.174400,10.900000
237617.000000,0.185300,10.900000
237629.000000,0.196200,10.900000
237660.000000,0.207100,10.900000
237665.000000,0.218000,10.900000
237685.000000,0.228900,10.900000
237703.000000,0.239800,10.900000
237991.000000,0.250700,10.900000
238294.000000,0.261600,10.900000
238318.000000,0.272500,10.900000
238322.000000,0.283400,10.900000
238588.000000,0.294300,10.900000
238782.000000,0.305200,10.900000
238917.000000,0.316100,10.900000
239241.000000,0.305200,10.900000
239523.000000,0.294300,10.900000
239534.000000,0.283400,10.900000
239580.000000,0.272500,10.900000
239602.000000,0.261600,10.900000
239616.000000,0.250700,10.900000
239632.000000,0.239800,10.900000
239653.000000,0.228900,10.900000
239690.000000,0.218000,10.900000
239708.000000,0.207100,10.900000
239731.000000,0.196200,10.900000
239744.000000,0.185300,10.900000
239760.000000,0.174400,10.900000
239773.000000,0.163500,10.900000
240003.000000,0.152600,10.900000
240253.000000,0.141700,10.900000
240278.000000,0.130800,10.900000
240298.000000,0.119900,10.900000
240328.000000,0.109000,10.900000
240353.000000,0.098100,10.900000
240518.000000,0.087200,10.900000
240766.000000,0.076300,10.900000
240874.000000,0.065400,10.900000
241177.000000,0.054500,10.900000
241277.000000,0.043600,10.900000
241466.000000,0.032700,10.900000
241576.000000,0.021800,10.900000
241704.000000,0.010900,10.900000
241944.000000,0.000000,10.900000
242193.000000,-0.010900,10.900000
242362.000000,-0.021800,10.900000
242518.000000,-0.032700,10.900000
242799.000000,-0.043600,10.900000
242935.000000,-0.054500,10.900000
243232.000000,-0.065400,10.900000
243247.000000,-0.076300,10.900000
243275.000000,-0.087200,10.900000
243302.000000,-0.098100,10.900000
243478.000000,-0.109000,10.900000
243580.000000,-0.119900,10.900000
243717.000000,-0.130800,10.900000
243836.000000,-0.141700,10.900000
244255.000000,-0.152600,10.900000
244350.000000,-0.163500,10.900000
244619.000000,-0.174400,10.900000
244643.000000,-0.185300,10.900000
244669.000000,-0.196200,10.900000
244684.000000,-0.207100,10.900000
244700.000000,-0.218000,10.900000
244725.000000,-0.228900,10.900000
244749.000000,-0.239800,10.900000
244762.000000,-0.250700,10.900000
244774.000000,-0.261600,10.900000
244796.000000,-0.272500,10.900000
244817.000000,-0.283400,10.900000
244828.000000,-0.294300,10.900000
244852.000000,-0.305200,10.900000
244878.000000,-0.316100,10.900000
244890.000000,-0.327000,10.900000
244910.000000,-0.337900,10.900000
244923.000000,-0.348800,10.900000
244933.000000,-0.359700,10.900000
244955.000000,-0.370600,10.900000
244972.000000,-0.381500,10.900000
245002.000000,-0.392400,10.900000
245018.000000,-0.403300,10.900000
245039.000000,-0.414200,10.900000
245063.000000,-0.425100,10.900000
245078.000000,-0.436000,10.900000
245095.000000,-0.446900,10.900000
245118.000000,-0.457800,10.900000
245131.000000,-0.468700,10.900000
245153.000000,-0.479600,10.900000
245171.000000,-0.490500,10.900000
245180.000000,-0.501400,10.900000
245200.000000,-0.512300,10.900000
245212.000000,-0.523200,10.900000
245224.000000,-0.534100,10.900000
245245.000000,-0.545000,10.900000
245263.000000,-0.555900,10.900000
245277.000000,-0.566800,10.900000
245292.000000,-0.577700,10.900000
245330.000000,-0.588600,10.900000
245344.000000,-0.599500,10.900000
245363.000000,-0.610400,10.900000
245380.000000,-0.621300,10.900000
245406.000000,-0.632200,10.900000
245426.000000,-0.643100,10.900000
245435.000000,-0.654000,10.900000
245449.000000,-0.664900,10.900000
245463.000000,-0.675800,10.900000
245475.000000,-0.686700,10.900000
245486.000000,-0.697600,10.900000
245505.000000,-0.708500,10.900000
245524.000000,-0.719400,10.900000
245532.000000,-0.730300,10.900000
245550.000000,-0.741200,10.900000
245562.000000,-0.752100,10.900000
245573.000000,-0.763000,10.900000
245604.000000,-0.773900,10.900000
246780.000000,-0.784800,10.900000
247081.000000,-0.795700,10.900000
247103.000000,-0.806600,10.900000
247117.000000,-0.817500,10.900000
247132.000000,-0.828400,10.900000
247154.000000,-0.839300,10.900000
247173.000000,-0.850200,10.900000
247190.000000,-0.861100,10.900000
247214.000000,-0.872000,10.900000
247235.000000,-0.882900,10.900000
247253.000000,-0.893800,10.900000
247565.000000,-0.904700,10.900000
247831.000000,-0.915600,10.900000
247846.000000,-0.926500,10.900000
247864.000000,-0.937400,10.900000
247878.000000,-0.948300,10.900000
247898.000000,-0.959200,10.900000
247917.000000,-0.970100,10.900000
247927.000000,-0.981000,10.900000
247937.000000,-0.991900,10.900000
247958.000000,-1.002800,10.900000
247971.000000,-1.013700,10.900000
248411.000000,-1.024600,10.900000
248723.000000,-1.035500,10.900000
248738.000000,-1.046400,10.900000
248764.000000,-1.057300,10.900000
248788.000000,-1.068200,10.900000
248805.000000,-1.079100,10.900000
249099.000000,-1.090000,10.900000
249517.000000,-1.100900,10.900000
249780.000000,-1.111800,10.900000
249979.000000,-1.122700,10.900000
250094.000000,-1.133600,10.900000
250237.000000,-1.144500,10.900000
250371.000000,-1.155400,10.900000
250447.000000,-1.166300,10.900000
251096.000000,-1.155400,10.900000
251345.000000,-1.144500,10.900000
251367.000000,-1.133600,10.900000
251378.000000,-1.122700,10.900000
251386.000000,-1.111800,10.900000
251412.000000,-1.100900,10.900000
251434.000000,-1.090000,10.900000
251452.000000,-1.079100,10.900000
251469.000000,-1.068200,10.900000
251481.000000,-1.057300,10.900000
251500.000000,-1.046400,10.900000
251522.000000,-1.035500,10.900000
251533.000000,-1.024600,10.900000
251549.000000,-1.013700,10.900000
251571.000000,-1.002800,10.900000
251587.000000,-0.991900,10.900000
251610.000000,-0.981000,10.900000
251628.000000,-0.970100,10.900000
251635.000000,-0.959200,10.900000
251648.000000,-0.948300,10.900000
251672.000000,-0.937400,10.900000
251684.000000,-0.926500,10.900000
251702.000000,-0.915600,10.900000
251716.000000,-0.904700,10.900000
251735.000000,-0.893800,10.900000
251851.000000,-0.882900,10.900000
252106.000000,-0.872000,10.900000
252123.000000,-0.861100,10.900000
252147.000000,-0.850200,10.900000
252162.000000,-0.839300,10.900000
252182.000000,-0.828400,10.900000
252197.000000,-0.817500,10.900000
252220.000000,-0.806600,10.900000
252238.000000,-0.795700,10.900000
252265.000000,-0.784800,10.900000
252283.000000,-0.773900,10.900000
252299.000000,-0.763000,10.900000
252324.000000,-0.752100,10.900000
252334.000000,-0.741200,10.900000
252355.000000,-0.730300,10.900000
252378.000000,-0.719400,10.900000
252404.000000,-0.708500,10.900000
252428.000000,-0.697600,10.900000
252434.000000,-0.686700,10.900000
252450.000000,-0.675800,10.900000
252469.000000,-0.664900,10.900000
252481.000000,-0.654000,10.900000
252500.000000,-0.643100,10.900000
252525.000000,-0.632200,10.900000
252543.000000,-0.621300,10.900000
252562.000000,-0.610400,10.900000
252583.000000,-0.599500,10.900000
252605.000000,-0.588600,10.900000
252626.000000,-0.577700,10.900000
252782.000000,-0.566800,10.900000
252920.000000,-0.555900,10.900000
252998.000000,-0.545000,10.900000
253080.000000,-0.534100,10.900000
253354.000000,-0.523200,10.900000
253381.000000,-0.512300,10.900000
253391.000000,-0.501400,10.900000
253423.000000,-0.490500,10.900000
253451.000000,-0.479600,10.900000
253473.000000,-0.468700,10.900000
253488.000000,-0.457800,10.900000
253515.000000,-0.446900,10.900000
253529.000000,-0.436000,10.900000
253546.000000,-0.425100,10.900000
253569.000000,-0.414200,10.900000
253578.000000,-0.403300,10.900000
253588.000000,-0.392400,10.900000
253603.000000,-0.381500,10.900000
253629.000000,-0.370600,10.900000
253650.000000,-0.359700,10.900000
253802.000000,-0.348800,10.900000
254045.000000,-0.337900,10.900000
254068.000000,-0.327000,10.900000
254089.000000,-0.316100,10.900000
254111.000000,-0.305200,10.900000
254128.000000,-0.294300,10.900000
254136.000000,-0.283400,10.900000
254156.000000,-0.272500,10.900000
254173.000000,-0.261600,10.900000
254185.000000,-0.250700,10.900000
254203.000000,-0.239800,10.900000
254234.000000,-0.228900,10.900000
254253.000000,-0.218000,10.900000
254282.000000,-0.207100,10.900000
254291.000000,-0.196200,10.900000
254312.000000,-0.185300,10.900000
254336.000000,-0.174400,10.900000
254354.000000,-0.163500,10.900000
254373.000000,-0.152600,10.900000
254384.000000,-0.141700,10.900000
254412.000000,-0.130800,10.900000
254424.000000,-0.119900,10.900000
254435.000000,-0.109000,10.900000
254442.000000,-0.098100,10.900000
254463.000000,-0.087200,10.900000
254479.000000,-0.076300,10.900000
254499.000000,-0.065400,10.900000
254524.000000,-0.054500,10.900000
254541.000000,-0.043600,10.900000
254573.000000,-0.032700,10.900000
254592.000000,-0.021800,10.900000
254618.000000,-0.010900,10.900000
254633.000000,0.000000,10.900000
254635.000000,0.010900,10.900000
254657.000000,0.021800,10.900000
254681.000000,0.032700,10.900000
254689.000000,0.043600,10.900000
254708.000000,0.054500,10.900000
254730.000000,0.065400,10.900000
254740.000000,0.076300,10.900000
254762.000000,0.087200,10.900000
254783.000000,0.098100,10.900000
254789.000000,0.109000,10.900000
254814.000000,0.119900,10.900000
254835.000000,0.130800,10.900000
254851.000000,0.141700,10.900000
254870.000000,0.152600,10.900000
255024.000000,0.163500,10.900000
255132.000000,0.174400,10.900000
255222.000000,0.185300,10.900000
255351.000000,0.196200,10.900000
255452.000000,0.207100,10.900000
255537.000000,0.218000,10.900000
255670.000000,0.228900,10.900000
255773.000000,0.239800,10.900000
255864.000000,0.250700,10.900000
255983.000000,0.239800,10.900000
256401.000000,0.228900,10.900000
256547.000000,0.218000,10.900000
256765.000000,0.207100,10.900000
256855.000000,0.196200,10.900000
257284.000000,0.185300,10.900000
257571.000000,0.174400,10.900000
257591.000000,0.163500,10.900000
257609.000000,0.152600,10.900000
257627.000000,0.141700,10.900000
257649.000000,0.130800,10.900000
257669.000000,0.119900,10.900000
257689.000000,0.109000,10.900000
257704.000000,0.098100,10.900000
257747.000000,0.087200,10.900000
257775.000000,0.076300,10.900000
257799.000000,0.065400,10.900000
257805.000000,0.054500,10.900000
257830.000000,0.043600,10.900000
257840.000000,0.032700,10.900000
257854.000000,0.021800,10.900000
257870.000000,0.010900,10.900000
257894.000000,0.000000,10.900000
257900.000000,-0.010900,10.900000
257921.000000,-0.021800,10.900000
258190.000000,-0.032700,10.900000
258264.000000,-0.043600,10.900000
258488.000000,-0.054500,10.900000
258775.000000,-0.065400,10.900000
258794.000000,-0.076300,10.900000
258821.000000,-0.087200,10.900000
258833.000000,-0.098100,10.900000
258849.000000,-0.109000,10.900000
258864.000000,-0.119900,10.900000
258888.000000,-0.130800,10.900000
258901.000000,-0.141700,10.900000
258924.000000,-0.152600,10.900000
258942.000000,-0.163500,10.900000
258952.000000,-0.174400,10.900000
258971.000000,-0.185300,10.900000
259010.000000,-0.196200,10.900000
259028.000000,-0.207100,10.900000
259042.000000,-0.218000,10.900000
259058.000000,-0.228900,10.900000
259075.000000,-0.239800,10.900000
259118.000000,-0.250700,10.900000
259140.000000,-0.261600,10.900000
259152.000000,-0.272500,10.900000
259169.000000,-0.283400,10.900000
259184.000000,-0.294300,10.900000
259194.000000,-0.305200,10.900000
259214.000000,-0.316100,10.900000
259233.000000,-0.327000,10.900000
259244.000000,-0.337900,10.900000
259271.000000,-0.348800,10.900000
259289.000000,-0.359700,10.900000
259304.000000,-0.370600,10.900000
259322.000000,-0.381500,10.900000
259336.000000,-0.392400,10.900000
259353.000000,-0.403300,10.900000
259374.000000,-0.414200,10.900000
259390.000000,-0.425100,10.900000
259403.000000,-0.436000,10.900000
259428.000000,-0.446900,10.900000
259447.000000,-0.457800,10.900000
259474.000000,-0.468700,10.900000
259500.000000,-0.479600,10.900000
259521.000000,-0.490500,10.900000
259533.000000,-0.501400,10.900000
259546.000000,-0.512300,10.900000
259559.000000,-0.523200,10.900000
259574.000000,-0.534100,10.900000
259597.000000,-0.545000,10.900000
259613.000000,-0.555900,10.900000
259633.000000,-0.566800,10.900000
259644.000000,-0.577700,10.900000
259654.000000,-0.588600,10.900000
259673.000000,-0.599500,10.900000
259695.000000,-0.610400,10.900000
259717.000000,-0.621300,10.900000
259738.000000,-0.632200,10.900000
259772.000000,-0.643100,10.900000
259799.000000,-0.654000,10.900000
259813.000000,-0.664900,10.900000
259825.000000,-0.675800,10.900000
259839.000000,-0.686700,10.900000
259853.000000,-0.697600,10.900000
259865.000000,-0.708500,10.900000
259878.000000,-0.719400,10.900000
259890.000000,-0.730300,10.900000
259913.000000,-0.741200,10.900000
259928.000000,-0.752100,10.900000
259942.000000,-0.763000,10.900000
259953.000000,-0.773900,10.900000
259976.000000,-0.784800,10.900000
259990.000000,-0.795700,10.900000
260002.000000,-0.806600,10.900000
260016.000000,-0.817500,10.900000
260024.000000,-0.828400,10.900000
260036.000000,-0.839300,10.900000
261023.000000,-0.850200,10.900000
261484.000000,-0.839300,10.900000
263193.000000,-0.850200,10.900000
264330.000000,-0.861100,10.900000
264611.000000,-0.872000,10.900000
265624.000000,-0.882900,10.900000
265866.000000,-0.893800,10.900000
266083.000000,-0.904700,10.900000
266213.000000,-0.915600,10.900000
266346.000000,-0.926500,10.900000
266423.000000,-0.937400,10.900000
266529.000000,-0.948300,10.900000
266602.000000,-0.959200,10.900000
266712.000000,-0.970100,10.900000
266823.000000,-0.981000,10.900000
266933.000000,-0.991900,10.900000
267023.000000,-1.002800,10.900000
267104.000000,-1.013700,10.900000
267185.000000,-1.024600,10.900000
267295.000000,-1.035500,10.900000
267374.000000,-1.046400,10.900000
267473.000000,-1.057300,10.900000
267563.000000,-1.068200,10.900000
267811.000000,-1.079100,10.900000
267818.000000,-1.090000,10.900000
267836.000000,-1.100900,10.900000
267860.000000,-1.111800,10.900000
268272.000000,-1.100900,10.900000
268502.000000,-1.090000,10.900000
268515.000000,-1.079100,10.900000
268538.000000,-1.068200,10.900000
268551.000000,-1.057300,10.900000
268566.000000,-1.046400,10.900000
268583.000000,-1.035500,10.900000
268602.000000,-1.024600,10.900000
268610.000000,-1.013700,10.900000
268622.000000,-1.002800,10.900000
268639.000000,-0.991900,10.900000
268656.000000,-0.981000,10.900000
268671.000000,-0.970100,10.900000
268693.000000,-0.959200,10.900000
268710.000000,-0.948300,10.900000
268713.000000,-0.937400,10.900000
268740.000000,-0.926500,10.900000
268819.000000,-0.915600,10.900000
269066.000000,-0.904700,10.900000
269080.000000,-0.893800,10.900000
269095.000000,-0.882900,10.900000
269118.000000,-0.872000,10.900000
269138.000000,-0.861100,10.900000
269160.000000,-0.850200,10.900000
269178.000000,-0.839300,10.900000
269203.000000,-0.828400,10.900000
269225.000000,-0.817500,10.900000
269250.000000,-0.806600,10.900000
269268.000000,-0.795700,10.900000
269293.000000,-0.784800,10.900000
269314.000000,-0.773900,10.900000
269420.000000,-0.763000,10.900000
269538.000000,-0.752100,10.900000
269627.000000,-0.741200,10.900000
269736.000000,-0.730300,10.900000
269855.000000,-0.719400,10.900000
270141.000000,-0.708500,10.900000
270160.000000,-0.697600,10.900000
270180.000000,-0.686700,10.900000
270198.000000,-0.675800,10.900000
270215.000000,-0.664900,10.900000
270233.000000,-0.654000,10.900000
270253.000000,-0.643100,10.900000
270268.000000,-0.632200,10.900000
270286.000000,-0.621300,10.900000
270303.000000,-0.610400,10.900000
270413.000000,-0.599500,10.900000
270531.000000,-0.588600,10.900000
270643.000000,-0.577700,10.900000
270758.000000,-0.566800,10.900000
270844.000000,-0.555900,10.900000
270983.000000,-0.545000,10.900000
271159.000000,-0.534100,10.900000
271249.000000,-0.523200,10.900000
271346.000000,-0.512300,10.900000
271440.000000,-0.501400,10.900000
271545.000000,-0.490500,10.900000
271811.000000,-0.479600,10.900000
271826.000000,-0.468700,10.900000
271848.000000,-0.457800,10.900000
271860.000000,-0.446900,10.900000
271895.000000,-0.436000,10.900000
271903.000000,-0.425100,10.900000
271921.000000,-0.414200,10.900000
271936.000000,-0.403300,10.900000
271953.000000,-0.392400,10.900000
271969.000000,-0.381500,10.900000
271979.000000,-0.370600,10.900000
271993.000000,-0.359700,10.900000
272008.000000,-0.348800,10.900000
272027.000000,-0.337900,10.900000
272040.000000,-0.327000,10.900000
272059.000000,-0.316100,10.900000
272080.000000,-0.305200,10.900000
272101.000000,-0.294300,10.900000
272116.000000,-0.283400,10.900000
272129.000000,-0.272500,10.900000
272139.000000,-0.261600,10.900000
272163.000000,-0.250700,10.900000
272171.000000,-0.239800,10.900000
272178.000000,-0.228900,10.900000
272203.000000,-0.218000,10.900000
272228.000000,-0.207100,10.900000
272250.000000,-0.196200,10.900000
272263.000000,-0.185300,10.900000
272269.000000,-0.174400,10.900000
272289.000000,-0.163500,10.900000
272449.000000,-0.152600,10.900000
272590.000000,-0.141700,10.900000
272879.000000,-0.130800,10.900000
272903.000000,-0.119900,10.900000
272919.000000,-0.109000,10.900000
272935.000000,-0.098100,10.900000
272955.000000,-0.087200,10.900000
272973.000000,-0.076300,10.900000
272997.000000,-0.065400,10.900000
273023.000000,-0.054500,10.900000
273033.000000,-0.043600,10.900000
273061.000000,-0.032700,10.900000
273079.000000,-0.021800,10.900000
273112.000000,-0.010900,10.900000
273122.000000,0.000000,10.900000
273147.000000,0.010900,10.900000
273164.000000,0.021800,10.900000
273178.000000,0.032700,10.900000
273199.000000,0.043600,10.900000
273214.000000,0.054500,10.900000
273226.000000,0.065400,10.900000
273255.000000,0.076300,10.900000
273268.000000,0.087200,10.900000
273278.000000,0.098100,10.900000
273293.000000,0.109000,10.900000
273314.000000,0.119900,10.900000
273333.000000,0.130800,10.900000
273353.000000,0.141700,10.900000
273365.000000,0.152600,10.900000
273386.000000,0.163500,10.900000
273406.000000,0.174400,10.900000
273424.000000,0.185300,10.900000
273433.000000,0.196200,10.900000
273450.000000,0.207100,10.900000
273463.000000,0.218000,10.900000
273637.000000,0.228900,10.900000
274121.000000,0.218000,10.900000
274458.000000,0.207100,10.900000
274746.000000,0.196200,10.900000
274767.000000,0.185300,10.900000
274823.000000,0.174400,10.900000
274832.000000,0.163500,10.900000
274866.000000,0.152600,10.900000
274880.000000,0.141700,10.900000
274897.000000,0.130800,10.900000
274915.000000,0.119900,10.900000
274929.000000,0.109000,10.900000
274945.000000,0.098100,10.900000
274962.000000,0.087200,10.900000
274973.000000,0.076300,10.900000
274996.000000,0.065400,10.900000
275002.000000,0.054500,10.900000
275015.000000,0.043600,10.900000
275028.000000,0.032700,10.900000
275050.000000,0.021800,10.900000
275066.000000,0.010900,10.900000
275128.000000,0.000000,10.900000
275160.000000,-0.010900,10.900000
275167.000000,-0.021800,10.900000
275186.000000,-0.032700,10.900000
275225.000000,-0.043600,10.900000
275770.000000,-0.054500,10.900000
276060.000000,-0.065400,10.900000
276078.000000,-0.076300,10.900000
276099.000000,-0.087200,10.900000
276128.000000,-0.098100,10.900000
276142.000000,-0.109000,10.900000
276168.000000,-0.119900,10.900000
276174.000000,-0.130800,10.900000
276194.000000,-0.141700,10.900000
276215.000000,-0.152600,10.900000
276232.000000,-0.163500,10.900000
276255.000000,-0.174400,10.900000
276274.000000,-0.185300,10.900000
276284.000000,-0.196200,10.900000
276304.000000,-0.207100,10.900000
276328.000000,-0.218000,10.900000
276343.000000,-0.228900,10.900000
276362.000000,-0.239800,10.900000
276380.000000,-0.250700,10.900000
276403.000000,-0.261600,10.900000
276421.000000,-0.272500,10.900000
276457.000000,-0.283400,10.900000
276478.000000,-0.294300,10.900000
276632.000000,-0.305200,10.900000
276882.000000,-0.316100,10.900000
276901.000000,-0.327000,10.900000
276921.000000,-0.337900,10.900000
276927.000000,-0.348800,10.900000
276969.000000,-0.359700,10.900000
276983.000000,-0.370600,10.900000
277004.000000,-0.381500,10.900000
277027.000000,-0.392400,10.900000
277040.000000,-0.403300,10.900000
277063.000000,-0.414200,10.900000
277073.000000,-0.425100,10.900000
277089.000000,-0.436000,10.900000
277106.000000,-0.446900,10.900000
277280.000000,-0.457800,10.900000
277527.000000,-0.468700,10.900000
277542.000000,-0.479600,10.900000
277573.000000,-0.490500,10.900000
277588.000000,-0.501400,10.900000
277617.000000,-0.512300,10.900000
277631.000000,-0.523200,10.900000
277652.000000,-0.534100,10.900000
277674.000000,-0.545000,10.900000
277677.000000,-0.555900,10.900000
277694.000000,-0.566800,10.900000
277712.000000,-0.577700,10.900000
277731.000000,-0.588600,10.900000
277738.000000,-0.599500,10.900000
277762.000000,-0.610400,10.900000
277777.000000,-0.621300,10.900000
277793.000000,-0.632200,10.900000
277829.000000,-0.643100,10.900000
277845.000000,-0.654000,10.900000
277866.000000,-0.664900,10.900000
277877.000000,-0.675800,10.900000
277887.000000,-0.686700,10.900000
277915.000000,-0.697600,10.900000
277927.000000,-0.708500,10.900000
277939.000000,-0.719400,10.900000
277968.000000,-0.730300,10.900000
277983.000000,-0.741200,10.900000
277998.000000,-0.752100,10.900000
278017.000000,-0.763000,10.900000
278038.000000,-0.773900,10.900000
278062.000000,-0.784800,10.900000
278189.000000,-0.795700,10.900000
278433.000000,-0.806600,10.900000
278454.000000,-0.817500,10.900000
278472.000000,-0.828400,10.900000
278482.000000,-0.839300,10.900000
278503.000000,-0.850200,10.900000
278525.000000,-0.861100,10.900000
278543.000000,-0.872000,10.900000
278564.000000,-0.882900,10.900000
278578.000000,-0.893800,10.900000
278586.000000,-0.904700,10.900000
278604.000000,-0.915600,10.900000
278626.000000,-0.926500,10.900000
278641.000000,-0.937400,10.900000
278659.000000,-0.948300,10.900000
278673.000000,-0.959200,10.900000
278698.000000,-0.970100,10.900000
278722.000000,-0.981000,10.900000
278736.000000,-0.991900,10.900000
278763.000000,-1.002800,10.900000
278787.000000,-1.013700,10.900000
278797.000000,-1.024600,10.900000
278830.000000,-1.035500,10.900000
278834.000000,-1.046400,10.900000
278848.000000,-1.057300,10.900000
279427.000000,-1.068200,10.900000
279656.000000,-1.079100,10.900000
279673.000000,-1.090000,10.900000
279691.000000,-1.100900,10.900000
279701.000000,-1.111800,10.900000
279731.000000,-1.122700,10.900000
279752.000000,-1.133600,10.900000
279767.000000,-1.144500,10.900000
280558.000000,-1.133600,10.900000
280921.000000,-1.122700,10.900000
281201.000000,-1.133600,10.900000
281534.000000,-1.122700,10.900000
281869.000000,-1.133600,10.900000
281987.000000,-1.122700,10.900000
282233.000000,-1.111800,10.900000
282257.000000,-1.100900,10.900000
282273.000000,-1.090000,10.900000
282290.000000,-1.079100,10.900000
282304.000000,-1.068200,10.900000
282328.000000,-1.057300,10.900000
282340.000000,-1.046400,10.900000
282366.000000,-1.035500,10.900000
282387.000000,-1.024600,10.900000
282394.000000,-1.013700,10.900000
282407.000000,-1.002800,10.900000
282456.000000,-0.991900,10.900000
282480.000000,-0.981000,10.900000
282514.000000,-0.970100,10.900000
282529.000000,-0.959200,10.900000
282539.000000,-0.948300,10.900000
282561.000000,-0.937400,10.900000
282583.000000,-0.926500,10.900000
282593.000000,-0.915600,10.900000
282613.000000,-0.904700,10.900000
282622.000000,-0.893800,10.900000
282641.000000,-0.882900,10.900000
282645.000000,-0.872000,10.900000
282659.000000,-0.861100,10.900000
282682.000000,-0.850200,10.900000
282692.000000,-0.839300,10.900000
282708.000000,-0.828400,10.900000
282726.000000,-0.817500,10.900000
282741.000000,-0.806600,10.900000
282754.000000,-0.795700,10.900000
282797.000000,-0.784800,10.900000
282831.000000,-0.773900,10.900000
282849.000000,-0.763000,10.900000
282865.000000,-0.752100,10.900000
282885.000000,-0.741200,10.900000
283089.000000,-0.730300,10.900000
283294.000000,-0.741200,10.900000
283452.000000,-0.752100,10.900000
283538.000000,-0.763000,10.900000
283650.000000,-0.752100,10.900000
283921.000000,-0.741200,10.900000
283929.000000,-0.730300,10.900000
283943.000000,-0.719400,10.900000
284001.000000,-0.708500,10.900000
284022.000000,-0.697600,10.900000
284044.000000,-0.686700,10.900000
284065.000000,-0.675800,10.900000
284083.000000,-0.664900,10.900000
284093.000000,-0.654000,10.900000
284104.000000,-0.643100,10.900000
284119.000000,-0.632200,10.900000
284132.000000,-0.621300,10.900000
284153.000000,-0.610400,10.900000
284178.000000,-0.599500,10.900000
284193.000000,-0.588600,10.900000
284211.000000,-0.577700,10.900000
284225.000000,-0.566800,10.900000
284248.000000,-0.555900,10.900000
284271.000000,-0.545000,10.900000
284290.000000,-0.534100,10.900000
284303.000000,-0.523200,10.900000
284326.000000,-0.512300,10.900000
284338.000000,-0.501400,10.900000
284381.000000,-0.490500,10.900000
284391.000000,-0.479600,10.900000
284403.000000,-0.468700,10.900000
284428.000000,-0.457800,10.900000
284443.000000,-0.446900,10.900000
284631.000000,-0.436000,10.900000
284892.000000,-0.425100,10.900000
284912.000000,-0.414200,10.900000
284934.000000,-0.403300,10.900000
284947.000000,-0.392400,10.900000
284963.000000,-0.381500,10.900000
285007.000000,-0.370600,10.900000
285046.000000,-0.359700,10.900000
285063.000000,-0.348800,10.900000
285082.000000,-0.337900,10.900000
285099.000000,-0.327000,10.900000
285122.000000,-0.316100,10.900000
285134.000000,-0.305200,10.900000
285143.000000,-0.294300,10.900000
285151.000000,-0.283400,10.900000
285173.000000,-0.272500,10.900000
285187.000000,-0.261600,10.900000
285204.000000,-0.250700,10.900000
285223.000000,-0.239800,10.900000
285397.000000,-0.228900,10.900000
285645.000000,-0.218000,10.900000
285652.000000,-0.207100,10.900000
285680.000000,-0.196200,10.900000
285695.000000,-0.185300,10.900000
285702.000000,-0.174400,10.900000
285719.000000,-0.163500,10.900000
285737.000000,-0.152600,10.900000
285759.000000,-0.141700,10.900000
285787.000000,-0.130800,10.900000
285810.000000,-0.119900,10.900000
285834.000000,-0.109000,10.900000
285845.000000,-0.098100,10.900000
285882.000000,-0.087200,10.900000
285922.000000,-0.076300,10.900000
285938.000000,-0.065400,10.900000
285951.000000,-0.054500,10.900000
285973.000000,-0.043600,10.900000
285999.000000,-0.032700,10.900000
286023.000000,-0.021800,10.900000
286041.000000,-0.010900,10.900000
286056.000000,0.000000,10.900000
286076.000000,0.010900,10.900000
286095.000000,0.021800,10.900000
286107.000000,0.032700,10.900000
286131.000000,0.043600,10.900000
286156.000000,0.054500,10.900000
286177.000000,0.065400,10.900000
286197.000000,0.076300,10.900000
286388.000000,0.087200,10.900000
286511.000000,0.098100,10.900000
286610.000000,0.109000,10.900000
288355.000000,0.119900,10.900000
288434.000000,0.130800,10.900000
288516.000000,0.141700,10.900000
288609.000000,0.152600,10.900000
288702.000000,0.163500,10.900000
288784.000000,0.174400,10.900000
289050.000000,0.185300,10.900000
289065.000000,0.196200,10.900000
289089.000000,0.207100,10.900000
289103.000000,0.218000,10.900000
289125.000000,0.228900,10.900000
289152.000000,0.239800,10.900000
289166.000000,0.250700,10.900000
289184.000000,0.261600,10.900000
289207.000000,0.272500,10.900000
289209.000000,0.283400,10.900000
289227.000000,0.294300,10.900000
289254.000000,0.305200,10.900000
289263.000000,0.316100,10.900000
290022.000000,0.305200,10.900000
290271.000000,0.294300,10.900000
290291.000000,0.283400,10.900000
290323.000000,0.272500,10.900000
290339.000000,0.261600,10.900000
290360.000000,0.250700,10.900000
290378.000000,0.239800,10.900000
290394.000000,0.228900,10.900000
290409.000000,0.218000,10.900000
290421.000000,0.207100,10.900000
290437.000000,0.196200,10.900000
290460.000000,0.185300,10.900000
290477.000000,0.174400,10.900000
290496.000000,0.163500,10.900000
290511.000000,0.152600,10.900000
290518.000000,0.141700,10.900000
290537.000000,0.130800,10.900000
290556.000000,0.119900,10.900000
290572.000000,0.109000,10.900000
290596.000000,0.098100,10.900000
290609.000000,0.087200,10.900000
290626.000000,0.076300,10.900000
290644.000000,0.065400,10.900000
290669.000000,0.054500,10.900000
290691.000000,0.043600,10.900000
290710.000000,0.032700,10.900000
290733.000000,0.021800,10.900000
290749.000000,0.010900,10.900000
290769.000000,0.000000,10.900000
290795.000000,-0.010900,10.900000
290816.000000,-0.021800,10.900000
290834.000000,-0.032700,10.900000
290853.000000,-0.043600,10.900000
290879.000000,-0.054500,10.900000
291064.000000,-0.065400,10.900000
291314.000000,-0.076300,10.900000
291326.000000,-0.087200,10.900000
291339.000000,-0.098100,10.900000
291355.000000,-0.109000,10.900000
291360.000000,-0.119900,10.900000
291376.000000,-0.130800,10.900000
291395.000000,-0.141700,10.900000
291419.000000,-0.152600,10.900000
291438.000000,-0.163500,10.900000
291462.000000,-0.174400,10.900000
291480.000000,-0.185300,10.900000
291487.000000,-0.196200,10.900000
291498.000000,-0.207100,10.900000
291509.000000,-0.218000,10.900000
291544.000000,-0.228900,10.900000
291569.000000,-0.239800,10.900000
291580.000000,-0.250700,10.900000
291603.000000,-0.261600,10.900000
291615.000000,-0.272500,10.900000
291637.000000,-0.283400,10.900000
291657.000000,-0.294300,10.900000
291667.000000,-0.305200,10.900000
291683.000000,-0.316100,10.900000
291704.000000,-0.327000,10.900000
291712.000000,-0.337900,10.900000
291724.000000,-0.348800,10.900000
291750.000000,-0.359700,10.900000
291756.000000,-0.370600,10.900000
291763.000000,-0.381500,10.900000
291771.000000,-0.392400,10.900000
291782.000000,-0.403300,10.900000
291797.000000,-0.414200,10.900000
291813.000000,-0.425100,10.900000
291839.000000,-0.436000,10.900000
291863.000000,-0.446900,10.900000
291900.000000,-0.457800,10.900000
291918.000000,-0.468700,10.900000
291940.000000,-0.479600,10.900000
291960.000000,-0.490500,10.900000
291973.000000,-0.501400,10.900000
291983.000000,-0.512300,10.900000
292005.000000,-0.523200,10.900000
292017.000000,-0.534100,10.900000
292262.000000,-0.545000,10.900000
292470.000000,-0.555900,10.900000
292493.000000,-0.566800,10.900000
292513.000000,-0.577700,10.900000
292519.000000,-0.588600,10.900000
292543.000000,-0.599500,10.900000
292558.000000,-0.610400,10.900000
292562.000000,-0.621300,10.900000
292578.000000,-0.632200,10.900000
292592.000000,-0.643100,10.900000
292609.000000,-0.654000,10.900000
292612.000000,-0.664900,10.900000
292629.000000,-0.675800,10.900000
292654.000000,-0.686700,10.900000
292672.000000,-0.697600,10.900000
292697.000000,-0.708500,10.900000
292708.000000,-0.719400,10.900000
292722.000000,-0.730300,10.900000
292746.000000,-0.741200,10.900000
292773.000000,-0.752100,10.900000
292795.000000,-0.763000,10.900000
292815.000000,-0.773900,10.900000
293694.000000,-0.784800,10.900000
293941.000000,-0.795700,10.900000
293960.000000,-0.806600,10.900000
293980.000000,-0.817500,10.900000
293998.000000,-0.828400,10.900000
294016.000000,-0.839300,10.900000
294034.000000,-0.850200,10.900000
294046.000000,-0.861100,10.900000
294160.000000,-0.872000,10.900000
294318.000000,-0.882900,10.900000
294434.000000,-0.893800,10.900000
294564.000000,-0.904700,10.900000
294633.000000,-0.915600,10.900000
294738.000000,-0.926500,10.900000
294816.000000,-0.937400,10.900000
294917.000000,-0.948300,10.900000
295026.000000,-0.959200,10.900000
295191.000000,-0.948300,10.900000
295434.000000,-0.937400,10.900000
295455.000000,-0.926500,10.900000
295465.000000,-0.915600,10.900000
295476.000000,-0.904700,10.900000
295513.000000,-0.893800,10.900000
295531.000000,-0.882900,10.900000
295550.000000,-0.872000,10.900000
295568.000000,-0.861100,10.900000
295595.000000,-0.850200,10.900000
295608.000000,-0.839300,10.900000
295621.000000,-0.828400,10.900000
295711.000000,-0.817500,10.900000
295814.000000,-0.806600,10.900000
295936.000000,-0.795700,10.900000
296052.000000,-0.784800,10.900000
296300.000000,-0.773900,10.900000
296324.000000,-0.763000,10.900000
296332.000000,-0.752100,10.900000
296345.000000,-0.741200,10.900000
296366.000000,-0.730300,10.900000
296380.000000,-0.719400,10.900000
296397.000000,-0.708500,10.900000
296415.000000,-0.697600,10.900000
296424.000000,-0.686700,10.900000
296440.000000,-0.675800,10.900000
296469.000000,-0.664900,10.900000
296481.000000,-0.654000,10.900000
296521.000000,-0.643100,10.900000
296570.000000,-0.632200,10.900000
296583.000000,-0.621300,10.900000
296678.000000,-0.610400,10.900000
296874.000000,-0.599500,10.900000
296893.000000,-0.588600,10.900000
296917.000000,-0.577700,10.900000
296923.000000,-0.566800,10.900000
296932.000000,-0.555900,10.900000
296946.000000,-0.545000,10.900000
296965.000000,-0.534100,10.900000
296974.000000,-0.523200,10.900000
296989.000000,-0.512300,10.900000
297006.000000,-0.501400,10.900000
297024.000000,-0.490500,10.900000
297032.000000,-0.479600,10.900000
297048.000000,-0.468700,10.900000
297070.000000,-0.457800,10.900000
297083.000000,-0.446900,10.900000
297109.000000,-0.436000,10.900000
297121.000000,-0.425100,10.900000
297135.000000,-0.414200,10.900000
297163.000000,-0.403300,10.900000
297176.000000,-0.392400,10.900000
297231.000000,-0.381500,10.900000
297253.000000,-0.370600,10.900000
297269.000000,-0.359700,10.900000
297286.000000,-0.348800,10.900000
297312.000000,-0.337900,10.900000
297330.000000,-0.327000,10.900000
297352.000000,-0.316100,10.900000
297379.000000,-0.305200,10.900000
297633.000000,-0.294300,10.900000
297656.000000,-0.283400,10.900000
297674.000000,-0.272500,10.900000
297687.000000,-0.261600,10.900000
297714.000000,-0.250700,10.900000
297729.000000,-0.239800,10.900000
297753.000000,-0.228900,10.900000
297770.000000,-0.218000,10.900000
297784.000000,-0.207100,10.900000
297879.000000,-0.196200,10.900000
298034.000000,-0.185300,10.900000
298123.000000,-0.174400,10.900000
298187.000000,-0.163500,10.900000
298312.000000,-0.152600,10.900000
298424.000000,-0.141700,10.900000
298483.000000,-0.130800,10.900000
298561.000000,-0.119900,10.900000
298802.000000,-0.109000,10.900000
298822.000000,-0.098100,10.900000
298835.000000,-0.087200,10.900000
298864.000000,-0.076300,10.900000
298873.000000,-0.065400,10.900000
298890.000000,-0.054500,10.900000
298912.000000,-0.043600,10.900000
298924.000000,-0.032700,10.900000
298936.000000,-0.021800,10.900000
298951.000000,-0.010900,10.900000
299037.000000,0.000000,10.900000
299128.000000,0.010900,10.900000
299310.000000,0.000000,10.900000
